<?xml version="1.0" encoding="utf-8"?>
<!-- Generator: Adobe Illustrator 16.2.0, SVG Export Plug-In . SVG Version: 6.00 Build 0)  -->
<!DOCTYPE svg PUBLIC "-//W3C//DTD SVG 1.1//EN" "http://www.w3.org/Graphics/SVG/1.1/DTD/svg11.dtd">
<svg version="1.1" id="Слой_1" xmlns="http://www.w3.org/2000/svg" xmlns:xlink="http://www.w3.org/1999/xlink" x="0px" y="0px"
	 width="43px" height="47px" viewBox="0 0 43 47" enable-background="new 0 0 43 47" xml:space="preserve">
<path d="M42.966,10.951c-0.018-2.899-0.036-5.8-0.036-8.698c0-0.414-0.263-0.784-0.659-0.926c-0.396-0.143-0.839-0.028-1.114,0.287
	C39.465,3.568,35.926,4.83,32.14,4.83c-4.517,0-8.604-1.805-9.719-4.293c-0.322-0.716-1.52-0.716-1.842,0
	c-1.115,2.488-5.202,4.293-9.718,4.293c-3.786,0-7.326-1.262-9.019-3.216c-0.273-0.315-0.718-0.43-1.114-0.287
	C0.332,1.469,0.07,1.839,0.07,2.253c0,2.898-0.018,5.799-0.036,8.698C0.017,13.854,0,16.755,0,19.653
	c0,11.291,8.085,21.738,21.1,27.265C21.229,46.972,21.363,47,21.5,47c0.136,0,0.271-0.027,0.4-0.082
	C34.915,41.392,43,30.944,43,19.653C43,16.755,42.983,13.854,42.966,10.951z M21.5,44.935C9.468,39.685,2.012,30.029,2.012,19.653
	c0-2.895,0.018-5.792,0.035-8.69c0.012-2.178,0.026-4.356,0.031-6.534c2.235,1.496,5.4,2.376,8.783,2.376
	c4.589,0,8.608-1.561,10.639-4.011c2.031,2.45,6.051,4.011,10.64,4.011c3.383,0,6.546-0.88,8.782-2.375
	c0.005,2.177,0.019,4.355,0.031,6.533c0.018,2.897,0.035,5.795,0.035,8.69C40.988,30.029,33.532,39.685,21.5,44.935z M32.882,14.972
	L21.661,31.796c-0.173,0.26-0.46,0.424-0.775,0.444c-0.021,0.001-0.045,0.003-0.067,0.003c-0.292,0-0.57-0.125-0.761-0.343
	l-7.934-9.019c-0.363-0.413-0.316-1.036,0.104-1.392c0.422-0.356,1.055-0.311,1.419,0.103l7.062,8.027l10.49-15.728
	c0.304-0.457,0.924-0.586,1.393-0.286C33.056,13.904,33.187,14.516,32.882,14.972z"/>
</svg>
