<?xml version="1.0" encoding="UTF-8" standalone="no"?>
<svg
   xmlns:dc="http://purl.org/dc/elements/1.1/"
   xmlns:cc="http://creativecommons.org/ns#"
   xmlns:rdf="http://www.w3.org/1999/02/22-rdf-syntax-ns#"
   xmlns:svg="http://www.w3.org/2000/svg"
   xmlns="http://www.w3.org/2000/svg"
   viewBox="0 0 595.27557 841.88977"
   id="svg2"
   height="100"
   width="150"
   version="1.1">
  <metadata
     id="metadata22">
    <rdf:RDF>
      <cc:Work
         rdf:about="">
        <dc:format>image/svg+xml</dc:format>
        <dc:type
           rdf:resource="http://purl.org/dc/dcmitype/StillImage" />
      </cc:Work>
    </rdf:RDF>
  </metadata>
  <defs
     id="defs20" />
  <g
     id="g4">
    <path
       id="path6"
       style="fill:#1b1918;fill-rule:evenodd"
       d="m 459.6692,239.1333 0,282.602 c 0,39.8782 -23.6201,40.9911 -51.0028,43.2169 l -63.4448,0 c -16.5132,0 -24.0382,29.3782 -27.5917,35.6845 -3.9715,-6.3063 -11.4965,-35.6845 -28.0097,-35.6845 l -66.889,0.574 c -27.1736,-2.2258 -51.0027,-3.3387 -51.0027,-43.217 l 0,-282.6019 287.9407,-0.574 z" />
    <path
       id="path8"
       style="fill:none"
       d="m 226.1359,400.7382 c -24.2688,1.5885 -35.9882,8.9673 -40.0594,19.0305 -4.334,10.7125 -0.1618,24.2437 1.3099,29.4353 2.8545,10.069 -5.4354,17.1238 -2.6351,32.5235 2.3901,-4.5317 5.2864,-8.4165 8.7754,-10.5411 -3.4688,10.3494 -0.3542,17.4836 -5.2011,20.7903 1.4833,1.8337 2.5076,1.0559 3.9906,0.4307 0.2635,5.8866 -1.9997,10.4594 -4.1867,13.4887 5.5633,1.5178 11.9368,-8.1666 17.0916,-24.6136 0.1853,2.7257 0.7787,5.2471 1.78,7.5649 9.4022,-18.5553 24.9284,-19.8101 22.6948,-40.0496 2.3805,0.0343 3.865,-3.3641 3.1214,-6.7836 -1.4847,-6.8271 -5.1899,-16.0398 -2.6764,-23.4762 11.7623,26.9582 26.9227,28.0821 26.864,34.5455 -0.0339,3.7364 -2.5757,9.9112 -6.4686,14.1056 -2.8408,3.0611 -6.7951,4.3637 -9.3907,5.3566 -6.4069,2.4505 -4.9565,6.9472 -2.9948,8.7368 2.2583,34.2534 7.1194,46.1538 3.56,46.7246 0.8197,5.5089 3.6893,8.8995 3.115,13.3499 2.9247,0.7646 5.4463,0.3196 7.5649,-1.335 1.1866,1.335 2.3732,2.67 3.56,4.005 -1.6665,2.0347 -1.6695,3.5151 0.5962,4.4413 -0.1484,1.1865 -0.448,2.8268 -0.5962,4.0136 7.9739,1.7926 15.5948,2.35 22.4096,0.1599 -1.7799,-2.225 -4.316,-5.5085 -6.096,-7.7335 1.1491,-3.085 -0.4194,-5.2437 -5.7217,-6.3119 -10.4545,-6.2335 -12.9218,-17.0496 -14.5994,-27.9308 -2.0895,-13.5536 0.8431,-26.2984 11.1274,-28.4931 -5.9623,53.8922 13.2474,35.1244 11.5699,52.9545 10.2756,-3.3264 16.2666,-0.5828 19.5798,-6.2299 2.9666,0 5.9332,0 8.9,0 -0.9484,-2.3438 -2.1049,-4.7769 -4.005,-7.12 13.8868,-18.4853 5.3898,-20.4174 9.3475,-23.1424 3.9577,-2.725 9.4785,-3.5643 12.9023,-6.2273 3.4238,-2.663 4.711,-6.7819 6.587,-8.0979 1.0551,-0.7401 7.2111,0.7889 12.7,0.635 4.2692,-0.1197 8.2063,-1.5408 8.5719,-4.0217 0.8359,-5.6712 -1.3627,-23.0769 -3.8291,-35.24 1.0382,-9.7899 2.0766,-19.5798 3.115,-29.3697 18.1587,-3.9899 30.5957,-14.7665 34.1976,-16.8594 2.7578,-1.6022 11.0905,0.7295 11.9287,4.6778 0.2565,1.2086 -1.3386,3.0555 -2.5506,4.369 -5.1726,5.6055 -12.6138,13.6465 -21.7709,16.7125 0.1235,0.5828 0.4235,1.0485 0.8999,1.3969 -0.6122,0.4098 -1.3351,0.709 -2.2999,0.7667 0.5578,0.8312 1.4096,1.4272 2.5555,1.7888 -0.3785,0.5143 -0.8011,0.999 -1.5333,1.2777 0.6305,0.6467 1.5706,0.9842 2.5555,1.2778 -1.1926,0.0851 -2.3853,0.1702 -3.5777,0.2555 -0.6354,-1.1557 -1.3999,-2.0969 -3.0666,-1.5333 -0.937,-0.4259 -1.8741,-0.8519 -2.811,-1.2777 -5.5057,4.8274 -9.7526,9.9069 -13.544,15.0773 3.6833,1.1992 7.4736,1.5414 11.4996,0 3.5751,3.95 7.9941,-4.3194 11.3673,-5.6167 3.3732,-1.2974 6.01,-1.709 8.5655,-2.0497 6.8962,-11.4467 14.3107,-18.2292 21.466,-27.3436 5.9565,-0.1349 8.9655,-2.5152 7.6664,-8.1776 2.5109,-3.5991 1.5665,-5.3844 -1.796,-5.874 -1.8741,-1.5333 -3.7481,-3.5848 -5.622,-5.1181 6.9921,-4.1756 13.4152,-11.3127 19.2855,-15.6316 3.5223,-2.5912 6.9811,-3.1999 8.1877,-3.5309 3.2181,-0.8834 6.3939,22.3163 1.922,29.1324 0.4257,0.2556 0.8517,0.5111 1.2777,0.7667 -0.3409,1.2777 -0.6815,2.5555 -1.0222,3.8332 1.1073,-0.0853 2.2146,-0.1704 3.3221,-0.2555 -0.3408,0.5962 -0.6815,1.1924 -1.0222,1.7888 0.5111,0.2555 1.0222,0.5111 1.5333,0.7666 -0.7666,0.8518 -1.5333,1.7036 -2.2999,2.5555 -2.0052,-0.0665 -3.1125,1.0407 -3.3221,3.3221 -0.426,0.7667 -0.852,1.5333 -1.2778,2.3 2.2118,7.0419 5.4477,12.351 9.4553,16.355 2.6726,-3.1355 4.1366,-7.1013 4.5999,-11.7552 0.8691,-0.6967 0.8843,-1.5832 0.5111,-2.5554 -2.3084,-6.4162 -1.3921,-10.3316 3.0665,-11.4997 -1.6186,-11.8403 -5.7623,-20.3135 -4.8554,-35.5212 4.4796,-8.231 -3.7074,-18.1105 -8.4331,-16.6106 -8.0673,6.6465 -19.7625,5.3895 -29.6435,10.2219 1.5062,-8.7828 1.6346,-16.0042 -2.0444,-18.9105 0.4736,-3.4193 -2.508,-5.9746 -8.9442,-7.6665 3.8474,-8.7713 6.6584,-17.7154 8.4331,-26.8325 0.9369,0.426 1.874,0.852 2.811,1.2778 -0.5964,7.7517 5.0264,14.4668 -1.7888,23.2548 1.1073,0.7667 2.2146,1.5333 3.3221,2.2999 0.3215,3.6112 2.025,4.804 5.111,3.5777 3.9051,2.7937 7.0975,1.5482 9.9663,-1.5333 4.3159,0.4219 5.543,-2.4829 5.3666,-6.8998 1.3749,-1.701 1.8858,-3.5748 1.5332,-5.622 4.4882,-5.768 7.5512,-11.7741 9.9664,-17.8884 4.8083,-1.5969 6.8527,-4.7484 6.1332,-9.4552 0.5111,-1.874 1.0222,-3.748 1.5332,-5.6221 1.5441,-4.3443 2.138,-8.6884 2.3,-13.0329 1.2433,-2.7258 2.1843,-5.4513 2.0444,-8.1776 -1.9617,0.0804 -3.7506,0.5066 -5.3665,1.2778 -2.2915,-2.2425 -5.0151,-4.1606 -8.6887,-5.3665 0.4537,-2.1486 0.5831,-4.4054 0,-6.8998 -2.3048,0.5065 -4.2641,1.3585 -5.8776,2.5554 -7.6724,-6.1348 -15.0459,-9.463 -25.0437,-8.6886 -1.9592,-0.7666 -3.9185,-1.5333 -5.8776,-2.2999 -18.7352,10.5032 -26.0689,1.4425 -48.043,7.4109 0.5062,2.0492 1.3578,3.7531 2.5555,5.1109 -5.7567,2.5015 -11.3835,5.2198 -16.0995,9.4553 1.4973,0.4663 2.8649,0.9762 3.3221,1.7888 -5.111,3.663 -10.2219,7.3258 -15.3329,10.9886 1.448,0.5964 2.8962,1.1926 4.3443,1.7888 -1.9592,2.8111 -3.9185,5.6221 -5.8776,8.4331 1.0222,0.426 2.0444,0.852 3.0666,1.2778 -2.5555,5.622 -5.111,11.2441 -7.6664,16.8661 0.7666,0 1.5333,0 2.2999,0 -1.1926,2.8964 -2.3852,5.7925 -3.5777,8.6886 1.0222,0.2556 2.0444,0.5111 3.0666,0.7667 -1.2777,2.6408 -2.5555,5.2814 -3.8332,7.922 0.7666,0.0853 1.5333,0.1704 2.2999,0.2555 -0.9371,1.8742 -1.7207,3.4412 -2.6575,5.3151 -5.6221,-0.6727 -11.8584,-0.4732 -17.4801,3.3736 -4.9771,0.3564 -7.2427,2.1453 -7.7171,5.3665 -2.6417,0.4593 -4.2603,1.737 -4.8554,3.8332 -3.173,-2.0563 -14.374,-0.4912 -13.033,10.9885 -1.3103,2.4941 -2.7236,4.5263 -4.8554,3.3222 -5.0471,-3.4374 -10.0498,-1.0814 -15.9839,0.9321 -9.2575,3.141 -17.355,8.5499 -10.3375,13.6341 -6.5023,5.2761 -12.2369,11.5761 -16.2826,20.1269 z" />
    <path
       id="path10"
       style="fill:#565757;fill-rule:evenodd"
       d="m 272.3554,387.7388 c 0.7802,-15.3768 -17.8137,-22.9421 -27.73,-10.5858 14.7679,-7.1743 22.7837,-1.2674 27.73,10.5858 z m 58.9047,-98.3295 c -0.8618,1.6647 -1.7235,3.3295 -2.5852,4.9942 14.2931,0.3407 18.7676,-2.6611 25.206,-4.9942 -3.4031,0.5608 -6.8876,1.6064 -10.1059,1.0576 0.2742,-0.2154 0.5484,-0.4309 0.8225,-0.6463 -4.3183,0.755 -8.7055,1.0297 -13.3374,-0.4113 z m -3.0553,11.516 c -2.6278,4.9728 -4.6076,9.3517 -3.4665,10.8698 10.5025,-3.5106 17.1906,-8.4169 21.2694,-14.2776 -2.3043,1.1623 -4.5072,2.5028 -7.4619,2.5265 0.3917,-0.3133 0.5483,-0.705 0.47,-1.1751 -3.1236,1.303 -6.5904,2.1644 -10.811,2.0564 z M 252.8121,525.671 c -6.5517,-10.2059 -8.2114,-29.4974 -5.4454,-39.4702 1.5674,-5.6514 7.9689,-8.5658 12.9725,-12.7032 5.0036,-4.1373 5.5812,-6.9352 10.1771,-11.6548 -3.3195,19.4222 -16.8891,17.413 -20.2086,29.3808 -2.5818,9.308 -0.5047,23.5086 2.5044,34.4474 z m 7.4544,-142.7982 c -6.8551,2.1122 -11.7796,6.3042 -14.7581,11.4581 l 4.011,-2.0056 -4.8955,3.6716 c -0.3757,0.783 -0.7047,1.586 -0.9964,2.4018 l 3.5462,-1.773 -3.9349,2.9513 c -0.3013,0.9925 -0.5429,2.0032 -0.7237,3.0269 l 3.8767,-1.9384 -4.0462,3.0348 c -0.1474,1.1042 -0.2256,2.2198 -0.2345,3.3407 l 3.8898,-1.9447 -3.8807,2.9106 c 0.0231,0.8397 0.0857,1.6807 0.1864,2.5203 l 3.8246,-1.9124 -3.7065,2.7798 c 0.1113,0.7312 0.2529,1.4598 0.4235,2.1848 l 3.6739,-1.837 -3.4831,2.6123 c 0.2194,0.8256 0.4817,1.6441 0.7789,2.4538 l 3.6164,-1.8082 -3.3516,2.5137 c 0.2657,0.6679 0.5593,1.3285 0.8788,1.9807 l 3.2547,-1.6275 -2.9532,2.215 c 0.5222,1.0057 1.1104,1.9876 1.7629,2.9412 l 3.2754,-1.6376 -2.9037,2.1777 c 0.5036,0.7005 1.0474,1.3821 1.6235,2.0461 l 3.7562,-1.8781 -3.2547,2.441 c 1.8932,2.0705 4.1532,3.9334 6.7768,5.5064 l 2.8634,-1.4316 -2.3276,1.7457 c 0.5115,0.2934 1.0382,0.574 1.5766,0.8452 l 3.0967,-1.5484 -2.477,1.8576 c 0.4366,0.2087 0.8838,0.4085 1.3375,0.6019 l 2.8336,-1.4169 -2.2221,1.6666 c 1.0664,0.4312 2.1756,0.8225 3.3328,1.1662 l 2.5382,-1.2691 -1.9203,1.4401 c 1.69,0.4712 3.4713,0.8497 5.3522,1.1151 -0.0799,1.1975 -0.1957,2.3942 -0.3484,3.5917 l 2.1291,-1.0645 -2.2076,1.6557 c -0.1187,0.8621 -0.2563,1.7244 -0.4128,2.5865 l 3.272,-1.6359 -3.4532,2.5898 c -0.1335,0.6753 -0.2783,1.3506 -0.435,2.0259 l 2.976,-1.4881 -3.1937,2.3952 c -0.2222,0.8979 -0.4644,1.7953 -0.7277,2.6932 l 3.1395,-1.5699 -3.4453,2.584 c -0.2077,0.6694 -0.4265,1.3389 -0.6572,2.0086 l 3.1903,-1.5953 -3.5737,2.6803 c -0.4243,1.1697 -0.8836,2.339 -1.3772,3.5082 1.6306,-0.6212 3.2613,-1.2425 4.8919,-1.8636 1.1904,-2.2161 2.2335,-4.4324 3.1423,-6.6485 l -2.0408,1.0205 2.3361,-1.7522 c 0.4126,-1.0397 0.796,-2.0797 1.1517,-3.1195 l -1.924,0.9622 2.1404,-1.6055 c 0.2959,-0.8933 0.5714,-1.7869 0.8275,-2.6803 l -2.0557,1.0279 2.2387,-1.6791 c 0.3247,-1.1757 0.6157,-2.3511 0.8753,-3.5268 l -2.5927,1.2964 2.7588,-2.0691 c 0.3313,-1.5847 0.606,-3.169 0.8298,-4.7539 -1.062,-0.0512 -2.1039,-0.2043 -3.1229,-0.4471 l -3.8539,1.9271 2.9053,-2.179 c -1.0634,-0.3164 -2.0992,-0.7337 -3.1018,-1.2414 l -3.9737,1.9869 3.2003,-2.4001 c -1.7468,-0.9821 -3.3861,-2.2415 -4.8902,-3.7268 l -3.1318,1.5659 2.6853,-2.0141 c -0.4942,-0.5117 -0.9716,-1.0499 -1.4337,-1.609 l -2.5547,1.2774 2.2304,-1.6729 c -1.4163,-1.7758 -2.6686,-3.769 -3.7276,-5.9188 l -2.673,1.3365 2.4348,-1.8261 c -0.2128,-0.4486 -0.4162,-0.9047 -0.6116,-1.3661 l -2.996,1.4981 2.7596,-2.0697 c -0.2578,-0.6382 -0.4988,-1.2875 -0.7229,-1.946 l -3.6005,1.8003 3.3622,-2.5216 c -0.1742,-0.545 -0.3372,-1.096 -0.4868,-1.6529 l -3.6573,1.8288 3.4621,-2.5965 c -0.1989,-0.81 -0.3731,-1.6297 -0.5202,-2.4582 l -5.4179,2.709 5.2236,-3.9178 c -0.1093,-0.754 -0.1968,-1.5139 -0.2605,-2.2779 l -3.5296,1.765 3.4701,-2.6026 c -0.0344,-0.5668 -0.0569,-1.1358 -0.0655,-1.7062 l -3.144,1.5721 3.1383,-2.3536 c 0.005,-0.773 0.0362,-1.548 0.0906,-2.3233 l -2.8379,1.419 2.8965,-2.1724 c 0.0674,-0.7392 0.1602,-1.478 0.2751,-2.2152 l -2.5201,1.26 2.6384,-1.9788 c 0.1693,-0.9546 0.3813,-1.9056 0.6337,-2.85 l -2.8811,1.4406 3.1398,-2.3549 c 0.1309,-0.4396 0.2689,-0.8778 0.4185,-1.3137 l -3.6886,1.8442 4.1584,-3.119 c 0.2173,-0.5555 0.449,-1.1078 0.6987,-1.6553 l -3.554,1.777 4.2374,-3.1781 c 0.4352,-0.8446 0.9081,-1.6777 1.4274,-2.4952 z m -69.1504,76.206 c 0.4485,-15.395 -5.0718,-26.5254 -2.1751,-35.745 2.8914,-9.2032 9.134,-14.8682 19.2646,-16.8314 -7.6501,3.2724 -12.5769,8.9627 -15.3757,16.5415 -3.4816,9.4282 4.1768,24.3952 -1.7138,36.0349 z m 3.9469,38.0407 c 4.8136,-5.0121 2.69,-12.9729 5.5524,-18.8392 4.953,-10.1507 9.7626,-19.27 2.8711,-32.7713 3.1553,15.8472 -4.8507,22.4436 -7.0761,31.0217 -1.9636,7.5687 -0.8883,12.9943 -1.3474,20.5888 z m 12.8358,-15.5099 c 10.9643,-12.3605 18.6725,-25.0279 10.6965,-39.1759 1.9751,6.9375 1.1139,13.875 -1.3392,20.8124 -2.1645,6.1211 -10.3819,12.5098 -9.3573,18.3635 z m 6.6853,-37.4377 c -14.574,-17.8718 -8.9583,-39.7103 7.6212,-41.0477 -13.9389,8.1562 -17.2147,21.4826 -7.6212,41.0477 z M 399.5592,284.9558 c 1.7141,-0.7089 3.4441,-1.2691 5.1823,-1.6943 -0.8472,0.819 -1.6679,1.6346 -2.4664,2.4464 l -2.7159,-0.7521 z m -13.1991,51.7617 c -5.5463,0.9429 -9.8292,0.6606 -12.6651,-0.9378 l 3.662,0 -5.6134,-1.5546 c -0.2452,-0.2753 -0.4691,-0.57 -0.6713,-0.8838 l 4.7842,0 -5.5445,-1.5353 c -0.209,-0.568 -0.3666,-1.1812 -0.4709,-1.8408 l 5.8278,0 -5.9774,-1.6554 c -0.0107,-0.4028 -0.005,-0.8208 0.0174,-1.2519 l 5.96,0 -5.8122,-1.6096 c 0.4037,-3.0581 1.5274,-6.7331 3.4242,-11.051 l 5.0139,0 -4.4582,-1.2347 c 1.6259,-3.5398 3.3391,-6.7131 5.1264,-9.5503 l 4.4899,0 -3.8125,-1.0557 c 0.1188,-0.1812 0.2382,-0.3603 0.3576,-0.5386 l 4.8616,0 -4.0865,-1.1316 c 0.497,-0.7092 0.9994,-1.3951 1.5064,-2.057 l 6.519,0 -5.3462,-1.4806 c 0.1087,-0.1324 0.2177,-0.2646 0.3268,-0.3951 l 6.3323,0 -5.1058,-1.4139 c 0.1973,-0.2194 0.3951,-0.4361 0.5936,-0.6493 l 6.0128,0 -4.7436,-1.3135 c 0.5574,-0.5548 1.1186,-1.0855 1.6843,-1.5938 l 6.5292,0 -4.9332,-1.366 c 0.0168,-0.0136 0.0334,-0.0271 0.0501,-0.0407 l 6.0085,0 -4.4221,-1.2246 c 0.1706,-0.1251 0.3416,-0.2482 0.513,-0.3697 l 5.2221,0 -3.7016,-1.025 c 0.3051,-0.1953 0.6111,-0.3851 0.9177,-0.5693 l 4.8471,0 -3.2572,-0.902 c 0.4524,-0.242 0.906,-0.4729 1.3612,-0.6923 l 4.5031,0 c -9.1802,9.3528 -15.1132,18.2298 -17.7967,26.6305 l -2.7229,0.754 2.4909,0 c -0.1584,0.5331 -0.3032,1.0642 -0.4354,1.5935 l -2.712,0.7511 2.5337,0 c -0.1443,0.6355 -0.2704,1.2687 -0.3763,1.8986 l -2.6263,0.7273 2.5116,0 c -0.1851,1.2768 -0.2894,2.5421 -0.3167,3.7957 l -3.2265,0.8934 3.2197,0 c 0.007,0.851 0.0501,1.6965 0.1307,2.5364 l -2.6939,0.746 2.7751,0 c 0.0941,0.7693 0.2197,1.534 0.376,2.2943 l -2.2133,0.6129 2.348,0 c 0.1207,0.5275 0.2555,1.0529 0.4062,1.5761 l -2.0977,0.5809 2.2724,0 c 0.5808,1.8729 1.3535,3.7172 2.3229,5.5332 z m 38.7661,-19.5793 c 0.0983,-0.4346 0.201,-0.861 0.3064,-1.2805 l 1.7229,0.509 -1.5977,-0.9987 c 0.1451,-0.5562 0.2951,-1.1011 0.4484,-1.6364 l 1.6183,0.4781 -1.4878,-0.9297 c 0.1467,-0.5021 0.2959,-0.997 0.4456,-1.4862 l 1.5111,0.4465 -1.3827,-0.8642 c 0.1586,-0.5139 0.3177,-1.023 0.4748,-1.529 l 1.7519,0.5175 -1.602,-1.0013 c 0.1708,-0.5534 0.3388,-1.1052 0.5013,-1.6577 l 1.3821,0.4082 -1.2701,-0.7937 c 0.1972,-0.6832 0.3855,-1.3697 0.559,-2.0657 l 1.7427,0.5149 -1.6215,-1.0134 c 0.1584,-0.667 0.3029,-1.3444 0.4288,-2.0374 l 1.7554,0.5186 -1.6642,-1.04 c 0.0994,-0.5991 0.1842,-1.2111 0.2527,-1.8388 l 2.4431,0.7218 -2.3691,-1.4805 c 0.0509,-0.5945 0.0872,-1.2039 0.1051,-1.8314 l 2.6391,0.7798 -2.6272,-1.6421 c 0.002,-0.7333 -0.0198,-1.4904 -0.0691,-2.2772 l 2.7901,0.8245 -2.8642,-1.79 c -0.0442,-0.5005 -0.0986,-1.0122 -0.1653,-1.537 l 2.373,0.7011 -2.4898,-1.5561 c -0.0783,-0.532 -0.1694,-1.0779 -0.2717,-1.6363 l 1.9175,0.5665 -2.0542,-1.2838 c -0.1401,-0.7068 -0.2977,-1.4342 -0.478,-2.1862 3.9702,1.5552 5.9081,5.8537 4.8767,14.1612 1.3676,-3.927 2.196,-7.764 2.0632,-11.4415 1.2943,1.0393 2.7158,1.9994 1.9695,4.314 2.5477,-2.2037 4.4546,-2.485 6.002,-1.6881 -0.4099,0.536 -0.8178,1.0734 -1.2231,1.6117 l -1.277,-0.6789 1.0426,0.9909 c -0.2848,0.3795 -0.568,0.7597 -0.8501,1.1403 l -2.0681,-1.0996 1.6922,1.6084 c -0.2706,0.3674 -0.5405,0.7354 -0.8084,1.1039 l -2.103,-1.118 1.725,1.6397 c -0.2407,0.3329 -0.4798,0.6662 -0.7182,1.0003 l -2.3197,-1.2333 1.9074,1.813 c -0.1555,0.2197 -0.3107,0.4395 -0.4653,0.6596 l -2.0048,-1.0658 1.6519,1.57 c -0.2207,0.3165 -0.4405,0.6337 -0.6589,0.9512 l -1.7433,-0.9269 1.4401,1.3688 c -0.1688,0.2467 -0.3366,0.4938 -0.5038,0.7411 l -1.499,-0.797 1.241,1.1794 c -0.4798,0.7134 -0.9538,1.4294 -1.4214,2.1484 l -1.3201,-0.7019 1.0984,1.0441 c -0.1698,0.2625 -0.3389,0.5254 -0.5069,0.7886 l -1.1542,-0.6135 0.9625,0.9148 c -2.4613,3.8762 -4.733,7.8384 -6.7533,11.9148 l -1.4286,-0.8929 z m -0.9717,6.0746 c 0.1915,-2.0464 0.4985,-3.8982 0.8715,-5.6209 l 1.5233,0.4501 c -0.8438,1.7031 -1.6434,3.4257 -2.3948,5.1708 z m -13.6064,-64.9574 c 4.9884,3.4886 7.5367,7.932 10.0065,12.4064 1.4915,-1.8206 3.498,-3.3187 5.8575,-4.5964 -1.325,-2.2785 -3.4472,-3.9189 -5.8575,-5.3287 1.1945,1.2606 2.28,2.5485 2.6033,4.027 -2.4767,-3.679 -6.5734,-5.7382 -10.9014,-7.5659 3.8864,2.2406 6.8253,4.9183 7.8913,8.4608 -2.2236,-3.444 -5.4235,-5.9117 -9.5997,-7.4032 z m -67.9678,14.6143 c 1.2762,0.4879 2.5524,0.9759 3.8289,1.464 9.0475,-0.7328 17.1554,-0.9953 25.0004,-1.1262 7.883,-0.9009 15.766,-1.8018 23.649,-2.7027 -17.6221,-4.0391 -35.1577,-4.7104 -52.4783,2.3649 z m 92.8884,11.1477 c 2.823,2.3628 5.9702,3.8628 9.3394,4.772 2.7922,-5.9311 2.2069,-9.9984 -0.2727,-13.0207 0.1136,0.7498 0.2271,1.4997 0.3409,2.2496 -0.8634,-1.1815 -2.0907,-2.1811 -3.6813,-2.9995 1.1081,0.9941 2.0964,2.0284 2.6587,3.204 -1.3751,-1.0167 -2.8974,-1.9596 -4.6356,-2.795 1.3175,1.1367 2.3626,2.182 3.1359,3.1359 -2.3695,-0.4932 -4.3123,-1.9819 -6.1355,-3.7494 1.8175,2.3353 3.7943,4.551 6.34,6.3399 -2.4883,-0.7267 -4.6018,-2.4538 -6.5445,-4.6357 1.6341,2.3182 3.4504,4.5912 6.5445,6.5445 -0.8637,-0.3185 -1.7273,-0.5913 -2.5905,-0.5454 1.3417,0.523 2.2046,1.0456 2.9995,1.5679 -3.0223,-0.409 -5.681,-2.1814 -7.976,-5.3173 1.6926,3.0003 4.0102,5.3177 7.7033,6.1354 -2.0227,0.4768 -4.4769,0.0906 -7.2261,-0.8862 z m -79.4613,-23.5293 c 19.9453,-3.5769 34.3061,1.6736 47.6935,8.4631 -12.8573,-5.772 -30.4599,-10.6541 -47.6935,-8.4631 z m 32.982,-2.4519 c 0.8173,-0.2636 1.6346,-0.5273 2.4519,-0.7909 11.5074,3.2521 15.6602,7.6184 20.0898,11.9431 -6.0275,-4.9561 -12.7094,-9.3675 -22.5417,-11.1522 z m 8.5081,-3.3451 c 0.8367,-0.3184 1.3293,-0.5325 1.9058,-0.7566 10.939,4.8305 14.598,9.5767 18.3787,14.4788 -5.2746,-5.751 -10.7987,-10.5791 -20.2845,-13.7222 z M 246.3632,540.7894 c 3.0216,1.2566 3.0251,-4.3844 3.2067,-9.6201 -0.6622,4.3675 -1.0994,9.3811 -3.2067,9.6201 z m 2.3118,-0.0456 c 2.5297,1.0518 2.5329,-3.6709 2.6846,-8.054 -0.5544,3.6562 -0.9205,7.8538 -2.6846,8.054 z m 2.6101,-1.0896 c 2.0374,0.8471 2.0404,-2.9572 2.1626,-6.4879 -0.4467,2.9454 -0.7416,6.3265 -2.1626,6.4879 z m 6.9354,5.1622 c 3.7439,-1.7107 10.4808,-5.7288 11.3352,-4.3999 0.8544,1.329 -7.5568,2.9333 -11.3352,4.3999 z m 0.2237,2.2372 c 1.2026,-0.9824 3.4479,-0.6898 3.8033,-2.1626 2.0048,0.3131 3.5861,-0.0113 4.549,-1.2678 2.1888,1.1126 2.3636,-0.3926 3.3108,-0.7894 0.648,-0.2716 1.305,0.0717 1.4482,0.3785 0.3529,0.7557 -0.5072,1.3802 -1.4452,1.0075 -0.558,0.8442 -1.664,0.9116 -3.0901,0.4474 -0.6036,1.1202 -1.9461,1.5427 -4.027,1.2678 -1.2122,0.8527 -2.7287,1.2252 -4.549,1.1186 z M 363.9348,345.9771 c 7.7633,-7.5815 18.7923,-8.2092 35.0875,2.3736 -0.3096,0.8256 -0.6192,1.6512 -0.9288,2.4767 0.2751,0.2752 0.5503,0.5503 0.8256,0.8256 -0.3785,0.5848 -0.7569,1.1695 -1.1352,1.7544 0.4471,0.3096 0.8943,0.6192 1.3416,0.9288 -0.413,0.7565 -0.6883,1.5133 -0.8256,2.2704 -0.3785,0.0687 -0.7568,0.1374 -1.1352,0.2063 0.7565,0.5503 1.1006,1.2381 1.032,2.064 -1.1017,-1.1393 -1.9613,-0.8282 -2.7864,-0.3096 1.101,1.0491 1.6855,2.1841 1.1352,3.5088 -0.0689,0.8943 -0.1376,1.7886 -0.2064,2.6831 1.2522,-2.0231 2.1373,-1.4771 3.096,-1.4448 -0.6194,0.2063 -1.1011,0.5501 -1.4448,1.032 0.3783,0.1375 0.7567,0.2752 1.1352,0.4128 -5.2748,6.2987 -9.5483,12.2867 -6.8111,16.099 -1.8576,-0.5505 -2.8896,-2.2016 -3.096,-4.9535 -0.4474,0.55 -0.4819,1.1005 -0.1032,1.6511 -1.2387,0.1377 -1.7202,-0.86 -1.8575,-2.3735 -2.8209,0.1373 -3.44,-1.3763 -1.8576,-4.5408 1.8399,-4.1797 5.0047,-7.7916 8.7719,-11.1454 -4.9788,1.6994 -9.8112,3.6184 -15.3766,4.4375 0.1719,0.2407 0.3439,0.4816 0.516,0.7224 -1.344,0.2784 -2.4811,0.2802 -2.1672,-1.6511 -0.7913,-0.069 -1.5824,-0.1377 -2.3735,-0.2064 0.2406,-0.2754 0.4815,-0.5505 0.7223,-0.8256 -0.5504,-0.1032 -1.1009,-0.2064 -1.6511,-0.3096 0.516,-0.2753 1.032,-0.5505 1.548,-0.8256 -0.2754,-0.1032 -0.5505,-0.2064 -0.8256,-0.3096 5.3358,-0.6862 9.2212,-2.0973 12.8998,-3.612 -5.3451,2.0166 -10.7888,3.1431 -16.4086,2.6832 0.8599,-0.4128 1.7199,-0.8256 2.58,-1.2384 -0.516,-0.0344 -1.032,-0.0689 -1.548,-0.1032 -0.4474,-0.6879 -0.6196,-1.5137 -0.516,-2.4767 0.4128,-0.2754 0.8256,-0.5505 1.2384,-0.8256 5.7271,-0.7612 10.956,-1.6471 15.583,-2.6832 -3.5485,0.9595 -6.7827,2.129 -11.2487,2.4768 0.3784,-0.4128 0.7567,-0.8256 1.1352,-1.2384 -2.408,0.2751 -4.816,0.5503 -7.2239,0.8256 1.4103,-0.516 2.8206,-1.032 4.2312,-1.548 -0.7224,0.1032 -1.4448,0.2064 -2.1672,0.3096 0.2751,-0.4128 0.5503,-0.8256 0.8256,-1.2384 -0.8601,0.3439 -1.7201,0.6879 -2.58,1.032 2.6506,-2.0491 6.1237,-4.0121 19.2981,-4.9535 -1.2728,-0.1377 -2.5457,-0.2753 -3.8183,-0.4128 0.2406,-0.2409 0.4815,-0.4817 0.7224,-0.7224 -7.7096,-2.2924 -15.6476,-1.8433 -23.6325,-0.8256 z m -20.7914,103.5065 c 5.299,22.1841 6.612,38.7544 -8.4981,32.1991 2.9705,0.1678 4.9974,-1.232 6.3559,-3.7402 l 2.8438,-0.158 -2.4899,-0.5533 c 0.1923,-0.4198 0.3687,-0.8651 0.531,-1.3346 l 2.5047,-0.1392 -2.2926,-0.5094 c 0.1211,-0.3977 0.232,-0.8128 0.3352,-1.2401 l 2.1913,-0.1216 -2.0585,-0.4574 c 0.0966,-0.4446 0.1851,-0.9025 0.2651,-1.3748 l 2.1052,-0.1169 -2.0142,-0.4476 c 0.0499,-0.3268 0.0956,-0.6605 0.1386,-0.9989 l 2.0315,-0.1128 -1.9654,-0.4367 c 0.0382,-0.3346 0.073,-0.6745 0.1052,-1.0192 l 1.8602,-0.1034 -1.815,-0.4033 c 0.0458,-0.5445 0.084,-1.1013 0.1162,-1.668 l 2.0107,-0.1116 -1.9817,-0.4405 c 0.0189,-0.3832 0.0349,-0.771 0.0484,-1.1631 l 2.0113,-0.1116 -1.9936,-0.443 c 0.01,-0.3566 0.0174,-0.7175 0.0234,-1.0805 l 2.0481,-0.1138 -2.0402,-0.4534 c 0.005,-0.4337 0.007,-0.8714 0.007,-1.3134 l 1.877,-0.1043 -1.8779,-0.4173 c -0.002,-0.3546 -0.005,-0.7124 -0.009,-1.0717 l 1.2634,-0.0703 -1.2678,-0.2817 c -0.005,-0.3552 -0.0115,-0.7126 -0.019,-1.0717 l 0.897,-0.0499 -0.9023,-0.2006 c -0.0627,-2.8347 -0.1949,-5.7848 -0.3451,-8.7653 z m -66.4815,79.3455 c -0.4538,-0.9235 -0.9295,-1.8329 -1.3845,-2.7557 l 1.641,-0.0762 -1.8924,-0.4401 c -0.2435,-0.5074 -0.4783,-1.0196 -0.6972,-1.542 l 2.9154,-0.1356 -3.269,-0.7602 c -0.2727,-0.7343 -0.507,-1.4919 -0.6861,-2.2834 l 4.6067,-0.2143 -4.8489,-1.1276 c -0.0548,-0.4081 -0.0932,-0.8264 -0.1143,-1.2554 l 4.8003,-0.2233 -4.8053,-1.1175 c 0.2574,-6.5196 4.7098,-15.614 19.8338,-31.2563 0.6475,-4.7891 1.7017,-9.5325 3.1197,-14.2363 l 3.0282,-0.1409 -2.7868,-0.648 c 0.3217,-1.0363 0.6608,-2.0709 1.0173,-3.1034 l 3.3984,-0.158 -3.0914,-0.719 c 2.4549,-6.9192 5.6746,-13.7529 9.5195,-20.5177 l 2.2054,-0.1026 -1.8955,-0.4409 c 0.3528,-0.615 0.7108,-1.2293 1.0737,-1.8431 0.0534,-0.3853 0.1084,-0.7706 0.166,-1.1557 l 3.0992,-0.144 -2.9713,-0.691 c 0.1175,-0.7485 0.2426,-1.4969 0.3748,-2.2455 l 3.411,-0.1585 -3.2461,-0.755 c 0.1224,-0.6636 0.2507,-1.3275 0.3842,-1.9911 l 4.0021,-0.1861 -3.7829,-0.8798 c 0.1542,-0.7339 0.3145,-1.4679 0.4815,-2.2018 l 3.7901,-0.1763 -3.5573,-0.8273 c 0.1627,-0.6909 0.3305,-1.3816 0.5041,-2.0726 l 4.1935,-0.1951 -3.9114,-0.9096 c 0.1158,-0.4461 0.2337,-0.8918 0.3537,-1.338 l 4.2093,-0.1958 -3.9076,-0.9088 c 0.155,-0.5595 0.313,-1.1186 0.4744,-1.678 l 3.9219,-0.1824 -3.6227,-0.8426 c 0.1749,-0.5919 0.3535,-1.1835 0.5354,-1.7754 l 3.2502,-0.1513 -2.9881,-0.6948 c 0.0671,-0.2142 0.1347,-0.4287 0.2025,-0.6428 1.6184,-0.4258 3.2368,-0.8517 4.8554,-1.2777 -7.0776,30.7522 -14.5794,50.4896 -22.1935,67.3014 l -2.0301,0.4721 1.7785,0.0827 c -0.7254,1.5948 -1.4516,3.1648 -2.1785,4.7153 l -3.1837,0.7404 2.7745,0.129 c -0.6919,1.4685 -1.3841,2.9216 -2.077,4.3645 l -3.7925,0.8821 3.2946,0.1533 c -0.3898,0.8092 -0.7796,1.6159 -1.1696,2.421 l -2.9395,0.6836 2.5506,0.1186 c -0.2834,0.5844 -0.5668,1.168 -0.8503,1.7514 l -3.1663,0.7363 2.7464,0.1277 c -0.2578,0.5305 -0.5153,1.061 -0.7731,1.5916 l -3.1136,0.7241 2.7012,0.1256 c -0.2386,0.4919 -0.4776,0.9844 -0.7163,1.4774 l -3.6139,0.8405 3.1369,0.1459 c -0.1997,0.4134 -0.3993,0.8271 -0.5989,1.2414 l -3.8411,0.8932 3.3368,0.1552 c -0.2083,0.4339 -0.417,0.8692 -0.6252,1.3052 l -3.5261,0.8201 3.0675,0.1428 c -2.3112,4.858 -4.6162,9.8598 -6.9077,15.2321 z m 40.9803,-85.0941 c -1.4368,4.9925 -2.9532,9.8319 -4.5407,14.5363 l 1.6086,0.2872 -1.7962,0.2661 c -0.4839,1.4258 -0.9743,2.8395 -1.4711,4.2409 l 2.127,0.3799 -2.3875,0.3536 c -0.0747,0.21 -0.15,0.4192 -0.2252,0.6284 l 1.7983,0.3211 -2.0222,0.2996 c -4.4825,12.3984 -9.4547,23.8624 -14.7449,34.7192 l 2.7581,0.4924 -3.2331,0.4789 c -0.1369,0.2793 -0.2738,0.5586 -0.4111,0.8367 l 2.6668,0.4763 -3.1329,0.4642 c -0.164,0.3299 -0.3282,0.6595 -0.4928,0.9884 l 2.8112,0.5021 -3.3089,0.4902 c -0.1571,0.312 -0.3139,0.6239 -0.4716,0.935 l 2.966,0.5295 -3.4989,0.5185 c -0.184,0.3604 -0.368,0.7199 -0.5525,1.0792 l 2.9112,0.52 -3.4417,0.51 c -0.2544,0.4922 -0.5094,0.9833 -0.765,1.4732 l 2.5777,0.4602 -3.0551,0.4525 c -0.1455,0.2776 -0.2909,0.5554 -0.4369,0.8322 l 2.8404,0.5072 -3.3729,0.4996 c -0.4269,0.8058 -0.8552,1.609 -1.2853,2.4093 l 2.8664,0.5119 -3.415,0.506 c -0.1936,0.3582 -0.3873,0.7154 -0.5813,1.0725 l 3.0189,0.5391 -3.6033,0.5339 c -0.1357,0.2486 -0.2717,0.4973 -0.4079,0.7454 l 2.871,0.5126 -3.4325,0.5084 c -0.1785,0.3237 -0.3574,0.6473 -0.5364,0.9702 l 2.6657,0.4761 -3.1924,0.4729 c -0.2612,0.4693 -0.5226,0.938 -0.7845,1.4058 l 3.1624,0.5647 -3.795,0.5622 c -0.9691,1.7219 -1.9436,3.4343 -2.9223,5.138 l 1.8305,0.327 -2.2064,0.3269 c -0.1874,0.3258 -0.3751,0.6512 -0.5629,0.9762 3.9043,0.3721 7.7531,0.9378 12.543,-1.7918 0.7591,-3.0203 1.9387,-6.0409 3.3758,-9.0612 l -1.5446,0.2289 c -0.9313,1.6952 -1.7708,3.3906 -2.4828,5.0857 -2.7148,0.4887 -5.4298,0.9773 -8.1448,1.466 1.7376,-0.7602 3.4753,-1.5204 5.2127,-2.2805 15.8709,-37.0769 22.9547,-38.7256 29.6469,-81.2848 z m -22.4694,76.33 c 0.8027,-1.6572 1.6806,-3.3141 2.6069,-4.9713 l -1.0739,0.1592 c -0.9816,1.5293 -1.92,3.0586 -2.7883,4.588 l 1.2553,0.2241 z m 2.9862,-5.6453 c 0.7167,-1.2651 1.4602,-2.53 2.2175,-3.7951 l -0.6601,0.0977 c -0.8069,1.1838 -1.6033,2.3677 -2.3766,3.5513 l 0.8192,0.1461 z m 2.5342,-4.3237 c 0.3326,-0.5528 0.6678,-1.1053 1.0043,-1.6582 l -0.461,0.0684 c -0.3452,0.5007 -0.6896,1.0016 -1.0325,1.5024 l 0.4892,0.0874 z m 1.4397,-2.3725 c 0.9887,-1.6191 1.9854,-3.2381 2.9664,-4.8575 -1.0759,1.6006 -2.18,3.2005 -3.2839,4.8008 l 0.3175,0.0567 z M 273.6192,368.4007 c 7.4055,9.4312 13.0032,21.1403 13.1223,39.7591 l 2.1829,-0.6303 -2.1811,0.8668 c 0.003,0.8358 -0.005,1.6853 -0.0237,2.5491 l 2.6651,-0.7694 -2.6728,1.0623 c -0.0141,0.5666 -0.0324,1.1383 -0.0563,1.7174 l 3.0396,-0.8777 c 3.4928,-12.9991 3.5717,-23.608 1.0345,-32.3857 l -1.6902,0.6825 1.6099,-0.9599 c -0.3902,-1.3158 -0.8399,-2.5896 -1.3455,-3.8245 l -1.8753,0.7572 1.757,-1.0474 c -0.2113,-0.5047 -0.4316,-1.0034 -0.6619,-1.4947 l -2.5909,1.0463 2.4048,-1.4337 c -0.2962,-0.6154 -0.6056,-1.2214 -0.9306,-1.8169 l -3.7754,1.5246 3.4709,-2.0692 c -0.2929,-0.5175 -0.5963,-1.0271 -0.9109,-1.5292 l -5.2065,2.1026 3.2282,-1.9244 c -1.5759,-2.319 -3.963,-3.8264 -7.1621,-4.5223 1.4314,1.7152 2.7193,3.5018 3.0029,5.7914 -1.8593,-1.7165 -4.0042,-2.574 -6.4349,-2.574 z m 13.0187,44.9588 c -0.0222,0.4945 -0.0486,0.9945 -0.0782,1.498 l 2.567,-0.7412 c 0.1919,-0.661 0.3736,-1.3152 0.5486,-1.9641 l -3.0374,1.2073 z m -0.1034,1.9278 c -0.0454,0.7305 -0.0996,1.4719 -0.1606,2.2218 l 1.882,-0.5433 c 0.2896,-0.9073 0.565,-1.8043 0.8235,-2.69 l -2.5449,1.0115 z m -0.1996,2.7022 c -0.175,2.0562 -0.4087,4.1865 -0.704,6.3943 0.9471,-2.4459 1.7876,-4.8175 2.5292,-7.1197 l -1.8252,0.7254 z m -0.6079,-49.1863 c -1.1836,-1.802 -2.5063,-3.5063 -3.957,-5.1213 0.8277,2.0003 1.655,4 2.4826,6.0002 l 1.4744,-0.8789 z m 13.2538,-23.1101 c 3.7911,-2.0001 9.2811,1.2678 17.2556,12.2358 0.2315,-2.9411 -0.6483,-5.6742 -2.3404,-8.2547 l 1.8698,-1.1574 -2.2302,0.6273 c -0.546,-0.7753 -1.164,-1.5369 -1.8471,-2.2864 l 1.6454,-1.0186 c 3.273,2.7402 5.9979,6.3403 7.745,8.962 5.1448,7.7203 3.2944,14.6845 -4.3719,8.1476 2.1862,12.2951 2.9135,20.9776 2.7868,27.5457 l -2.1593,1.1614 2.144,-0.5239 c -0.0228,0.8056 -0.0584,1.58 -0.106,2.324 l -2.1949,1.1804 2.1491,-0.525 c -0.0775,1.0284 -0.1789,1.9982 -0.2992,2.9206 l -1.3792,0.7418 1.3233,-0.3234 c -0.1337,0.9614 -0.2893,1.8687 -0.4625,2.7327 l -1.6452,0.8849 1.5401,-0.3762 c -0.8908,4.1959 -2.1934,7.3715 -3.4225,10.7296 0.5587,-19.6785 1.9559,-39.5807 -8.474,-56.329 l 2.513,-1.5557 -2.97,0.8354 c -0.3938,-0.6089 -0.8032,-1.2136 -1.2297,-1.8137 l 2.4741,-1.5316 -2.9747,0.8367 c -0.31,-0.4209 -0.631,-0.8394 -0.9581,-1.2557 l 2.3641,-1.4635 -2.8835,0.8109 c -0.462,-0.5689 -0.9394,-1.1334 -1.4348,-1.6933 l 2.1221,-1.3137 -2.6383,0.742 c -0.6126,-0.6723 -1.2469,-1.3384 -1.9109,-1.997 z m 12.2377,0.6614 c -0.5395,-0.5642 -1.1152,-1.1212 -1.7231,-1.6725 l 1.2152,-0.7523 c 0.88,0.5435 1.7333,1.1689 2.5521,1.8497 l -2.0442,0.5751 z m -2.1271,-2.0344 c -0.8557,-0.7553 -1.7713,-1.5001 -2.7377,-2.235 1.4773,0.3255 2.9136,0.9618 4.2848,1.8 l -1.5471,0.435 z m -6.9732,75.4153 c 6.8305,-28.2854 4.6735,-51.7177 -9.4121,-68.7087 14.0402,22.2364 12.1574,51.0218 9.4121,68.7087 z m 37.9623,-31.0601 c 1.0512,2.5948 1.9546,5.1981 2.7156,7.8105 l -1.4606,0.5035 1.6188,0.0507 c 0.1599,0.5642 0.3133,1.1288 0.4599,1.6937 l -1.765,0.6087 1.9358,0.0604 c 0.2018,0.8075 0.3913,1.616 0.5662,2.4252 l -2.3451,0.8086 2.5319,0.0791 c 0.1096,0.5373 0.2125,1.0749 0.3104,1.613 l -2.3717,0.8178 2.5293,0.0791 c 1.2117,7.1377 1.3971,14.3371 0.6267,21.5949 l -1.7442,0.6015 1.6719,0.0521 c -0.0806,0.7079 -0.1704,1.4165 -0.2691,2.1256 l -1.8734,0.6459 1.773,0.0554 c -0.0792,0.5369 -0.1642,1.0739 -0.2536,1.6114 l -1.99,0.6862 1.8627,0.0582 c -0.0996,0.5687 -0.2053,1.138 -0.3162,1.7075 l -1.7033,0.5874 1.5775,0.0493 c -0.0704,0.3484 -0.1437,0.6968 -0.2185,1.0454 l -1.8297,0.6308 1.6813,0.0526 c -0.6672,3.0057 -1.4905,6.0213 -2.4656,9.0458 0.977,-19.2329 0.6958,-38.286 -1.255,-57.1003 z m 7.5298,-15.3732 c -5.6682,-13.245 -15.8259,-20.7331 -8.0004,-21.3342 -3.9737,-0.523 -5.4378,-2.0915 -4.3923,-4.7061 6.3795,-0.3137 6.484,-4.0786 14.9026,-4.2354 0.3372,0.3647 0.6634,0.7476 0.9813,1.1427 -2.1719,-0.0806 -4.0782,1.0318 -5.8443,2.779 2.7903,-0.8804 5.3788,-1.1565 7.5936,-0.3107 0.3305,0.528 0.647,1.0721 0.9493,1.6306 -1.864,0.1689 -3.5325,1.2162 -5.0918,2.7587 2.1885,-0.6906 4.2525,-1.0094 6.1098,-0.707 0.1304,0.2861 0.2577,0.5742 0.381,0.8654 -1.6092,0.325 -3.073,1.3014 -4.4515,2.6652 1.8297,-0.5774 3.5726,-0.8945 5.1803,-0.8065 0.1817,0.5013 0.3542,1.0073 0.5164,1.5176 -1.7919,0.2181 -3.4033,1.2472 -4.9123,2.74 1.9438,-0.6133 3.7899,-0.9334 5.4801,-0.7854 0.1382,0.5233 0.2651,1.0491 0.3828,1.5758 -1.3651,0.4273 -2.6267,1.3198 -3.8236,2.5039 1.4512,-0.458 2.8474,-0.7521 4.1654,-0.8105 0.1122,0.6218 0.2098,1.2434 0.2927,1.8624 -1.248,0.4592 -2.41,1.3041 -3.5169,2.3992 1.2821,-0.4045 2.5208,-0.6811 3.7012,-0.7804 0.0494,0.5322 0.0863,1.0606 0.1128,1.5849 -1.1826,0.4718 -2.2879,1.2887 -3.3434,2.3329 1.1695,-0.3691 2.3031,-0.6312 3.3892,-0.7501 0.008,1.2273 -0.0509,2.4197 -0.1769,3.5596 -1.0747,0.4842 -2.0861,1.2514 -3.0554,2.2103 0.9734,-0.3071 1.9221,-0.5406 2.8391,-0.6789 -0.0497,0.287 -0.1034,0.5706 -0.1627,0.8486 -0.9347,0.4851 -1.8218,1.1809 -2.6764,2.0265 0.789,-0.249 1.5615,-0.4503 2.3144,-0.591 -0.4164,1.4166 -0.9766,2.6781 -1.6869,3.7284 0.9073,0.7892 1.7718,1.5694 2.589,2.3398 -0.8456,0.4761 -1.6522,1.1241 -2.4322,1.8956 1.2446,-0.3926 2.4484,-0.6655 3.5975,-0.7719 0.4506,0.4454 0.8834,0.8872 1.2981,1.3252 -0.8859,0.481 -1.7288,1.1516 -2.5425,1.9566 1.2542,-0.3958 2.4673,-0.6696 3.6245,-0.7743 1.1761,1.3327 2.1644,2.6264 2.9301,3.8739 -0.8616,0.4781 -1.6827,1.1353 -2.476,1.9203 1.0837,-0.342 2.1366,-0.5929 3.1496,-0.7224 0.3465,0.6824 0.6188,1.3496 0.8124,2.0003 -1.1793,0.4723 -2.2817,1.2885 -3.3346,2.33 1.2618,-0.3981 2.4817,-0.673 3.6453,-0.7762 0.106,1.1005 -0.0514,2.1461 -0.5079,3.1293 -1.1506,1.673 -2.5103,1.882 -4.0786,0.6275 -4.1364,4.9392 -8.3261,10.3848 -11.6083,7.2159 -2.0916,-9.6737 -4.1831,-19.3472 -6.2748,-29.0208 1.1505,-0.2615 2.3009,-0.5229 3.4512,-0.7843 z" />
    <path
       id="path12"
       style="fill:#d9dadb;fill-rule:evenodd"
       d="m 245.4969,378.9769 c -5.5599,0.6453 -6.0243,-3.1764 -3.6434,-5.7452 2.3811,-2.5691 7.6085,-3.8858 9.26,-4.4867 4.2473,-1.5457 15.521,-1.6582 20.8037,7.7984 -0.2898,-4.2294 -2.4336,-7.7636 -6.4312,-10.6029 9.4055,1.322 8.557,18.2831 10.2983,32.2786 1.1535,9.2697 3.3858,16.6626 5.1715,16.9119 4.4829,0.6258 2.5492,-24.5663 -4.5193,-34.2421 8.7487,8.5749 10.1735,37.0672 4.3454,36.6755 -3.3786,-0.2271 -5.0471,-7.215 -5.9576,-15.473 -0.8032,-7.2862 -0.9354,-15.6187 -2.2118,-21.3763 -4.9449,-10.0348 -11.5514,-11.415 -18.1315,-11.2449 -9.6165,0.2488 -17.1464,7.7293 -8.9841,9.5067 z m 192.1623,-71.0975 c 0.8386,-3.6798 2.3958,-6.4021 5.4863,-7.0806 0.0468,0.4845 0.0937,0.9691 0.1406,1.4536 -2.2681,1.1695 -3.9867,3.3278 -5.6269,5.627 z m -15.4272,-3.9858 c -3.0717,-1.9419 -2.0868,-9.0148 0.5627,-10.0347 1.927,1.5013 2.2065,2.892 2.2507,4.2671 -0.3282,-0.1563 -0.6564,-0.3126 -0.9847,-0.4689 -1.2977,1.7041 -0.7037,2.3762 0.7503,2.579 -2.1502,2.5775 -4.304,-0.9292 -1.0316,-3.6575 -0.3283,-0.3751 -0.7034,-0.8909 -1.0316,-1.2661 -1.6766,1.4184 -2.3877,3.7086 -0.5158,8.5811 z m 1.2191,-10.6912 c 5.0172,-1.5318 6.0644,4.5014 1.4537,10.363 1.772,-4.7439 1.1506,-8.1201 -1.4537,-10.363 z m -6.3205,-14.8432 c 1.8461,-7.1804 8.3337,-12.2025 17.9972,-15.7476 0.3861,3.886 -0.1141,8.0672 -1.9088,12.6799 0.5567,4.3345 2.6242,7.0498 5.7264,8.6577 -3.7496,-0.4092 -5.9541,-2.8182 -6.6126,-7.2261 -0.5228,0.7272 -1.0454,1.4543 -1.568,2.1814 0.9089,10.1575 16.4065,8.8623 14.3842,13.7025 -1.0682,-4.7039 -9.9758,-1.0908 -15.8839,-11.8618 -3.2043,2.579 -5.5449,3.2153 -7.2943,2.5223 7.888,-3.0391 12.8359,-8.8218 12.5435,-19.497 -8.0218,3.454 -13.0437,7.8171 -15.0659,13.0889 -0.7726,0.5 -1.5453,1 -2.3178,1.4998 z m 4.8402,0.6817 c -1.9542,-3.0732 2.1357,-7.3337 10.362,-12.4072 0.2499,0.2045 0.4998,0.409 0.7499,0.6136 -2.6318,5.5354 -5.5454,10.6947 -9.8167,14.0432 -0.4546,-0.1819 -0.909,-0.3636 -1.3634,-0.5453 4.0675,-2.9992 6.8851,-7.2486 9.1349,-12.0663 -5.1712,3.6846 -8.9892,7.2238 -9.0667,10.362 z m -92.9796,69.9813 c 7.6525,-12.9446 11.2907,-26.6615 17.2963,-38.0972 6.3934,-12.1736 15.1728,-21.8624 24.1646,-28.6729 13.3618,-10.1202 29.1798,-14.102 48.2144,-10.0412 -19.3649,-2.3562 -34.8586,2.1273 -47.6234,11.4313 -9.328,6.7989 -17.5722,17.4308 -23.5931,29.5924 -6.0209,12.161 -9.8191,25.8525 -18.4588,35.7876 z m 24.6095,-6.1523 c -10.5749,-11.1777 9.5867,-47.0382 29.2703,-57.9814 -10.5948,8.145 -36.7765,37.12 -29.2703,57.9814 z m 50.1092,-8.497 c 3.9474,1.7328 4.8193,-1.3672 5.2518,-5.158 0.8441,0.2188 1.6881,0.4377 2.5322,0.6565 -3.9557,5.8619 -5.3313,9.9259 -1.0316,10.0347 -2.7516,0.9851 -3.783,-0.6094 -4.0327,-3.3762 -1.1566,-0.719 -2.0632,-1.438 -2.7197,-2.157 z m 9.7534,2.6259 c 1.7293,-2.4387 5.6475,0.5995 1.9694,3.1887 4.4101,-0.9989 3.2525,-4.5093 1.6459,-5.5059 -1.402,-0.8697 -3.868,0.2582 -3.6153,2.3172 z m -13.0339,-54.41 c -20.3376,4.4827 -33.5598,28.1267 -36.7723,40.0351 -2.0727,7.6831 -0.2221,13.1128 1.4159,14.0394 4.7153,2.6675 10.0839,1.0082 15.1257,1.5125 -9.7371,-2.3005 -8.0976,0.6806 -14.1803,-2.9306 -6.0827,-3.6112 4.5062,-41.3437 34.411,-52.6564 z m 10.7831,38.9359 c 0.3036,0 0.5972,0.0411 0.8764,0.1187 0.6262,-11.8577 2.2295,-23.9407 5.9249,-36.5065 -0.4953,-0.007 -0.9651,-0.1237 -1.3853,-0.328 -4.7782,11.7635 -7.692,23.8718 -6.1659,36.8023 0.2411,-0.0569 0.4919,-0.0865 0.7499,-0.0865 z m 1.7998,0.5394 c 0.2919,0.1926 0.5519,0.4308 0.7691,0.7039 5.367,-0.3877 9.5147,1.0555 13.0928,3.3521 -0.0625,0.4376 -0.1251,0.8753 -0.1876,1.3129 -3.6483,-2.2792 -7.5485,-3.9543 -12.3205,-3.5358 0.0836,0.2888 0.1288,0.5947 0.1288,0.9099 0,0.6731 -0.2047,1.299 -0.5544,1.8209 5.6512,-0.0686 9.1937,1.7295 11.9959,4.1812 -0.2189,0.2501 -0.4377,0.5002 -0.6565,0.7503 -3.4018,-2.8589 -7.629,-4.0681 -12.5801,-3.8282 -0.4468,0.2288 -0.9523,0.3582 -1.4873,0.3582 -0.3224,0 -0.6335,-0.0473 -0.9282,-0.1346 -1.303,0.1751 -2.651,0.4399 -4.0423,0.7911 0.0313,-0.3751 0.0626,-0.7503 0.0938,-1.1254 0.8853,-0.2006 1.7333,-0.3682 2.547,-0.5056 -0.5881,-0.5938 -0.9527,-1.4094 -0.9527,-2.3079 0,-1.27 0.7279,-2.3758 1.7877,-2.9214 -1.8713,-12.6529 0.8486,-24.9525 5.246,-37.1237 -6.3117,3.1675 -10.1454,8.1568 -12.3356,12.7071 -1.9321,4.0148 -3.502,10.2208 1.0817,13.1769 -4.3441,-1.3974 -4.9513,-5.9087 -4.7829,-11.0664 -3.9076,10.0348 -3.1261,24.4773 -8.0653,33.7617 3.2946,-10.5742 2.8809,-22.9144 5.9686,-32.7222 3.1164,-9.8997 8.3673,-17.7928 18.826,-20.9971 0.5999,-0.6448 1.4555,-1.0497 2.4023,-1.0497 1.8081,0 3.2824,1.4744 3.2824,3.2824 0,1.332 -0.8009,2.4834 -1.9451,2.9969 -3.6039,12.404 -5.6443,24.808 -6.3836,37.2125 z m 1.8491,-40.9544 c -10.3875,4.5856 -14.0889,12.269 -14.7152,21.3772 2.7191,-10.344 7.9417,-16.3395 15.247,-18.7192 -0.3883,-0.5392 -0.617,-1.2002 -0.617,-1.913 0,-0.2563 0.0292,-0.5054 0.0852,-0.745 z m 3.1972,-1.2244 c 1.0851,0 1.9695,0.8843 1.9695,1.9694 0,1.0846 -0.8844,1.9695 -1.9695,1.9695 -1.0845,0 -1.9694,-0.8849 -1.9694,-1.9695 0,-1.0851 0.8849,-1.9694 1.9694,-1.9694 z m -6.8461,42.9524 c 1.0851,0 1.9694,0.8843 1.9694,1.9694 0,1.0845 -0.8843,1.9695 -1.9694,1.9695 -1.0845,0 -1.9694,-0.885 -1.9694,-1.9695 0,-1.0851 0.8849,-1.9694 1.9694,-1.9694 z m 25.4243,41.5852 c -8.7933,-4.3961 -6.0337,-10.4754 -1.5433,-9.8208 -4.1164,2.6425 -2.5726,6.0565 1.5433,9.8208 z m -37.7075,2.9976 c 0.4433,-0.1813 0.8866,-0.3627 1.3299,-0.544 0.2418,0.141 0.4836,0.2821 0.7254,0.4231 5.9849,-3.3464 13.1742,-5.6228 20.6135,-7.6771 -8.8389,1.7248 -17.3991,3.6402 -22.6688,7.798 z m -1.5717,4.1711 c 4.0703,-2.0553 9.4705,-1.5113 13.843,-3.627 0.0202,0.2216 0.0403,0.4433 0.0605,0.6649 5.6823,-2.5187 10.7601,-3.4658 17.0469,-7.5562 -7.4063,6.07 -16.771,10.4155 -30.9504,10.5183 z m -2.9017,16.6238 c 5.9174,-10.3375 15.5817,-15.5359 27.1422,-18.1351 -10.9681,4.048 -20.2045,9.8966 -27.1422,18.1351 z m 38.4848,11.7002 c 0.1254,-0.209 0.2508,-0.418 0.3762,-0.6271 3.502,-1.2819 4.7142,-3.6543 5.853,-6.0619 -0.0906,1.296 -0.11,2.5923 -1.3378,3.888 0.2229,-0.014 0.4459,-0.0279 0.6689,-0.0418 -2.0975,2.2652 -4.0208,3.5887 -5.5603,2.8428 z m 0,4.0971 c 0.1393,-0.2927 0.2787,-0.5853 0.418,-0.878 1.9092,-0.4041 3.4282,-1.3657 4.557,-2.8846 1.6728,-0.6158 2.6479,-2.0165 3.4281,-3.6372 -0.7314,5.0386 -3.9923,6.9337 -8.4031,7.3998 z m 2.7174,1.4214 c -0.1393,0.1951 -0.2787,0.3902 -0.4181,0.5853 2.5508,0.2448 4.4041,-0.7307 6.062,-2.0485 -0.0836,-0.1115 -0.1672,-0.223 -0.2508,-0.3345 1.2284,-1.2536 1.576,-2.7031 1.7977,-4.1807 -1.0365,2.9 -2.8058,5.3114 -7.1908,5.9784 z m -3.6372,5.2676 c -0.4041,2.5921 1.6247,3.2039 3.4282,4.766 0.9299,0.8052 1.5485,2.0675 2.8652,2.8174 1.2371,0.7045 3.1645,0.8987 4.3255,1.6141 -0.0418,-0.223 -0.0836,-0.4459 -0.1254,-0.6689 0.7525,-0.223 1.0591,-0.8361 0.9198,-1.8395 -2.3412,-1.4911 -4.6824,-2.9822 -7.0236,-4.4733 1.9092,1.6583 3.8184,3.3167 5.7275,4.975 -3.7765,0.7525 -4.2334,-1.925 -5.9365,-3.1355 -1.7032,-1.2105 -2.9961,-1.0312 -4.1807,-4.0553 z m -24.5,-14.9549 c -0.3791,-0.3316 -0.7582,-0.6634 -1.1374,-0.9952 -3.2743,1.5105 -4.3641,4.117 -3.2702,7.8199 0.0571,1.5372 0.6397,2.6457 1.9905,3.1279 -0.5787,-0.6873 -0.8796,-1.4257 -0.5687,-2.2748 0.4742,0.2028 0.9482,0.2028 1.4218,0 -3.3618,-1.8186 -2.2639,-6.326 1.564,-7.6778 z m -11.6447,9.0139 c -7.6717,10.7136 -15.879,17.4642 -24.5303,20.9316 3.7479,1.8914 6.8071,1.3747 9.7681,0.5141 -2.5461,0.1789 -5.0922,0.4323 -7.6382,-0.5876 10.0925,-5.236 17.4004,-12.293 22.4004,-20.8581 z m -23.8693,25.1179 c -0.2203,0.1713 -0.4407,0.3427 -0.661,0.5141 3.8976,3.0074 6.3162,-1.0282 9.4743,-1.5424 -3.8534,0.1667 -5.3121,3.3619 -8.8133,1.0283 z m -2.0124,-2.1269 c 0.317,-0.1173 0.6339,-0.2346 0.9508,-0.3522 2.8992,1.3072 5.7986,1.1294 8.6983,0.7396 -3.143,1.0107 -6.3183,1.5195 -9.6491,-0.3874 z m -3.2046,6.8318 c -0.805,3.1867 -2.0636,6.736 -1.3382,8.6982 -1.8161,2.2606 -5.9277,1.3996 -3.0285,-3.4511 0.1058,-0.7866 0.3992,-1.5732 0.8804,-2.3594 0.1086,-1.139 0.6077,-2.2777 1.3734,-3.4159 0.1879,-1.3147 0.6794,-2.9357 1.8312,-3.2046 1.1517,-0.269 1.4555,1.5494 2.3946,2.2185 -1.35,0.0705 -1.5965,-1.6385 -2.4298,-1.4086 -0.8333,0.23 -0.4695,1.5143 -0.6339,2.2538 -0.7627,1.3235 -1.373,2.7611 -1.7608,4.3667 -0.5634,1.6785 -3.1765,4.5142 -1.1621,5.0359 2.0145,0.5216 1.7022,-5.4351 3.8737,-8.7335 z M 243.87,392.3294 c -14.95,13.5435 -3.6264,41.0749 19.3164,49.9561 0.2219,7.845 -1.6284,14.8019 -5.5507,20.8706 2.3683,-0.5921 4.7366,-1.1841 7.1049,-1.7762 -1.6917,3.1189 -4.4036,5.2177 -7.3269,7.1049 4.4289,-2.1126 7.8333,-5.147 10.2133,-9.1032 -2.6644,0.7401 -5.3287,1.4802 -7.993,2.2203 3.5157,-5.8096 4.9957,-12.8405 5.5507,-20.4265 -19.3722,-5.236 -34.6549,-32.2126 -21.3147,-48.846 z m -18.3804,50.3793 c -8.8734,-14.8363 -11.3752,-25.2881 -6.0328,-31.146 -2.0573,6.3253 -0.4674,13.4104 6.4537,21.6058 -2.5491,-6.5121 -1.9877,-11.9132 0.7015,-16.5551 -2.093,6.1966 -1.602,13.3053 2.6656,21.7461 -4.2096,-4.0907 -8.0913,-8.6732 -10.8028,-15.0118 1.3995,6.9231 4.1136,13.1892 7.0148,19.361 z m -17.8303,-5.2563 c 2.398,5.7649 4.7755,11.2753 6.5165,8.9006 0.1834,4.7157 4.0722,6.8575 0.7947,18.4371 3.1297,-5.9278 2.7915,-12.3531 -0.1589,-19.1523 -2.8551,0.4998 -4.9673,-4.094 -7.1523,-8.1854 z m 6.3259,-16.9107 c -3.7908,15.2467 18.2421,26.8264 4.209,48.122 0.5611,-0.7951 1.2713,-1.4706 1.8325,-2.2655 0,0.5143 -0.149,0.9092 -0.149,1.4237 11.7477,-21.3435 -5.3241,-29.6423 -5.8925,-47.2802 z m -20.4833,44.6145 c 11.3339,-12.7431 -9.2666,-37.7497 6.5939,-50.6472 -12.9909,16.2503 6.8614,40.595 -6.5939,50.6472 z m 2.9462,4.4895 c 12.1757,-13.5849 -8.1442,-44.7645 10.382,-60.1874 -16.4984,19.3369 4.0554,49.1531 -10.382,60.1874 z m 9.6933,-24.8271 c 6.326,8.9572 5.2637,26.116 -2.6199,32.4299 6.3612,-9.4822 7.9663,-20.1156 2.6199,-32.4299 z m 5.2064,24.9646 c 4.0577,-8.2483 0.5501,-19.448 -3.3283,-25.161 -5.4256,-7.9917 -9.6172,-15.3521 -3.9916,-26.3968 -3.2948,11.6609 -0.7521,17.5006 4.4151,24.2933 4.228,5.5574 8.3265,18.6111 2.9048,27.2645 z m 6.972,-17.2437 c -1.4011,-11.5556 -7.72,-19.8328 -7.851,-29.3943 -0.1053,-7.676 5.7608,-17.3832 13.8672,-18.3866 -8.1052,3.3178 -11.2409,9.949 -12.1967,17.5392 -1.0495,8.3367 7.2302,21.905 6.1805,30.2417 z m 32.5822,21.018 c -3.4014,1.9768 -10.6045,3.5161 -9.6929,5.1015 0.3294,0.5729 1.3983,0.3631 2.7327,-0.2453 l 0.5469,7.3146 1.4174,-8.3704 c 1.9343,-1.1698 3.9515,-2.7215 4.9959,-3.8004 z m 33.0087,-46.7807 c 10.0407,9.0362 13.7272,-21.3546 9.9012,-43.5145 -2.792,-16.1709 -8.2081,-28.5821 -17.723,-21.1457 5.9825,-9.7525 15.4889,2.9773 17.1535,11.7764 0.6218,3.2871 2.3965,10.6662 2.9811,18.9925 0.4998,7.1196 -0.0571,14.9325 -0.8753,21.4726 -1.5183,12.1326 -7.0778,19.7008 -11.4375,12.4187 z m 55.6216,3.4763 c -0.9666,-20.6877 -3.1466,-41.1328 -6.4312,-61.3576 -7.474,-15.1802 -16.3387,-24.5662 -26.5941,-28.1585 0.2898,-0.2317 0.5794,-0.4635 0.8691,-0.6953 12.4815,2.9555 28.9149,23.8895 38.0661,54.405 -4.4278,-20.0303 -10.0212,-39.6235 -29.3753,-54.0574 0.4057,-0.1738 0.8113,-0.3476 1.2168,-0.5214 29.2016,21.8895 33.2764,61.4697 29.0275,89.69 2.0712,-18.6707 -0.5651,-36.7767 -10.0814,-54.0574 1.9702,4e-4 4.8671,54.7526 3.3025,54.7526 z m -46.7569,-81.5205 c 18.4435,7.8672 17.906,40.9313 18.8879,58.4515 0.3273,5.84 1.3177,9.7975 2.144,10.2065 3.3063,1.6369 10.7163,-20.2998 6.9527,-46.0617 3.5922,3.4764 6.0256,3.4764 7.3004,0 -2.8969,2.3174 -6.0258,0.6949 -9.3862,-4.8669 5.6272,28.6782 -2.167,50.3936 -4.5192,48.4952 -2.3523,-1.8985 2.2362,-60.2883 -21.3796,-66.2246 z m 16.6458,144.2044 c 18.5486,-3.9909 24.4501,-85.0892 16.5682,-115.1793 6.4134,55.5701 -2.9522,107.3872 -16.5682,115.1793 z m 18.5644,-116.1774 c 6.5213,33.4695 6.5213,90.9591 -3.7927,107.5938 0.0666,0.7318 0.1331,1.4638 0.1996,2.1958 0.7985,-1.3973 1.5969,-2.7946 2.3954,-4.192 13.3742,-1.9299 18.2313,-12.6427 14.5721,-32.1384 1.2988,17.5016 -1.5623,29.6784 -13.574,30.1423 9.0918,-23.4711 7.4115,-79.8632 0.1996,-103.6015 z m -41.1212,-23.9541 c 0.4657,-0.2661 0.9315,-0.5322 1.3973,-0.7984 19.9674,14.9078 16.8495,62.3431 4.5912,94.8182 12.6424,-40.6554 10.4466,-82.3755 -5.9885,-94.0198 z m -19.521,142.5683 c 34.9927,-42.4761 46.044,-87.034 35.2983,-133.4876 8.529,21.144 8.4461,46.6646 5.1428,65.6359 -3.7436,21.5007 -11.5042,35.4363 -13.3459,40.5079 -3.4673,9.5468 -0.9973,10.2281 -4.9078,17.3763 -3.9104,7.1482 -13.2774,12.9352 -18.2102,24.8823 2.5542,-12.4853 13.3224,-18.7122 16.9673,-25.8766 3.6449,-7.1644 2.4186,-10.4517 4.6592,-16.6306 1.0503,-2.8962 8.0615,-15.7515 11.9371,-32.0623 4.3924,-18.4857 5.443,-41.3301 1.7348,-57.6751 5.7068,43.2115 -8.5244,82.073 -39.2756,117.3298 z M 248.4513,377.2982 c 5.1719,-0.5589 14.0805,-2.0952 18.8936,5.7897 4.813,7.8849 4.784,24.3953 6.213,33.486 1.4289,9.0907 4.9716,11.7661 7.4574,17.6492 1.6783,25.9894 -20.1094,36.6904 -17.8978,60.9021 1.3905,-24.1424 17.714,-30.152 19.6378,-56.4277 5.9066,7.829 2.0951,21.5837 -11.4347,41.2643 7.709,-8.8991 14.7068,-20.4286 15.6606,-30.7863 0.9538,-10.3577 -7.3857,-16.4384 -10.7959,-27.6677 -3.4103,-11.2292 -2.0222,-33.5775 -9.2321,-40.8711 -7.21,-7.2935 -16.0086,-4.2997 -18.5019,-3.3385 z m 31.5696,148.8995 c 29.705,-56.241 42.714,-101.5241 43.253,-139.2049 7.8749,40.944 -9.1869,98.5014 -22.3722,117.0813 14.0446,-29.1046 22.082,-61.2125 22.8693,-96.9463 -6.1472,45.8256 -23.0108,83.8574 -43.7501,119.0699 z m 12.9059,3.0764 c 5.4557,-9.2359 14.9089,-18.0782 13.6184,-26.4 -0.8712,10.514 -15.7519,23.6357 -13.6184,26.4 z m 67.7494,-149.272 c 2.5035,-1.7162 4.3189,-3.7072 5.4467,-5.9738 0.4685,-0.0586 0.9371,-0.1172 1.4056,-0.1757 2.1721,10.0961 16.9343,10.8011 23.5439,20.3813 18.8899,-8.1576 25.3959,-21.7847 36.5458,-23.544 -13.8609,5.9569 -17.6085,16.6609 -37.2486,25.301 -0.6442,-0.8785 -1.2884,-1.757 -1.9327,-2.6355 -6.5032,6.289 -14.0602,11.374 -22.4897,15.4616 8.3766,-4.7313 15.6349,-10.1335 21.2598,-16.5158 -1.4056,-0.9957 -2.8112,-1.9913 -4.2168,-2.987 -9.3813,8.7898 -19.7448,19.9893 -22.8411,13.3533 -2.7838,3.6116 -5.9292,6.319 -10.3664,5.7981 4.9663,-1.3594 8.0482,-4.6026 11.0692,-7.9065 1.5063,8.37 11.3652,-2.3504 20.7327,-11.9477 -7.7482,-3.9729 -13.5181,-8.2037 -14.9346,-13.0018 -1.3721,2.2385 -3.501,3.5306 -5.9738,4.3925 z m 21.0088,-32.1674 c -15.7054,-1.7994 -17.7701,3.4255 -17.4428,6.3618 0.3273,2.9362 1.0883,2.6784 1.0342,3.8548 -0.2891,6.2776 0,9.9071 15.4798,9.9071 -6.5015,10.2854 6.5015,12.0053 9.2878,16.3053 -2.3393,-5.9855 -14.0694,-5.6759 -7.0175,-17.9565 -16.2021,2.064 -15.6652,-2.9975 -16.0989,-8.9783 -0.0812,-1.121 -0.9017,-1.2713 -1.1872,-3.6044 -0.2855,-2.333 1.1314,-4.8279 15.9446,-5.8898 z m -59.7907,-6.6077 c 0.4337,-0.7435 0.8674,-1.487 1.3011,-2.2305 0.3717,0.3718 0.7434,0.7435 1.1152,1.1153 0.6195,-0.6816 1.2391,-1.3631 1.8587,-2.0446 0.2009,-0.2211 0.6435,0.7318 1.1177,0.3572 0.7905,-0.6246 1.6703,-2.5877 1.6703,-2.5877 0.2752,0.1507 0.5503,0.3013 0.8254,0.452 0.7162,-1.2039 1.4324,-2.4078 2.1486,-3.6118 0.4337,0.124 0.8674,0.2479 1.301,0.3718 0.2479,-0.8674 0.4957,-1.7348 0.7435,-2.6022 0.3718,0 0.7435,0 1.1153,0 0.8673,-1.1772 1.7347,-2.3544 2.6021,-3.5315 -2.6223,9.5633 -15.1967,18.777 -15.7989,14.312 z m -3.5383,-8.2213 c 0.1836,-0.4406 0.3672,-0.8813 0.5508,-1.3219 1.3954,0.7344 2.7909,0 4.1863,-2.2034 0.7344,0.8079 1.7627,0.2938 3.0847,-1.5423 0.8078,0.661 1.9095,0 3.3049,-1.983 0.8445,0.3307 1.9828,-0.367 3.4152,-2.0931 1.2851,0.4041 2.4235,-0.6609 3.4151,-3.1949 1.2859,0.446 2.3139,-0.9148 3.305,-2.5338 1.7341,-0.667 2.8312,-2.2894 3.966,-3.8558 -4.5904,10.2438 -17.4245,18.6028 -25.228,18.7282 z m 1.6524,-8.7545 c 0.1837,-0.4265 0.3673,-0.8533 0.5509,-1.28 1.3954,0.841 2.7909,0.213 4.1863,-1.8839 0.7344,0.8638 1.7627,0.4282 3.0847,-1.3071 0.8078,0.7225 1.9095,0.1457 3.3049,-1.7309 0.8445,0.3951 1.9828,-0.2158 3.4152,-1.8327 1.2851,0.5021 2.4235,-0.4759 3.4151,-2.9344 1.2859,0.5441 2.3139,-0.7384 3.305,-2.2816 1.7341,-0.5349 2.8312,-2.0736 3.966,-3.5534 -4.5904,9.8937 -17.4245,17.2739 -25.2281,16.804 z m 0.7712,-8.7029 c 0.1836,-0.4266 0.3672,-0.8533 0.5508,-1.28 1.3955,0.8408 3.3418,0.9839 4.7372,-1.113 0.7344,0.8638 1.7627,0.4282 3.0846,-1.3071 0.8079,0.7226 1.9096,0.1457 3.305,-1.7308 0.8445,0.395 1.9828,-0.2159 3.4152,-1.8328 1.2851,0.5021 2.4235,-0.4758 3.4151,-2.9343 1.2859,0.544 2.3139,-0.7384 3.305,-2.2817 1.7341,-0.5348 2.8312,-2.0736 3.966,-3.5534 -4.5095,9.0067 -17.3439,16.5056 -25.7789,16.0331 z m 4.3581,-18.1486 c 0.3145,-0.3418 0.6288,-0.6846 0.9431,-1.0262 1.0389,1.2546 2.8278,2.0329 4.8384,0.5143 0.4074,1.0582 1.5222,0.9872 3.3427,-0.2141 0.5243,0.9489 1.7555,0.7685 3.692,-0.5418 0.6664,0.6518 1.9425,0.452 3.8289,-0.6011 1.0472,0.8981 2.4449,0.3516 4.1929,-1.641 1.034,0.9376 2.4279,0.0676 3.8733,-1.062 1.8135,0.0682 3.3575,-1.0212 4.9179,-2.0434 -7.2327,7.0113 -21.824,9.8481 -29.6292,6.6153 z m 3.4151,-9.8048 c 0.4098,-0.3418 0.8194,-0.6846 1.2288,-1.0262 1.3538,1.2546 3.6846,2.0329 6.3045,0.5143 0.5309,1.0582 1.9834,0.9872 4.3555,-0.2141 0.6832,0.9489 2.2875,0.7685 4.8107,-0.5418 0.8684,0.6518 2.531,0.452 4.989,-0.6011 1.3645,0.8981 3.1857,0.3516 5.4633,-1.641 1.3474,0.9376 3.1637,0.0676 5.0469,-1.0619 2.363,0.0681 4.3748,-1.0213 6.4081,-2.0435 -9.4242,7.0113 -28.4366,9.8481 -38.6068,6.6153 z m 11.3967,-12.8046 c 0.4572,-0.2755 0.9139,-0.5519 1.3706,-0.8274 1.1472,1.4459 3.3322,2.5698 6.1529,1.4675 0.364,1.1264 1.8103,1.2772 4.3371,0.4505 0.5311,1.0418 2.1442,1.1077 4.8374,0.1964 0.7591,0.7761 2.4332,0.8316 5.0222,0.1646 1.2124,1.0949 3.0952,0.8318 5.6496,-0.7913 1.189,1.1318 3.1165,0.5482 5.1494,-0.2817 2.3253,0.4269 4.4795,-0.3439 6.6446,-1.045 -10.3811,5.4962 -29.6038,5.4085 -39.1638,0.6664 z" />
    <path
       id="path14"
       style="fill:#d9dadb;fill-rule:evenodd"
       d="m 180.467,549.6451 -0.809,-1.1286 -1.0826,-1.7877 -0.9889,-1.9482 -0.8904,-2.1201 -0.7884,-2.3001 -0.6806,-2.4896 -0.5686,-2.6869 -0.4504,-2.8926 -0.3281,-3.1053 -0.2001,-3.3254 -0.0682,-3.5695 0,-280.7045 284.1744,-0.5662 0,0.1504 -21.7924,24.2407 c 0.0424,-1.2384 -0.0635,-2.527 -0.381,-3.8855 -2.3048,0.5065 -4.2641,1.3585 -5.8776,2.5554 -7.6724,-6.1348 -15.0459,-9.463 -25.0437,-8.6886 -1.9592,-0.7666 -3.9185,-1.5333 -5.8776,-2.2999 -18.7352,10.5032 -26.0689,1.4425 -48.043,7.4109 0.5062,2.0492 1.3578,3.7531 2.5555,5.1109 -5.7567,2.5015 -11.3835,5.2198 -16.0995,9.4553 1.4973,0.4663 2.8649,0.9762 3.3221,1.7888 -5.111,3.663 -10.2219,7.3258 -15.3329,10.9886 1.448,0.5964 2.8962,1.1926 4.3443,1.7888 -1.9592,2.8111 -3.9185,5.6221 -5.8776,8.4331 1.0222,0.426 2.0444,0.852 3.0666,1.2778 -2.5555,5.622 -5.111,11.2441 -7.6664,16.8661 0.7666,0 1.5333,0 2.2999,0 -1.1926,2.8964 -2.3852,5.7925 -3.5777,8.6886 1.0222,0.2556 2.0444,0.5111 3.0666,0.7667 -1.2777,2.6408 -2.5555,5.2814 -3.8332,7.922 0.7666,0.0853 1.5333,0.1704 2.2999,0.2555 -0.9371,1.8742 -1.7207,3.4412 -2.6575,5.3151 -5.6221,-0.6727 -11.8584,-0.4732 -17.4801,3.3736 -4.9771,0.3564 -7.2427,2.1453 -7.7171,5.3665 -2.6417,0.4593 -4.2603,1.737 -4.8554,3.8332 -3.173,-2.0563 -14.374,-0.4912 -13.033,10.9885 -1.3103,2.4941 -2.7236,4.5263 -4.8554,3.3222 -5.0471,-3.4374 -10.0498,-1.0814 -15.9839,0.9321 -9.2575,3.141 -17.355,8.5499 -10.3375,13.6341 -6.5023,5.2761 -12.2369,11.5761 -16.2826,20.1269 -24.2688,1.5885 -35.9882,8.9673 -40.0594,19.0305 -4.334,10.7125 -0.1618,24.2437 1.3099,29.4353 2.8545,10.069 -5.4354,17.1238 -2.6351,32.5235 2.3901,-4.5317 5.2864,-8.4165 8.7754,-10.5411 -3.4688,10.3494 -0.3542,17.4836 -5.2011,20.7903 1.4833,1.8337 2.5076,1.0559 3.9906,0.4307 0.2635,5.8866 -1.9997,10.4594 -4.1867,13.4887 5.5633,1.5178 11.9368,-8.1666 17.0916,-24.6136 0.1853,2.7257 0.7787,5.2471 1.78,7.5649 9.4022,-18.5553 24.9284,-19.8101 22.6948,-40.0496 2.3805,0.0343 3.865,-3.3641 3.1214,-6.7836 -1.4847,-6.8271 -5.1899,-16.0398 -2.6764,-23.4762 11.7623,26.9582 26.9227,28.0821 26.864,34.5455 -0.0339,3.7364 -2.5757,9.9112 -6.4686,14.1056 -2.8408,3.0611 -6.7951,4.3637 -9.3907,5.3566 -6.4069,2.4505 -4.9565,6.9472 -2.9948,8.7368 0.0878,1.3323 0.1797,2.6272 0.2748,3.8927 l -57.9586,64.4699 z" />
    <path
       id="path16"
       style="fill:#ffec00;fill-rule:evenodd"
       d="m 446.5855,553.6881 -1.5145,1.1306 -1.5984,1.0254 -1.6825,0.9264 -1.7647,0.8344 -1.8446,0.7484 -1.9216,0.6683 -1.996,0.5936 -2.0664,0.5256 -2.1332,0.4634 -2.1958,0.4079 -2.2552,0.3582 -2.3099,0.3158 -2.3611,0.2801 -2.4075,0.2512 -2.4509,0.2292 -2.4896,0.2146 -2.525,0.207 -2.4782,0.2007 -63.4209,0 -1.6787,0.0931 -1.674,0.2811 -1.6112,0.4539 -1.5437,0.6126 -1.4751,0.7559 -1.4063,0.8855 -1.3399,1.0013 -1.2753,1.1043 -1.2148,1.1952 -1.1572,1.2764 -1.103,1.3471 -1.0507,1.408 -1.0014,1.4589 -0.9544,1.5015 -0.9092,1.5335 -0.8657,1.5568 -0.8245,1.5704 -0.7841,1.5755 -0.7454,1.5705 -0.7073,1.5563 -0.6714,1.5323 -0.6358,1.4992 -0.6016,1.4559 -0.568,1.4032 -0.5358,1.3397 -0.5041,1.2668 -0.4727,1.1832 -0.3018,0.7439 -0.3368,-0.7801 -0.4975,-1.1784 -0.5271,-1.2629 -0.5578,-1.3365 -0.5879,-1.4 -0.6202,-1.4534 -0.6529,-1.4969 -0.6864,-1.5301 -0.7214,-1.5548 -0.7578,-1.5689 -0.7955,-1.5741 -0.8346,-1.5691 -0.8744,-1.5555 -0.9169,-1.5325 -0.9608,-1.5004 -1.0073,-1.4581 -1.0553,-1.4071 -1.1068,-1.3465 -1.1604,-1.2757 -1.2173,-1.1949 -1.2772,-1.1037 -1.341,-1.0007 -1.4073,-0.8853 -1.4755,-0.7559 -1.5438,-0.6126 -1.6116,-0.4537 -1.674,-0.2811 -1.6867,-0.0934 -66.8643,0.5738 -2.4514,-0.2002 -2.5091,-0.2068 -2.4757,-0.2148 -2.4393,-0.229 -2.3978,-0.2513 -2.3532,-0.28 -2.3041,-0.316 -2.2508,-0.358 -2.193,-0.4081 -2.1317,-0.4634 -2.0664,-0.5256 -1.9973,-0.5938 -1.9239,-0.6683 -1.8482,-0.7486 -1.7688,-0.8348 -1.6877,-0.9267 -1.6041,-1.026 -1.5203,-1.1312 -1.4348,-1.2442 -1.3489,-1.3655 -0.5891,-0.6987 57.1043,-63.4275 c 2.3826,29.4734 6.4362,39.9486 3.1022,40.4832 0.8197,5.5089 3.6893,8.8995 3.115,13.3499 2.9247,0.7646 5.4463,0.3196 7.5649,-1.335 1.1866,1.335 2.3732,2.67 3.56,4.005 -1.6665,2.0347 -1.6695,3.5151 0.5962,4.4413 -0.1484,1.1865 -0.448,2.8268 -0.5962,4.0136 7.9739,1.7926 15.5948,2.35 22.4096,0.1599 -1.7799,-2.225 -4.316,-5.5085 -6.096,-7.7335 1.1491,-3.085 -0.4194,-5.2437 -5.7217,-6.3119 -10.4545,-6.2335 -12.9218,-17.0496 -14.5994,-27.9308 -2.0895,-13.5536 0.8431,-26.2984 11.1274,-28.4931 -5.9623,53.8922 13.2474,35.1244 11.5699,52.9545 10.2756,-3.3264 16.2666,-0.5828 19.5798,-6.2299 2.9666,0 5.9332,0 8.9,0 -0.9484,-2.3438 -2.1049,-4.7769 -4.005,-7.12 13.8868,-18.4853 5.3898,-20.4174 9.3475,-23.1424 3.9577,-2.725 9.4785,-3.5643 12.9023,-6.2273 3.4238,-2.663 4.711,-6.7819 6.587,-8.0979 1.0551,-0.7401 7.2111,0.7889 12.7,0.635 4.2692,-0.1197 8.2063,-1.5408 8.5719,-4.0217 0.8359,-5.6712 -1.3627,-23.0769 -3.8291,-35.24 1.0382,-9.7899 2.0766,-19.5798 3.115,-29.3697 18.1587,-3.9899 30.5957,-14.7665 34.1976,-16.8594 2.7578,-1.6022 11.0905,0.7295 11.9287,4.6778 0.2565,1.2086 -1.3386,3.0555 -2.5506,4.369 -5.1726,5.6055 -12.6138,13.6465 -21.7709,16.7125 0.1235,0.5828 0.4235,1.0485 0.8999,1.3969 -0.6122,0.4098 -1.3351,0.709 -2.2999,0.7667 0.5578,0.8312 1.4096,1.4272 2.5555,1.7888 -0.3785,0.5143 -0.8011,0.999 -1.5333,1.2777 0.6305,0.6467 1.5706,0.9842 2.5555,1.2778 -1.1926,0.0851 -2.3853,0.1702 -3.5777,0.2555 -0.6354,-1.1557 -1.3999,-2.0969 -3.0666,-1.5333 -0.937,-0.4259 -1.8741,-0.8519 -2.811,-1.2777 -5.5057,4.8274 -9.7526,9.9069 -13.544,15.0773 3.6833,1.1992 7.4736,1.5414 11.4996,0 3.5751,3.95 7.9941,-4.3194 11.3673,-5.6167 3.3732,-1.2974 6.01,-1.709 8.5655,-2.0497 6.8962,-11.4467 14.3107,-18.2292 21.466,-27.3436 5.9565,-0.1349 8.9655,-2.5152 7.6664,-8.1776 2.5109,-3.5991 1.5665,-5.3844 -1.796,-5.874 -1.8741,-1.5333 -3.7481,-3.5848 -5.622,-5.1181 6.9921,-4.1756 13.4152,-11.3127 19.2855,-15.6316 3.5223,-2.5912 6.9811,-3.1999 8.1877,-3.5309 3.2181,-0.8834 6.3939,22.3163 1.922,29.1324 0.4257,0.2556 0.8517,0.5111 1.2777,0.7667 -0.3409,1.2777 -0.6815,2.5555 -1.0222,3.8332 1.1073,-0.0853 2.2146,-0.1704 3.3221,-0.2555 -0.3408,0.5962 -0.6815,1.1924 -1.0222,1.7888 0.5111,0.2555 1.0222,0.5111 1.5333,0.7666 -0.7666,0.8518 -1.5333,1.7036 -2.2999,2.5555 -2.0052,-0.0665 -3.1125,1.0407 -3.3221,3.3221 -0.426,0.7667 -0.852,1.5333 -1.2778,2.3 2.2118,7.0419 5.4477,12.351 9.4553,16.355 2.6726,-3.1355 4.1366,-7.1013 4.5999,-11.7552 0.8691,-0.6967 0.8843,-1.5832 0.5111,-2.5554 -2.3084,-6.4162 -1.3921,-10.3316 3.0665,-11.4997 -1.6186,-11.8403 -5.7623,-20.3135 -4.8554,-35.5212 4.4796,-8.231 -3.7074,-18.1105 -8.4331,-16.6106 -8.0673,6.6465 -19.7625,5.3895 -29.6435,10.2219 1.5062,-8.7828 1.6346,-16.0042 -2.0444,-18.9105 0.4736,-3.4193 -2.508,-5.9746 -8.9442,-7.6665 3.8474,-8.7713 6.6584,-17.7154 8.4331,-26.8325 0.9369,0.426 1.874,0.852 2.811,1.2778 -0.5964,7.7517 5.0264,14.4668 -1.7888,23.2548 1.1073,0.7667 2.2146,1.5333 3.3221,2.2999 0.3215,3.6112 2.025,4.804 5.111,3.5777 3.9051,2.7937 7.0975,1.5482 9.9663,-1.5333 4.3159,0.4219 5.543,-2.4829 5.3666,-6.8998 1.3749,-1.701 1.8858,-3.5748 1.5332,-5.622 4.4882,-5.768 7.5512,-11.7741 9.9664,-17.8884 4.8083,-1.5969 6.8527,-4.7484 6.1332,-9.4552 0.5111,-1.874 1.0222,-3.748 1.5332,-5.6221 1.5441,-4.3443 2.138,-8.6884 2.3,-13.0329 1.2433,-2.7258 2.1843,-5.4513 2.0444,-8.1776 -1.9617,0.0804 -3.7506,0.5066 -5.3665,1.2778 -2.2512,-2.203 -4.9191,-4.0924 -8.4951,-5.3018 l 21.9798,-24.4137 0,277.6407 -0.0676,3.5699 -0.1987,3.3261 -0.3252,3.1059 -0.4473,2.8931 -0.5644,2.6875 -0.676,2.49 -0.7833,2.3007 -0.8849,2.1201 -0.983,1.9483 -1.0764,1.7875 -1.1672,1.6367 -1.2553,1.496 -1.3427,1.3651 -1.4286,1.2437 z" />
  </g>
</svg>
