<?xml version="1.0" encoding="UTF-8" standalone="no"?>
<svg
   xmlns:dc="http://purl.org/dc/elements/1.1/"
   xmlns:cc="http://creativecommons.org/ns#"
   xmlns:rdf="http://www.w3.org/1999/02/22-rdf-syntax-ns#"
   xmlns:svg="http://www.w3.org/2000/svg"
   xmlns="http://www.w3.org/2000/svg"
   viewBox="0 0 595.27557 841.88977"
   id="svg2"
   height="100"
   width="150"
   version="1.1">
  <metadata
     id="metadata66">
    <rdf:RDF>
      <cc:Work
         rdf:about="">
        <dc:format>image/svg+xml</dc:format>
        <dc:type
           rdf:resource="http://purl.org/dc/dcmitype/StillImage" />
      </cc:Work>
    </rdf:RDF>
  </metadata>
  <defs
     id="defs64" />
  <g
     id="g4">
    <path
       id="path6"
       style="fill:#000200;fill-rule:evenodd"
       d="m 223.037,468.9672 -0.002,5.237 -0.002,5.2361 -0.001,5.2331 -0.001,5.2313 -8e-4,5.2294 -6e-4,4.5312 -10.006,12.509 8.8265,8.8268 8.8265,8.8265 13.5116,-10.8082 0.2342,0.2026 0.5116,0.4343 0.5168,0.4292 0.5199,0.4238 0.5249,0.4201 0.5312,0.4169 0.5361,0.4111 0.5388,0.4059 0.5443,0.4016 0.5485,0.3977 0.5542,0.3926 0.3004,0.209 -6.4703,14.7696 10.8105,6.2413 10.8102,6.2413 11.5027,-15.6344 0.3523,0.079 0.4142,0.0899 0.4141,0.0882 0.4144,0.085 0.4162,0.0845 0.4178,0.081 0.4175,0.08 0.4187,0.0771 0.4198,0.0757 0.184,0.0317 1.9851,17.8543 c 12.8228,0 12.1422,0 24.9653,0 l 1.9987,-17.9756 0.1692,-0.0309 0.4127,-0.0777 0.4116,-0.0793 0.4094,-0.0814 0.411,-0.0833 0.4093,-0.0862 0.4071,-0.0873 0.4065,-0.0899 0.4076,-0.0915 0.3152,-0.0735 11.5985,15.7646 10.8102,-6.2413 10.8105,-6.2413 -6.6232,-15.1192 0.2793,-0.1972 0.5408,-0.3898 0.5355,-0.3949 0.5306,-0.3977 0.5267,-0.4031 0.523,-0.4076 0.5176,-0.4127 0.5128,-0.4159 0.5082,-0.4206 0.5038,-0.4246 0.4989,-0.4295 0.1972,-0.1729 13.851,11.0795 8.8265,-8.8265 8.8265,-8.8268 -9.9635,-12.4557 -6e-4,-4.5369 -0.001,-5.2345 -0.002,-5.2358 -0.002,-5.2368 -0.003,-5.2387 -0.003,-5.2392 -0.004,-5.2404 -0.004,-5.2416 -0.005,-5.2432 -0.005,-5.2433 -0.005,-5.2446 -0.005,-5.245 -0.006,-5.2466 -0.006,-5.2467 -0.006,-5.2472 -0.006,-5.2478 -0.006,-5.2483 -0.006,-5.2489 -0.006,-5.2492 -0.0113,-10.4993 -0.0102,-10.5003 -0.004,-5.2507 -0.005,-5.2503 -0.004,-5.25 -0.003,-5.2498 -0.002,-5.2501 -0.003,-5.2494 -0.002,-5.2498 -0.001,-5.2486 0,-4.502 14.6934,-16.7533 0,-24.2643 -26.6417,-6.387 -16.6652,15.2101 -86.6211,0 -16.6652,-15.2101 -26.6417,6.387 0,24.2643 14.6934,16.7533 0,4.4949 -8e-4,5.2432 -9e-4,5.2444 -0.002,5.2452 -0.002,5.2467 -0.002,5.2472 -0.002,5.2481 -0.003,5.2486 -0.003,5.25 -0.003,5.2492 -0.003,5.2504 -0.004,5.2497 -0.003,5.2504 -0.004,5.25 -0.004,5.2495 -0.004,5.2492 -0.003,5.2486 -0.004,5.2484 -0.003,5.2472 -0.004,5.2469 -0.003,5.2455 -0.004,5.2447 -0.003,5.2435 -0.003,5.2427 -0.003,5.2401 -0.003,5.2393 z" />
    <path
       id="path8"
       style="fill:#f4aa20;fill-rule:evenodd"
       d="m 295.0381,303.0934 -44.0798,0 -16.4563,-15.0197 -24.097,5.777 0,21.9526 14.6934,16.7534 c 0,55.9048 -0.0854,112.0668 -0.0854,167.8047 l -9.3313,11.6655 7.5707,7.571 7.5708,7.5708 13.4289,-10.7419 c 2.5568,2.325 5.3248,4.4728 8.2757,6.4222 l -6.4196,14.6542 9.2724,5.3536 9.2721,5.3532 11.2258,-15.2578 c 2.1265,0.5168 4.2948,0.9476 6.4981,1.2892 l 1.9548,17.5828 c 7.4849,0 13.9286,0 21.4135,0 l 1.9667,-17.6911 c 2.1651,-0.3543 4.2947,-0.7954 6.3847,-1.3189 l 11.3273,15.3958 9.2721,-5.3532 9.2724,-5.3536 -6.5667,-14.9904 c 2.8791,-1.9375 5.5794,-4.066 8.0756,-6.3638 l 13.7761,11.0197 7.5707,-7.5708 7.5708,-7.571 -9.2888,-11.6122 c 0,-55.8053 -0.1279,-111.8741 -0.1279,-167.858 l 14.6934,-16.7534 0,-21.9526 -24.097,-5.777 -16.4563,15.0197 -44.0799,0 z" />
    <path
       id="path10"
       style="fill:none"
       d="m 286.4245,315.3039 c -2.4469,-2.2621 -3.5288,-4.5244 -3.2459,-6.787 -0.2829,2.2626 0.799,4.5249 3.2459,6.787 -31.4365,32.7807 -48.6048,70.0857 -52.7445,111.5212 4.1397,-41.4355 21.308,-78.7405 52.7445,-111.5212 z" />
    <path
       id="path12"
       style="fill:#372920;fill-rule:evenodd"
       d="m 283.1786,308.5169 c -0.2829,2.2626 0.799,4.5249 3.2459,6.787 -31.4365,32.7807 -48.6048,70.0857 -52.7445,111.5212 8.6816,-22.2931 29.9228,-38.6184 55.3583,-40.8563 1.9761,-0.1741 3.977,-0.2637 5.9998,-0.2637 4.997,0 9.8635,0.5451 14.5404,1.5718 19.6355,4.3113 35.9282,17.1644 44.4999,34.3157 -5.5108,-17.303 -12.505,-30.1575 -21.6204,-36.6483 -3.5538,-2.9591 -5.8294,-7.5194 -6.1585,-11.2158 0.8271,-8.3577 -0.5378,-9.3544 -2.399,-7.9648 -3.9447,1.7807 -7.1135,-0.7107 -10.328,-2.9509 -6.9069,-2.8658 -16.3055,-4.0544 -26.2199,-0.2582 -1.2858,0.4921 -2.5804,1.0667 -3.879,1.7337 -3.4752,1.792 -4.9028,-0.0239 -4.7213,-4.1313 -0.1775,-11.9738 2.7997,-20.7929 6.336,-29.0531 0.1496,-0.3492 0.2996,-0.6982 0.4509,-1.0457 0.6974,-2.3403 3.1009,-2.7791 5.0165,0 2.5597,2.2513 3.7976,2.99 6.3508,2.5095 0.837,-1.817 -0.1225,-4.3342 -1.9245,-6.3456 0.1395,-7.4568 -2.4137,-10.2138 -5.0165,-10.6231 3.1785,-2.1637 3.6746,-4.3277 2.9509,-6.4919 -1.2801,1.8663 -2.658,3.5367 -4.7214,3.8361 -1.7886,-1.1481 -3.2785,-2.5946 -4.7095,-4.1012 l -0.3069,-0.3251 z" />
    <path
       id="path14"
       style="fill:none"
       d="m 231.1985,434.719 0.6358,-0.1667 -0.7302,0.5497 c 0.0301,-0.1282 0.0635,-0.2552 0.0944,-0.383 z" />
    <path
       id="path16"
       style="fill:#006eb5;fill-rule:evenodd"
       d="m 235.2047,475.2567 c 10.2558,22.1264 33.1878,37.5426 59.8334,37.5426 26.2792,0 48.9459,-14.995 59.4029,-36.6335 -1.4837,-0.218 -2.967,-0.9837 -4.4507,-2.5498 -5.7742,4.282 -11.9761,4.2823 -18.6066,0 -6.5378,5.7821 -13.0748,4.4977 -19.6121,0 -6.5316,4.4972 -13.0629,5.7824 -19.5936,0 -5.6744,5.1386 -11.348,5.1386 -17.0218,0 -6.6379,3.869 -13.2755,6.4485 -19.9122,0 -6.6802,4.5159 -13.3594,5.0621 -20.0393,1.6407 z" />
    <path
       id="path18"
       style="fill:#f6f6f8;fill-rule:evenodd"
       d="m 231.7561,465.9253 c 0.123,0.4397 0.2509,0.8773 0.3832,1.313 0.6322,2.0792 1.3717,4.1142 2.2125,6.0985 0.2732,0.6454 0.5587,1.2849 0.8529,1.9199 6.6799,3.4214 13.3591,2.8752 20.0393,-1.6407 6.6367,6.4485 13.2743,3.869 19.9122,0 5.6738,5.1386 11.3474,5.1386 17.0218,0 6.5307,5.7824 13.062,4.4972 19.5936,0 6.5373,4.4977 13.0743,5.7821 19.6121,0 6.6305,4.2823 12.8324,4.282 18.6066,0 1.4837,1.5661 2.967,2.3318 4.4507,2.5498 0.4082,-0.845 0.7991,-1.6997 1.1701,-2.5643 0.8524,-1.9865 1.6039,-4.0237 2.247,-6.1064 0.7487,-2.4241 1.3527,-4.9079 1.8009,-7.4437 -8.803,-5.9877 -23.4652,-10.8593 -40.182,-15.3403 -15.7606,-5.2724 -23.2446,-0.7653 -29.5472,5.1387 -9.4212,6.853 -18.8419,9.9578 -28.2625,4.8174 -6.9375,-3.6819 -16.3367,-1.5128 -20.2334,5.1387 -3.8194,2.4939 -6.6731,4.5334 -9.6778,6.1194 z" />
    <path
       id="path20"
       style="fill:#279142;fill-rule:evenodd"
       d="m 231.8343,434.5523 -0.7302,0.5497 c -0.045,0.1919 -0.0884,0.3835 -0.1315,0.5762 -0.2217,0.9902 -0.4192,1.99 -0.5933,2.9965 -0.5958,3.4402 -0.9102,6.9736 -0.9102,10.5775 0,5.7702 0.7991,11.3584 2.287,16.6731 3.0047,-1.586 5.8584,-3.6255 9.6778,-6.1194 3.8967,-6.6515 13.2959,-8.8206 20.2334,-5.1387 9.4206,5.1404 18.8413,2.0356 28.2625,-4.8174 6.3026,-5.904 13.7866,-10.4111 29.5472,-5.1387 16.7168,4.481 31.379,9.3526 40.182,15.3403 0.6205,-3.5105 0.9482,-7.1175 0.9482,-10.7992 0,-2.2209 -0.1191,-4.4161 -0.3492,-6.5781 l -47.448,-19.7699 -0.0774,-0.0323 -33.7224,12.8466 0.3212,-6.4233 -23.7663,-0.9635 -23.7308,6.2206 z" />
    <path
       id="path22"
       style="fill:#f6f6f8;fill-rule:evenodd"
       d="m 231.8343,434.5523 24.052,-18.1037 26.6567,7.7079 22.1604,-10.5984 52.5824,15.6875 c 0.222,0.6485 0.432,1.3022 0.633,1.9598 1.1169,3.6579 1.9038,7.452 2.3267,11.3522 l 0.0125,0.1165 -47.448,-19.7699 -0.0774,-0.0323 -33.7224,12.8466 0.3212,-6.4233 -23.7663,-0.9635 -23.7308,6.2206 z" />
    <path
       id="path24"
       style="fill:#0095d3;fill-rule:evenodd"
       d="m 295.0381,385.7051 c -31.047,0 -57.0557,20.9257 -63.8396,49.0139 l 0.6358,-0.1667 23.7308,-6.2206 23.7663,0.9635 -0.3212,6.4233 33.7224,-12.8466 -33.7224,12.8466 0.3212,-6.4233 -23.7663,-0.9635 -23.7308,6.2206 24.052,-18.1037 26.6567,7.7079 22.1604,-10.5984 52.5824,15.6875 c -8.6522,-25.2907 -33.2532,-43.5405 -62.2477,-43.5405 z" />
    <path
       id="path26"
       style="fill:#f9f7f6;fill-rule:evenodd"
       d="m 229.9173,397.3706 0,41.483 0.4314,0 c 0.707,-4.1601 1.8334,-8.1822 3.3313,-12.0285 0.5332,-5.3374 1.2849,-10.6053 2.2532,-15.8046 l -6.0159,-13.6499 z" />
    <path
       id="path28"
       style="fill:#f9f7f6;fill-rule:evenodd"
       d="m 286.2567,328.7713 c -0.3101,0.3203 -0.5587,0.7537 -0.7175,1.2869 -0.1513,0.3475 -0.3013,0.6965 -0.4509,1.0457 -3.5363,8.2602 -6.5135,17.0793 -6.336,29.0531 -0.1815,4.1074 1.2461,5.9233 4.7213,4.1313 1.2986,-0.667 2.5932,-1.2416 3.879,-1.7337 0.4201,-0.161 0.8399,-0.3124 1.258,-0.4555 l -2.3539,-33.3278 z" />
    <path
       id="path30"
       style="fill:none"
       d="m 285.3828,316.3995 0.229,-0.241 c 0.2702,-0.2851 0.54,-0.5703 0.8127,-0.8546 -0.3373,-0.3121 -0.6483,-0.6234 -0.9337,-0.9352 -0.0939,-0.1026 -0.1848,-0.2055 -0.273,-0.3078 l 0.165,2.3386 z" />
    <path
       id="path32"
       style="fill:#fdde00;fill-rule:evenodd"
       d="m 229.9173,380.5654 0,16.5804 0,0.2248 6.0159,13.6499 0.0199,-0.1043 c 0.5921,-3.1694 1.2668,-6.3119 2.0225,-9.4292 l -8.0583,-20.9216 z" />
    <path
       id="path34"
       style="fill:#f9f7f6;fill-rule:evenodd"
       d="m 229.9173,346.4751 0,33.6594 0,0.4309 8.0583,20.9216 0.0408,-0.1695 c 1.8281,-7.5095 4.1318,-14.8686 6.9199,-22.0737 l -15.019,-32.7687 z" />
    <path
       id="path36"
       style="fill:#fdde00;fill-rule:evenodd"
       d="m 218.304,296.9124 -3.0801,0.7384 0,16.3386 14.6934,16.7534 0,15.2149 0,0.5174 15.019,32.7687 0.0584,-0.1502 c 1.6387,-4.2233 3.443,-8.3945 5.4159,-12.5118 L 218.304,296.9124 Z" />
    <path
       id="path38"
       style="fill:#f9f7f6;fill-rule:evenodd"
       d="m 248.3464,307.2339 -15.2056,-13.8784 -14.5947,3.4988 -0.2421,0.0581 32.1066,69.6694 0.0522,-0.108 c 3.0075,-6.2649 6.4029,-12.4076 10.1953,-18.4238 l -12.3117,-40.8161 z" />
    <path
       id="path40"
       style="fill:#fdde00;fill-rule:evenodd"
       d="m 262.0054,307.9123 -12.9157,0 -0.3807,-0.3473 -0.3626,-0.3311 12.3117,40.8161 0.1066,-0.1687 c 2.1665,-3.429 4.4603,-6.8184 6.8854,-10.1656 l -5.6447,-29.8034 z" />
    <path
       id="path42"
       style="fill:#f9f7f6;fill-rule:evenodd"
       d="m 284.7832,307.9123 -22.5158,0 -0.262,0 5.6447,29.8034 0.1369,-0.1879 c 5.2554,-7.236 11.1152,-14.2807 17.5958,-21.1283 l -0.165,-2.3386 c -1.5902,-1.8476 -2.2703,-3.6958 -2.0392,-5.544 l 0.3069,0.3251 c 0.4797,0.5049 0.9669,1.0043 1.4687,1.4868 l -0.171,-2.4165 z" />
    <path
       id="path44"
       style="fill:#fdde00;fill-rule:evenodd"
       d="m 301.3812,307.9123 -16.3272,0 -0.2708,0 0.171,2.4165 0.2812,0.267 c 0.9133,0.8564 1.8819,1.6554 2.9596,2.3474 2.0634,-0.2994 3.4413,-1.9698 4.7214,-3.8361 0.7237,2.1642 0.2276,4.3282 -2.9509,6.4919 2.6028,0.4093 5.156,3.1663 5.0165,10.6231 1.802,2.0114 2.7615,4.5286 1.9245,6.3456 -2.5532,0.4805 -3.7911,-0.2582 -6.3508,-2.5095 -1.3904,-2.0171 -3.0373,-2.338 -4.1026,-1.4681 -0.068,0.0556 -0.1335,0.116 -0.1964,0.1812 l 2.3539,33.3278 0.1077,-0.0369 c 3.1601,-1.0712 6.2583,-1.6464 9.229,-1.834 l 3.4339,-52.3159 z" />
    <path
       id="path46"
       style="fill:#f9f7f6;fill-rule:evenodd"
       d="m 327.6133,307.9123 -25.9565,0 -0.2756,0 -3.4339,52.3159 0.1151,-0.007 c 4.2483,-0.2548 8.2333,0.2803 11.7655,1.2881 l 17.7854,-53.5969 z" />
    <path
       id="path48"
       style="fill:#fdde00;fill-rule:evenodd"
       d="m 342.0465,306.9448 -1.0599,0.9675 -13.104,0 -0.2693,0 -17.7854,53.5969 0.0709,0.0207 c 1.2886,0.3704 2.5157,0.8024 3.6737,1.2829 1.6514,1.1509 3.2913,2.3684 5.0298,3.0385 l 23.4442,-58.9065 z" />
    <path
       id="path50"
       style="fill:#f9f7f6;fill-rule:evenodd"
       d="m 374.8524,301.1292 0,-3.4784 -17.9169,-4.2953 -14.4803,13.2162 -0.4087,0.3731 -23.4442,58.9065 0.0887,0.0334 c 1.6194,0.6055 3.3259,0.7294 5.2095,-0.121 1.8612,-1.3896 3.2261,-0.3929 2.399,7.9648 0.1706,1.9165 0.8651,4.0657 1.9893,6.103 l 46.5636,-78.7023 z" />
    <path
       id="path52"
       style="fill:#fdde00;fill-rule:evenodd"
       d="m 360.159,350.1573 0,-19.4145 14.6934,-16.7534 0,-12.4143 0,-0.4459 -46.5636,78.7023 0.0306,0.0552 c 1.0406,1.872 2.4441,3.6468 4.1386,5.0576 1.1741,0.8362 2.3142,1.7785 3.4194,2.8222 l 24.2816,-37.6092 z" />
    <path
       id="path54"
       style="fill:#f9f7f6;fill-rule:evenodd"
       d="m 360.159,378.6568 0,-28.1393 0,-0.3602 -24.2816,37.6092 0.0548,0.0519 c 2.9435,2.7904 5.6457,6.3017 8.1345,10.4556 l 16.0923,-19.6172 z" />
    <path
       id="path56"
       style="fill:#fdde00;fill-rule:evenodd"
       d="m 360.159,395.1077 0,-16.1808 0,-0.2701 -16.0923,19.6172 0.0426,0.0711 c 1.3118,2.196 2.5636,4.5697 3.7598,7.1121 l 12.2899,-10.3495 z" />
    <path
       id="path58"
       style="fill:#f9f7f6;fill-rule:evenodd"
       d="m 360.159,438.8536 0,-43.5549 0,-0.191 -12.2899,10.3495 0.0352,0.0754 c 2.2473,4.7869 4.2965,10.1645 6.1741,16.06 2.6864,5.3756 4.6151,11.1719 5.65,17.261 l 0.4306,0 z" />
    <path
       id="path60"
       style="fill:#ffffff;fill-rule:evenodd"
       d="m 245.1461,496.0446 2.5651,1.796 -3.7871,5.4085 c 0.6134,0.3455 1.1047,0.4691 1.4717,0.3733 0.3668,-0.0958 1.1424,-0.536 2.3185,-1.3218 1.4958,-1.0029 2.6303,-1.4828 3.3999,-1.4422 0.7684,0.0357 1.7424,0.4705 2.9259,1.2994 0.0592,0.0413 0.1857,0.1253 0.379,0.252 l -1.3278,1.8963 -0.3577,-0.2636 c -0.5236,-0.3665 -0.9539,-0.5709 -1.2875,-0.6103 -0.3339,-0.0399 -0.671,0.0196 -1.0054,0.1823 -0.3374,0.1607 -0.9403,0.5496 -1.8162,1.171 -0.4635,0.3277 -0.8889,0.5765 -1.2764,0.7461 -0.3887,0.1647 -0.906,0.2168 -1.5497,0.1539 0.4572,0.5629 0.7027,1.2194 0.7316,1.9718 0.0289,0.752 -0.0499,1.7333 -0.2316,2.9375 l -0.7067,4.699 -3.0149,-2.111 0.7818,-4.3466 c 0.01,-0.0641 0.0244,-0.186 0.0408,-0.3731 0.006,-0.0657 0.0357,-0.3407 0.0986,-0.8211 0.1089,-0.8541 0.11,-1.4355 0.01,-1.7391 -0.1004,-0.3039 -0.3671,-0.6097 -0.7977,-0.9204 l -3.8968,5.5652 -2.5651,-1.796 8.8977,-12.7071 z m 10.2396,7.4608 2.8826,1.2237 -2.4231,5.7084 3.8565,1.637 c 1.014,0.4303 1.8272,0.9366 2.4415,1.5228 0.6143,0.5867 1.0123,1.3399 1.1959,2.2578 0.1866,0.9189 0.0837,1.8362 -0.3089,2.7606 -0.4105,0.9675 -1.016,1.6914 -1.821,2.1736 -0.8019,0.4836 -1.5599,0.7073 -2.2776,0.6696 -0.7158,-0.0332 -1.6713,-0.3053 -2.8681,-0.8136 l -6.7391,-2.8604 6.0613,-14.2795 z m -2.1611,13.1059 2.8159,1.1954 c 0.8941,0.3796 1.5375,0.6018 1.9301,0.6662 0.3906,0.0598 0.7909,-0.005 1.1982,-0.1976 0.4085,-0.1956 0.7058,-0.5165 0.8963,-0.9652 0.271,-0.6387 0.25,-1.2084 -0.0669,-1.7195 -0.3166,-0.5111 -1.0615,-1.0117 -2.2382,-1.5115 l -2.9324,-1.2446 -1.603,3.7768 z m 15.7388,-7.3423 2.8825,1.2235 -6.0613,14.2795 -2.8826,-1.2237 6.0614,-14.2793 z m 4.7741,2.0501 3.1011,0.4359 -1.7966,12.7829 4.4458,0.6247 1.7966,-12.7828 3.0904,0.4342 -1.7966,12.7829 4.5887,0.6449 1.7963,-12.7829 3.0903,0.4343 -2.139,15.3754 -18.3359,-2.5877 2.1589,-15.3618 z m 25.5362,17.6867 -0.6747,-12.869 -4.5949,0.2407 -0.1372,-2.6221 12.3097,-0.6451 0.1375,2.622 -4.5842,0.2404 0.6744,12.8693 -3.1306,0.1638 z m 8.6717,-16.0154 3.0249,-0.8105 1.6049,5.9899 4.0471,-1.0842 c 1.0638,-0.2852 2.0165,-0.387 2.8615,-0.303 0.8451,0.0839 1.6226,0.4325 2.3321,1.0425 0.7129,0.6095 1.1965,1.3958 1.4564,2.3658 0.2722,1.0151 0.2407,1.9585 -0.0969,2.8338 -0.3339,0.8748 -0.7934,1.5177 -1.3825,1.9299 -0.5845,0.4147 -1.5049,0.7883 -2.7609,1.125 l -7.0716,1.8947 -4.015,-14.9839 z m 6.3658,11.658 2.9548,-0.7917 c 0.9386,-0.2514 1.5823,-0.4725 1.9313,-0.6633 0.3447,-0.1933 0.6199,-0.4913 0.8226,-0.8935 0.2015,-0.4053 0.2381,-0.8413 0.1119,-1.3124 -0.1794,-0.6699 -0.547,-1.1061 -1.1111,-1.3139 -0.5644,-0.2078 -1.4596,-0.1437 -2.6944,0.1874 l -3.077,0.8243 1.0619,3.9631 z m 7.882,-15.4757 3.0248,-0.8105 4.015,14.984 -3.0248,0.8104 -4.015,-14.9839 z m 12.3386,11.5764 -7.2827,-13.6968 4.1394,-2.2011 7.4523,8.0229 -2.5126,-10.6494 4.149,-2.206 7.2828,13.6968 -2.5673,1.3651 -5.7328,-10.7821 3.0126,12.2284 -2.6628,1.4159 -8.4436,-9.3408 5.7331,10.7819 -2.5674,1.3652 z" />
  </g>
</svg>
