<?xml version="1.0" encoding="UTF-8" standalone="no"?>
<svg
   xmlns:dc="http://purl.org/dc/elements/1.1/"
   xmlns:cc="http://creativecommons.org/ns#"
   xmlns:rdf="http://www.w3.org/1999/02/22-rdf-syntax-ns#"
   xmlns:svg="http://www.w3.org/2000/svg"
   xmlns="http://www.w3.org/2000/svg"
   xmlns:xlink="http://www.w3.org/1999/xlink"
   viewBox="0 0 595.27557 841.88977"
   id="svg2"
   height="100"
   width="150"
   version="1.1">
  <metadata
     id="metadata92">
    <rdf:RDF>
      <cc:Work
         rdf:about="">
        <dc:format>image/svg+xml</dc:format>
        <dc:type
           rdf:resource="http://purl.org/dc/dcmitype/StillImage" />
      </cc:Work>
    </rdf:RDF>
  </metadata>
  <defs
     id="defs90" />
  <g
     id="g4">
    <path
       id="path6"
       style="fill:#ffffff;fill-rule:evenodd;stroke:#1b1918;stroke-width:1.94239998;stroke-linecap:butt;stroke-linejoin:miter;stroke-dasharray:none"
       d="m 172.0185,228.9038 292.8185,0 c 0,117.1274 0,234.2548 0,351.3822 0,23.3343 -8.6392,29.683 -27.2763,29.683 -20.8583,0 -41.7166,0 -62.5749,0 -18.719,0 -57.4941,9.6269 -55.3547,32.8919 -4.0112,-24.0672 -36.1009,-32.8919 -53.7503,-32.8919 -22.9976,0 -45.9952,0 -68.9929,0 -17.0582,0 -24.8694,-8.6136 -24.8694,-24.8695 l 0,-356.1957 z" />
    <path
       id="path8"
       style="fill:#004392;fill-rule:evenodd"
       d="m 317.2244,617.2237 -1.041,-0.958 -2.1125,-1.7457 -2.1795,-1.625 -2.2367,-1.5106 -2.2851,-1.4016 -2.3249,-1.2982 -2.3568,-1.1993 -2.3812,-1.1057 -2.3999,-1.0161 -2.411,-0.9301 -2.4157,-0.8476 -2.4139,-0.7685 -2.4066,-0.692 -2.3925,-0.6181 -2.3723,-0.5464 -2.3464,-0.4773 -2.3152,-0.4096 -2.2784,-0.344 -2.2363,-0.2796 -2.1892,-0.2166 -2.1388,-0.1544 -2.0846,-0.0927 -1.9406,-0.0298 -68.9889,0 -1.2985,-0.0209 -1.1358,-0.0565 -1.0583,-0.0908 -0.9802,-0.1219 -0.9028,-0.1499 -0.8263,-0.1739 -0.7507,-0.1944 -0.6777,-0.2109 -0.6083,-0.2239 -0.5438,-0.2338 -0.4843,-0.2411 -0.4306,-0.2464 -0.3846,-0.2519 -0.3468,-0.2587 -0.3158,-0.2677 -0.2912,-0.28 -0.2739,-0.2989 -0.2624,-0.3249 -0.2533,-0.3566 -0.2468,-0.3957 -0.2411,-0.4423 -0.2347,-0.4948 -0.2261,-0.5521 -0.2152,-0.6136 -0.2013,-0.6793 -0.1842,-0.7471 -0.1636,-0.8158 -0.1399,-0.8854 -0.1131,-0.9548 -0.0836,-1.0241 -0.0518,-1.0925 -0.019,-1.241 0,-308.9982 134.1937,0 0,341.2067 z" />
    <path
       id="path10"
       style="fill:#e30016;fill-rule:evenodd"
       d="m 447.4249,597.7864 -0.7142,0.2195 -0.8092,0.2054 -0.9069,0.1871 -1.0041,0.1646 -1.1005,0.1386 -1.1957,0.1101 -1.289,0.0799 -1.3802,0.0483 -1.5253,0.0169 -62.6,0 -2.0569,0.0321 -2.2231,0.099 -2.2965,0.1634 -2.3644,0.2278 -2.4271,0.2921 -2.4832,0.3576 -2.5315,0.4238 -2.5715,0.4917 -2.6033,0.5604 -2.6269,0.6315 -2.6417,0.7044 -2.6475,0.7798 -2.6451,0.8578 -2.6339,0.9391 -2.6141,1.0242 -2.5854,1.1138 -2.5487,1.2083 -2.5033,1.31 -2.449,1.4188 -2.3844,1.5368 -2.3094,1.6652 -1.5173,1.2335 0,-340.0109 132.5891,0 0,304.2036 -0.023,1.9324 -0.0652,1.746 -0.1062,1.6216 -0.1444,1.4961 -0.1795,1.3708 -0.2105,1.2458 -0.237,1.1215 -0.2579,0.9984 -0.2732,0.878 -0.2825,0.7633 -0.2859,0.6554 -0.2839,0.556 -0.2787,0.4682 -0.2732,0.3953 -0.2694,0.3365 -0.271,0.2924 -0.2832,0.2641 -0.3078,0.2479 -0.3455,0.2399 -0.3971,0.237 -0.4618,0.2358 -0.5388,0.2342 -0.6241,0.2292 z" />
    <path
       id="path12"
       style="fill:#ffffff;fill-rule:evenodd;stroke:#1b1918;stroke-width:1.94239998;stroke-linecap:butt;stroke-linejoin:miter;stroke-dasharray:none"
       d="m 236.1979,292.281 82.6309,12.8359 82.631,-13.6382 C 388.7587,657.7672 248.3665,647.8913 236.1979,292.281 Z" />
    <path
       id="path14"
       style="fill:none;stroke:#1b1918;stroke-width:1.94239998;stroke-linecap:butt;stroke-linejoin:miter;stroke-dasharray:none"
       d="m 318.8288,396.5725 0,165.2639" />
    <path
       id="path16"
       style="fill:none;stroke:#1b1918;stroke-width:1.51419997;stroke-linecap:butt;stroke-linejoin:miter;stroke-dasharray:none"
       d="m 252.2427,295.4899 c 11.4988,339.0812 129.6958,301.9107 133.1723,-0.8022" />
    <defs
       id="defs18">
      <linearGradient
         id="grad1">
        <stop
           id="stop21"
           stop-opacity="1"
           stop-color="#868789"
           offset="0%" />
        <stop
           id="stop23"
           stop-opacity="1"
           stop-color="#ffffff"
           offset="100%" />
      </linearGradient>
      <linearGradient
         gradientUnits="objectBoundingBox"
         gradientTransform="matrix(-0.8660254,0.5,-0.5,-0.8660254,1.1830127,0.6830127)"
         y2="1"
         x2="0"
         y1="0"
         x1="0"
         id="grad2"
         xlink:href="#grad1" />
    </defs>
    <path
       id="path26"
       style="fill:url(#grad2);stroke:#1b1918;stroke-width:1.94239998;stroke-linecap:butt;stroke-linejoin:miter;stroke-dasharray:none"
       d="m 319.2296,333.0052 a 11.8227,11.8227 0 0 1 11.8227,11.8227 11.8227,11.8227 0 1 1 -11.8227,-11.8227 z" />
    <defs
       id="defs28">
      <linearGradient
         id="grad3">
        <stop
           id="stop31"
           stop-opacity="1"
           stop-color="#1b1918"
           offset="0%" />
        <stop
           id="stop33"
           stop-opacity="1"
           stop-color="#ffffff"
           offset="100%" />
      </linearGradient>
      <linearGradient
         gradientUnits="objectBoundingBox"
         gradientTransform="matrix(-1,0,0,-1,1,1)"
         y2="1"
         x2="0"
         y1="0"
         x1="0"
         id="grad4"
         xlink:href="#grad3" />
    </defs>
    <path
       id="path36"
       style="fill:url(#grad4);stroke:#1b1918;stroke-width:0.97119999;stroke-linecap:butt;stroke-linejoin:miter;stroke-dasharray:none"
       d="m 319.203,463.0129 c 1.2064,0 2.4006,0.0532 3.5822,0.1524 4.5543,18.1851 13.2547,16.5942 23.8587,9.9102 1.834,1.5498 3.5354,3.2516 5.0859,5.0851 -9.6202,16.0709 -2.3204,21.0874 9.9183,23.8558 0.0998,1.1846 0.151,2.3828 0.151,3.5925 0,1.2066 -0.0535,2.4007 -0.1528,3.5823 -18.1848,4.5543 -16.5943,13.2547 -9.9102,23.8586 -1.5498,1.834 -3.2519,3.5354 -5.0853,5.0858 -16.0706,-9.62 -21.0872,-2.3202 -23.8555,9.9185 -1.1846,0.0997 -2.3826,0.1509 -3.5923,0.1509 -1.2065,0 -2.4007,-0.0535 -3.5823,-0.1527 -4.5543,-18.1848 -13.2546,-16.5942 -23.8585,-9.9103 -1.834,-1.5498 -3.5353,-3.2518 -5.0858,-5.0852 9.6199,-16.0706 2.3201,-21.0873 -9.9186,-23.8555 -0.0997,-1.1846 -0.1509,-2.3827 -0.1509,-3.5924 0,-1.2064 0.0536,-2.4008 0.1527,-3.5823 18.185,-4.5543 16.5943,-13.255 9.9103,-23.8589 1.5496,-1.8339 3.2516,-3.5354 5.0849,-5.0858 16.071,9.6203 21.0876,2.3205 23.8559,-9.9183 1.1846,-0.0998 2.3826,-0.1507 3.5923,-0.1507 z m 23.8817,32.5858 -12.7017,6.3261 c 0.384,1.1598 0.5928,2.3984 0.5928,3.6841 0,5.3451 -3.5944,9.8771 -8.4892,11.3047 l 0.9213,14.251 c 12.2774,-2.019 21.6952,-12.7219 21.6952,-25.5557 0,-3.5454 -0.7193,-6.9281 -2.0184,-10.0102 z m -15.741,1.5193 11.8727,-7.9178 c -4.7566,-5.7887 -11.9662,-9.4914 -20.0134,-9.4914 -8.3847,0 -15.8592,4.0206 -20.5979,10.2312 l 11.8245,7.8338 c 2.1586,-2.414 5.2934,-3.9377 8.7734,-3.9377 3.1533,0 6.0238,1.251 8.1407,3.2819 z m -11.4127,34.1842 0.8726,-14.1675 c -5.3402,-1.1133 -9.3734,-5.8636 -9.3734,-11.5258 0,-0.9674 0.1187,-1.9081 0.3406,-2.8086 l -12.7985,-6.3258 c -1.0778,2.8428 -1.6694,5.9217 -1.6694,9.1344 0,13.1573 9.8978,24.0764 22.6281,25.6933 z" />
    <path
       id="path38"
       style="fill:#1b1918;fill-opacity:0.5;fill-rule:evenodd"
       d="m 305.2805,460.9419 0.002,-0.001 0,1e-4 c -6e-4,4e-4 -0.001,8e-4 -0.002,0.001 l 8e-4,0.001 0.002,-0.001 0.001,0.002 c 0.009,-0.006 0.018,-0.0123 0.027,-0.0184 l -0.003,-0.005 c -7e-4,6e-4 -0.002,0.002 -0.004,0.003 l 0.003,-0.003 c 9e-4,-6e-4 0.001,-7e-4 1e-4,1e-4 l 0.003,0.005 c 7.2585,-4.9698 14.5785,-9.4789 21.8432,-13.5016 7.285,-4.0339 14.4929,-7.5667 21.5081,-10.5734 36.675,-15.7194 68.5756,-17.1535 79.6545,-0.979 l 0.0152,0.0152 4e-4,6e-4 -0.003,0.002 c 7.7711,11.3696 3.8273,29.0263 -8.8047,48.3415 -12.3282,18.8506 -33.0019,39.463 -59.0638,57.3152 l -0.001,0.001 -0.0152,0.0152 -0.002,0.001 -0.002,-0.003 c -7.2674,4.977 -14.5964,9.4923 -21.8701,13.5199 -7.2851,4.034 -14.493,7.5667 -21.5081,10.5735 -36.675,15.7194 -68.5755,17.1534 -79.6545,0.979 l -0.0152,-0.0152 -5e-4,-7e-4 0.004,-0.002 c -7.7711,-11.3695 -3.8274,-29.0262 8.8044,-48.3412 12.3214,-18.8403 32.9791,-39.4402 59.0205,-57.2855 l -4e-4,-6e-4 c -0.0492,0.0356 -0.007,0.005 0.0343,-0.0258 l 0.003,-0.002 c -0.001,8e-4 -0.002,0.002 -0.003,0.002 l -0.0343,0.0258 4e-4,6e-4 c 0.0143,-0.01 0.0285,-0.0196 0.0427,-0.0294 l 0.0185,-0.0154 -8e-4,-0.001 c -0.004,0.003 -0.009,0.006 -0.0133,0.01 l 0.0132,-0.01 z m 0.002,-0.001 9e-4,0.001 0.0205,-0.0172 c -0.005,0.004 -0.0124,0.01 -0.0214,0.0161 z m 2.1549,3.2323 -0.002,0.001 -4e-4,-5e-4 c -0.0237,0.0181 -0.0245,0.0198 -0.0323,0.0248 l -0.003,-0.005 c -25.6067,17.5483 -45.8878,37.7563 -57.9524,56.204 -11.762,17.9849 -15.6486,34.1062 -8.8384,44.049 l 0.0152,0.0152 4e-4,6e-4 -0.003,0.002 c 9.9539,14.4953 39.9846,12.5978 74.9228,-2.3771 6.9124,-2.9628 13.9987,-6.4348 21.1439,-10.3914 7.1508,-3.9596 14.3832,-8.4175 21.584,-13.3497 l 0.0152,-0.0152 0.002,-0.001 0.002,0.003 c 25.6225,-17.5538 45.9158,-37.7712 57.9857,-56.2268 11.7621,-17.9851 15.6488,-34.1064 8.8386,-44.0493 l -0.0152,-0.0152 -5e-4,-6e-4 0.003,-0.002 c -9.9538,-14.4954 -39.9845,-12.5979 -74.9227,2.377 -6.9124,2.9628 -13.9986,6.4348 -21.1439,10.3914 -7.1366,3.9518 -14.3543,8.3997 -21.5407,13.3202 l 3e-4,4e-4 c -0.0255,0.0186 -0.0428,0.0314 -0.0551,0.0406 l -0.004,0.004 z m -2.1335,-3.2484 0.001,-10e-4 c -5e-4,3e-4 -9e-4,7e-4 -0.001,10e-4 z m -0.0364,0.0271 c -0.001,9e-4 -0.002,0.002 -0.003,0.002 l 0.003,-0.002 z m -0.003,0.002 c -0.001,8e-4 -0.002,0.002 -0.003,0.002 l 0.003,-0.002 z m -0.003,0.002 c -0.001,9e-4 -0.002,0.002 -0.003,0.002 l 0.003,-0.002 z" />
    <path
       id="path40"
       style="fill:#1b1918;fill-opacity:0.5;fill-rule:evenodd"
       d="m 328.3544,460.9419 -0.002,-0.001 0,1e-4 c 6e-4,4e-4 0.001,8e-4 0.002,0.001 l -8e-4,0.001 -0.002,-0.001 -0.001,0.002 c -0.009,-0.006 -0.018,-0.0123 -0.027,-0.0184 l 0.003,-0.005 c 6e-4,6e-4 0.002,0.002 0.003,0.003 l -0.003,-0.003 c -9e-4,-6e-4 -10e-4,-7e-4 0,1e-4 l -0.003,0.005 c -7.2585,-4.9698 -14.5785,-9.4789 -21.8431,-13.5016 -7.2851,-4.0339 -14.493,-7.5667 -21.5082,-10.5734 -36.675,-15.7194 -68.5756,-17.1535 -79.6545,-0.979 l -0.0152,0.0152 -4e-4,6e-4 0.004,0.002 c -7.7712,11.3696 -3.8274,29.0263 8.8046,48.3415 12.3282,18.8506 33.0019,39.463 59.0638,57.3152 l 0.002,0.001 0.0152,0.0152 0.002,0.001 0.002,-0.003 c 7.2674,4.977 14.5964,9.4923 21.8701,13.5199 7.2851,4.034 14.493,7.5667 21.5082,10.5735 36.6749,15.7194 68.5754,17.1534 79.6544,0.979 l 0.0153,-0.0152 4e-4,-7e-4 -0.004,-0.002 c 7.7711,-11.3695 3.8274,-29.0262 -8.8044,-48.3412 -12.3214,-18.8403 -32.9791,-39.4402 -59.0205,-57.2855 l 4e-4,-6e-4 c 0.0492,0.0356 0.007,0.005 -0.0343,-0.0258 l -0.003,-0.002 c 0.001,8e-4 0.002,0.002 0.003,0.002 l 0.0343,0.0258 -4e-4,6e-4 c -0.0143,-0.01 -0.0285,-0.0196 -0.0427,-0.0294 l -0.0185,-0.0154 8e-4,-0.001 c 0.004,0.003 0.009,0.006 0.0133,0.01 l -0.0132,-0.01 z m -0.002,-0.001 -8e-4,0.001 -0.0206,-0.0172 c 0.005,0.004 0.0124,0.01 0.0214,0.0161 z m -2.1548,3.2323 0.002,0.001 4e-4,-5e-4 c 0.0237,0.0181 0.0245,0.0198 0.0323,0.0248 l 0.003,-0.005 c 25.6067,17.5483 45.8878,37.7563 57.9524,56.204 11.762,17.9849 15.6486,34.1062 8.8384,44.049 l -0.0152,0.0152 -4e-4,6e-4 0.003,0.002 c -9.9539,14.4953 -39.9846,12.5978 -74.9228,-2.3771 -6.9124,-2.9628 -13.9987,-6.4348 -21.1439,-10.3914 -7.1508,-3.9596 -14.3832,-8.4175 -21.584,-13.3497 l -0.0152,-0.0152 -0.002,-0.001 -0.002,0.003 c -25.6225,-17.5538 -45.9158,-37.7712 -57.9857,-56.2268 -11.7621,-17.9851 -15.6488,-34.1064 -8.8386,-44.0493 l 0.0152,-0.0152 5e-4,-6e-4 -0.003,-0.002 c 9.9538,-14.4954 39.9846,-12.5979 74.9227,2.377 6.9124,2.9628 13.9986,6.4348 21.1439,10.3914 7.1366,3.9518 14.3543,8.3997 21.5408,13.3202 l -4e-4,4e-4 c 0.0255,0.0186 0.0428,0.0314 0.0551,0.0406 l 0.004,0.004 z m 2.1334,-3.2484 -0.001,-10e-4 c 5e-4,3e-4 9e-4,7e-4 0.001,10e-4 z m 0.0364,0.0271 c 0.001,9e-4 0.002,0.002 0.003,0.002 l -0.003,-0.002 z m 0.003,0.002 c 0.001,8e-4 0.002,0.002 0.003,0.002 l -0.003,-0.002 z m 0.003,0.002 c 0.001,9e-4 0.002,0.002 0.003,0.002 l -0.003,-0.002 z" />
    <defs
       id="defs42">
      <radialGradient
         r="0.60000002"
         cy="0.38999999"
         cx="0.38999999"
         id="grad5">
 &gt;
    <stop
   id="stop45"
   stop-opacity="1"
   stop-color="#ffffff"
   offset="0%" />
<stop
   id="stop47"
   stop-opacity="1"
   stop-color="#1b1918"
   offset="100%" />
</radialGradient>
    </defs>
    <path
       id="path49"
       style="fill:url(#grad5);stroke:#000000;stroke-width:0.2;stroke-dasharray:none"
       d="m 209.0724,429.0891 a 10.8303,10.8303 0 0 1 10.8302,10.8302 10.8303,10.8303 0 1 1 -10.8302,-10.8302 z" />
    <defs
       id="defs51">
      <radialGradient
         r="0.60000002"
         cy="0.38999999"
         cx="0.38999999"
         id="grad6">
 &gt;
    <stop
   id="stop54"
   stop-opacity="1"
   stop-color="#ffffff"
   offset="0%" />
<stop
   id="stop56"
   stop-opacity="1"
   stop-color="#1b1918"
   offset="100%" />
</radialGradient>
    </defs>
    <path
       id="path58"
       style="fill:url(#grad6);stroke:#000000;stroke-width:0.2;stroke-dasharray:none"
       d="m 426.7625,429.0891 a 10.8303,10.8303 0 0 0 -10.8303,10.8302 10.8303,10.8303 0 1 0 10.8303,-10.8302 z" />
    <path
       id="path60"
       style="fill:#1b1918;fill-rule:evenodd"
       d="m 181.1147,267.4737 0,-31.1109 5.2953,0 0,12.2415 10.365,0 0,-12.2415 5.2892,0 0,31.1109 -5.2892,0 0,-13.6034 -10.365,0 0,13.6034 -5.2953,0 z m 25.348,-15.3636 c 0,-3.1726 0.3966,-5.831 1.1958,-7.9823 0.5979,-1.5791 1.4092,-3.0061 2.4402,-4.2664 1.031,-1.2532 2.1596,-2.1876 3.3859,-2.7961 1.6349,-0.8257 3.5139,-1.2313 5.6492,-1.2313 3.8616,0 6.9485,1.4197 9.2667,4.2664 2.3182,2.8394 3.4773,6.7944 3.4773,11.8576 0,5.0271 -1.1529,8.9531 -3.4529,11.7925 -2.2999,2.8322 -5.3746,4.252 -9.218,4.252 -3.8983,0 -6.9974,-1.4126 -9.2973,-4.2302 -2.2999,-2.825 -3.4469,-6.7148 -3.4469,-11.6622 z m 5.4479,-0.21 c 0,3.5203 0.6893,6.1932 2.056,8.0113 1.3725,1.8182 3.1113,2.7236 5.222,2.7236 2.1047,0 3.8373,-0.8982 5.1917,-2.709 1.3482,-1.8037 2.0253,-4.5056 2.0253,-8.1128 0,-3.5638 -0.6588,-6.2222 -1.9705,-7.9824 -1.3177,-1.753 -3.0685,-2.6294 -5.2465,-2.6294 -2.184,0 -3.941,0.891 -5.277,2.6657 -1.33,1.7746 -2.001,4.4475 -2.001,8.033 z m 24.1096,-15.5373 10.4747,0 c 2.0743,0 3.6238,0.1013 4.6426,0.3114 1.0188,0.2028 1.9278,0.6302 2.733,1.2821 0.8053,0.6519 1.4703,1.5139 2.0072,2.6004 0.5368,1.0793 0.8052,2.2962 0.8052,3.6363 0,1.4559 -0.3294,2.796 -0.9883,4.0129 -0.665,1.2169 -1.5617,2.1296 -2.6903,2.738 1.5922,0.5506 2.8246,1.4922 3.6786,2.8178 0.8602,1.3328 1.2873,2.8974 1.2873,4.6938 0,1.4125 -0.2746,2.7888 -0.8297,4.1288 -0.5552,1.3328 -1.3116,2.4049 -2.2694,3.2016 -0.9578,0.7968 -2.1414,1.2894 -3.5506,1.4777 -0.8785,0.1087 -3.0076,0.1811 -6.3812,0.2101 l -8.9191,0 0,-31.1109 z m 5.2953,5.179 0,7.1929 3.4652,0 c 2.062,0 3.3431,-0.0362 3.8433,-0.1087 0.9029,-0.1231 1.6167,-0.4925 2.1352,-1.1082 0.5186,-0.6158 0.7748,-1.427 0.7748,-2.4339 0,-0.9633 -0.2196,-1.7456 -0.6649,-2.3468 -0.4515,-0.6013 -1.1165,-0.9635 -1.995,-1.0866 -0.5246,-0.0724 -2.0314,-0.1087 -4.5205,-0.1087 l -3.0381,0 z m 0,12.372 0,8.3156 4.8927,0 c 1.9095,0 3.1174,-0.058 3.6299,-0.1883 0.7869,-0.1667 1.4275,-0.5868 1.9217,-1.2387 0.4941,-0.6592 0.7443,-1.5429 0.7443,-2.6439 0,-0.9344 -0.1953,-1.724 -0.5735,-2.3758 -0.3843,-0.652 -0.9334,-1.13 -1.6533,-1.427 -0.7199,-0.297 -2.2877,-0.4419 -4.6913,-0.4419 l -4.2705,0 z m 19.1437,-1.8037 c 0,-3.1726 0.3965,-5.831 1.1958,-7.9823 0.5979,-1.5791 1.4092,-3.0061 2.4402,-4.2664 1.031,-1.2532 2.1596,-2.1876 3.3858,-2.7961 1.635,-0.8257 3.514,-1.2313 5.6492,-1.2313 3.8617,0 6.9486,1.4197 9.2668,4.2664 2.3182,2.8394 3.4773,6.7944 3.4773,11.8576 0,5.0271 -1.1529,8.9531 -3.4529,11.7925 -2.2999,2.8322 -5.3746,4.252 -9.218,4.252 -3.8983,0 -6.9974,-1.4126 -9.2973,-4.2302 -2.2999,-2.825 -3.4469,-6.7148 -3.4469,-11.6622 z m 5.4479,-0.21 c 0,3.5203 0.6893,6.1932 2.056,8.0113 1.3725,1.8182 3.1113,2.7236 5.222,2.7236 2.1047,0 3.8373,-0.8982 5.1916,-2.709 1.3483,-1.8037 2.0254,-4.5056 2.0254,-8.1128 0,-3.5638 -0.6588,-6.2222 -1.9705,-7.9824 -1.3177,-1.753 -3.0685,-2.6294 -5.2465,-2.6294 -2.184,0 -3.941,0.891 -5.277,2.6657 -1.33,1.7746 -2.001,4.4475 -2.001,8.033 z m 20.5225,-15.5373 5.9175,0 6.1129,16.153 5.2159,-16.153 5.5211,0 -8.8459,23.6428 c -0.9639,2.557 -1.9461,4.5055 -2.9466,5.8456 -1.0005,1.3327 -2.2938,2.0064 -3.88,2.0064 -1.5617,0 -2.7819,-0.1231 -3.6603,-0.3622 l 0,-4.6721 c 0.7504,0.058 1.4275,0.087 2.0315,0.087 1.2323,0 2.1108,-0.268 2.6416,-0.7968 0.5307,-0.5288 1.0371,-1.6733 1.5251,-3.4262 l -9.6328,-22.3245 z m 25.4333,31.1109 0,-31.1109 8.486,0 c 3.215,0 5.3136,0.1593 6.2897,0.4707 1.5008,0.4637 2.7636,1.4777 3.7763,3.0424 1.0126,1.5645 1.519,3.5855 1.519,6.0555 0,1.9123 -0.2928,3.5204 -0.8785,4.817 -0.5856,1.3038 -1.3238,2.3252 -2.2267,3.0713 -0.8968,0.7387 -1.8119,1.2313 -2.7392,1.4704 -1.2628,0.297 -3.0929,0.4491 -5.4905,0.4491 l -3.4468,0 0,11.7345 -5.2893,0 z m 5.2893,-25.8449 0,8.8226 2.8916,0 c 2.0865,0 3.4835,-0.1594 4.185,-0.4853 0.7017,-0.326 1.2507,-0.833 1.6533,-1.5284 0.3966,-0.6954 0.5979,-1.4994 0.5979,-2.4193 0,-1.13 -0.2807,-2.0645 -0.8419,-2.8033 -0.5552,-0.7316 -1.2689,-1.1951 -2.123,-1.3763 -0.6345,-0.1448 -1.9034,-0.21 -3.8068,-0.21 l -2.5561,0 z m 39.538,25.8449 -5.759,0 -2.2877,-7.0697 -10.4747,0 -2.1597,7.0697 -5.6125,0 10.2063,-31.1109 5.5943,0 10.493,31.1109 z m -9.7427,-12.3068 -3.6115,-11.5462 -3.5384,11.5462 7.1499,0 z m 14.8672,-18.8041 18.3568,0 0,31.1109 -5.2893,0 0,-25.8449 -7.8819,0 0,13.2846 c 0,3.8029 -0.1099,6.4612 -0.3234,7.9679 -0.2135,1.5066 -0.7382,2.6801 -1.5618,3.5203 -0.8297,0.8403 -2.1229,1.2604 -3.8921,1.2604 -0.6162,0 -1.7448,-0.0652 -3.3737,-0.2101 l 0,-4.8604 1.1775,0.0218 c 1.1102,0 1.8545,-0.1739 2.2328,-0.5288 0.3843,-0.3549 0.5735,-1.2242 0.5735,-2.6149 l -0.0184,-5.3457 0,-17.7611 z m 23.9144,0 5.2892,0 0,12.4371 7.0767,0 c 3.3371,0 5.753,0.9271 7.2475,2.7815 1.5008,1.8543 2.2451,4.0708 2.2451,6.664 0,2.1224 -0.4515,3.926 -1.3605,5.411 -0.9029,1.4849 -1.9339,2.4918 -3.0991,3.0205 -1.1591,0.5288 -2.8367,0.7968 -5.033,0.7968 l -12.3659,0 0,-31.1109 z m 5.2892,25.8883 5.1489,0 c 1.6655,0 2.8246,-0.0941 3.4652,-0.2825 0.6466,-0.1955 1.2201,-0.6302 1.7264,-1.3039 0.5064,-0.6808 0.7626,-1.5138 0.7626,-2.5062 0,-1.427 -0.4331,-2.4773 -1.2994,-3.1437 -0.8601,-0.6664 -2.3365,-0.9924 -4.4229,-0.9924 l -5.3808,0 0,8.2287 z m 36.7745,-6.2149 5.1245,1.9268 c -0.787,3.3972 -2.0925,5.9179 -3.9227,7.5694 -1.824,1.6443 -4.1484,2.4701 -6.9607,2.4701 -3.4774,0 -6.3386,-1.4126 -8.5776,-4.2302 -2.2388,-2.825 -3.3614,-6.6859 -3.3614,-11.5752 0,-5.1792 1.1286,-9.1993 3.3798,-12.0677 2.2511,-2.8612 5.2099,-4.2954 8.8825,-4.2954 3.2028,0 5.8077,1.1227 7.8087,3.3754 1.1957,1.3256 2.0864,3.2379 2.6843,5.7297 l -5.2404,1.4849 c -0.3051,-1.6153 -0.9517,-2.8902 -1.94,-3.8246 -0.9822,-0.9344 -2.1779,-1.398 -3.5811,-1.398 -1.9399,0 -3.52,0.8258 -4.7279,2.4845 -1.2079,1.6516 -1.8119,4.3317 -1.8119,8.0403 0,3.9333 0.5918,6.7366 1.7875,8.4025 1.1896,1.6733 2.7391,2.5063 4.6425,2.5063 1.4093,0 2.6172,-0.5288 3.6299,-1.5936 1.0127,-1.0575 1.7387,-2.7308 2.184,-5.0052 z m 9.7549,-19.6734 5.2892,0 0,13.2411 c 1.1835,-0.1377 1.9827,-0.4998 2.3976,-1.0793 0.4148,-0.5795 1.0614,-2.1948 1.9277,-4.8387 1.0982,-3.3682 2.2024,-5.4616 3.3066,-6.2801 1.0981,-0.8257 2.8672,-1.2314 5.3075,-1.2314 0.122,0 0.3782,-0.007 0.7687,-0.0217 l 0,4.643 -0.7504,-0.0216 c -1.0798,0 -1.8729,0.1593 -2.3731,0.478 -0.5003,0.3187 -0.909,0.8041 -1.2141,1.456 -0.3111,0.6518 -0.7686,1.9847 -1.3787,4.0129 -0.3234,1.072 -0.6711,1.9702 -1.0432,2.6946 -0.3783,0.7171 -1.0432,1.398 -1.9949,2.0354 1.1774,0.3984 2.1535,1.1952 2.9222,2.3976 0.7686,1.2024 1.6106,2.9047 2.5256,5.0922 l 3.575,8.5329 -6.2165,0 -3.1296,-8.0403 c -0.0488,-0.1159 -0.1464,-0.3332 -0.3051,-0.6592 -0.0548,-0.1159 -0.2806,-0.6012 -0.6588,-1.4632 -0.6772,-1.5283 -1.2384,-2.4845 -1.6716,-2.8684 -0.4331,-0.3839 -1.0981,-0.5795 -1.9949,-0.594 l 0,13.6251 -5.2892,0 0,-31.1109 z" />
    <path
       id="path62"
       style="fill:#1b1918;fill-rule:evenodd;stroke:#1b1918;stroke-width:0.48559999;stroke-linecap:butt;stroke-linejoin:miter;stroke-dasharray:none"
       d="m 300.2392,336.9618 2e-4,-10e-5 -9.6301,-20.5353 0.4009,0.1817 19.8664,19.8664 c -1.0888,1.0887 -1.9667,2.3881 -2.5673,3.83 l -8.0698,-3.3426 -3e-4,-1e-4 z" />
    <path
       id="path64"
       style="fill:#1b1918;fill-rule:evenodd;stroke:#1b1918;stroke-width:0.48559999;stroke-linecap:butt;stroke-linejoin:miter;stroke-dasharray:none"
       d="m 300.2394,352.694 -35.1608,-7.8661 42.3283,0 c 0,0 0,0 0,0 0,1.6009 0.3215,3.1289 0.9024,4.5235 l -8.0699,3.3426 z" />
    <path
       id="path66"
       style="fill:#1b1918;fill-rule:evenodd;stroke:#1b1918;stroke-width:0.48559999;stroke-linecap:butt;stroke-linejoin:miter;stroke-dasharray:none"
       d="m 311.3636,363.8185 -20.9694,10.393 0.4623,-1.0104 20.0199,-20.0199 c 1.0887,1.0888 2.3881,1.9666 3.83,2.5672 l -3.3427,8.07 -10e-5,10e-5 z" />
    <path
       id="path68"
       style="fill:#1b1918;fill-rule:evenodd;stroke:#1b1918;stroke-width:0.48559999;stroke-linecap:butt;stroke-linejoin:miter;stroke-dasharray:none"
       d="m 327.096,363.8188 -7.866,35.1604 -3e-4,-0.001 0,-42.3274 c 1.6008,0 3.1287,-0.3215 4.5233,-0.9024 l 3.3428,8.0702 2e-4,4e-4 z" />
    <path
       id="path70"
       style="fill:#1b1918;fill-rule:evenodd;stroke:#1b1918;stroke-width:0.48559999;stroke-linecap:butt;stroke-linejoin:miter;stroke-dasharray:none"
       d="m 338.2207,352.6943 9.9168,20.9355 -0.1989,-0.0927 -20.3558,-20.3559 c 1.0887,-1.0887 1.9667,-2.388 2.5672,-3.8298 l 8.0702,3.3427 5e-4,2e-4 z" />
    <path
       id="path72"
       style="fill:#1b1918;fill-rule:evenodd;stroke:#1b1918;stroke-width:0.48559999;stroke-linecap:butt;stroke-linejoin:miter;stroke-dasharray:none"
       d="m 338.2208,336.9618 35.1605,7.8661 -0.002,3e-4 -42.3275,-10e-5 c 0,0 0,-1e-4 0,-2e-4 0,-1.6007 -0.3214,-3.1285 -0.9022,-4.5231 l 8.0701,-3.3428 6e-4,-2e-4 z" />
    <defs
       id="defs74">
      <linearGradient
         id="grad7">
        <stop
           id="stop77"
           stop-opacity="1"
           stop-color="#868789"
           offset="0%" />
        <stop
           id="stop79"
           stop-opacity="1"
           stop-color="#ffffff"
           offset="100%" />
      </linearGradient>
      <linearGradient
         gradientUnits="objectBoundingBox"
         gradientTransform="matrix(-0.8660254,0.5,-0.5,-0.8660254,1.1830127,0.6830127)"
         y2="1"
         x2="0"
         y1="0"
         x1="0"
         id="grad8"
         xlink:href="#grad7" />
    </defs>
    <path
       id="path82"
       style="fill:url(#grad8);stroke:#1b1918;stroke-width:0.48559999;stroke-linecap:butt;stroke-linejoin:miter;stroke-dasharray:none"
       d="m 346.4704,317.2744 1.0893,-0.4815 -9.3392,20.1688 4e-4,10e-5 -8.0708,3.3431 c -0.6006,-1.442 -1.4784,-2.7413 -2.567,-3.83 l 6.1814,-6.1814 12.7059,-13.0191 z m 25.1784,27.1658 1.7325,0.3877 -35.1608,7.8661 2e-4,5e-4 -8.0709,-3.3431 c 0.581,-1.3946 0.9025,-2.9225 0.9025,-4.5233 l 8.7326,0 31.8639,-0.3879 z m -23.7225,28.7439 0.2112,0.4457 -21.0414,-9.8114 -2e-4,6e-4 -3.3429,-8.0707 c 1.4418,-0.6006 2.7412,-1.4785 3.8299,-2.5671 l 6.1814,6.1815 14.162,13.8214 z m -28.3087,24.0626 -0.3876,1.7325 -7.8662,-35.1608 -3e-4,2e-4 3.3428,-8.0704 c 1.3947,0.5809 2.9225,0.9024 4.5233,0.9024 10e-5,0 10e-5,0 2e-4,0 l 0,8.7325 0.3878,31.8636 z m -29.055,-23.4033 9.6768,-21.1494 -10e-5,0 8.07,-3.3427 c 0.6005,1.4419 1.4785,2.7413 2.5671,3.83 l -6.1812,6.1812 -14.1326,14.4809 z m -23.75,-28.6276 -1.734,-0.3879 35.1608,-7.8662 8.07,3.3427 c -0.581,1.3947 -0.9025,2.9226 -0.9025,4.5235 l -8.7321,0 -31.8622,0.3879 z m 23.9004,-28.5684 -0.1037,-0.221 20.7545,9.4109 3.3427,8.0701 c -1.4419,0.6005 -2.7412,1.4785 -3.83,2.5671 l -6.1812,-6.1812 -13.9823,-13.6459 z m 28.517,-25.9709 7.8661,35.1608 1e-4,-1e-4 -3.3429,8.0706 c -1.3946,-0.5811 -2.9225,-0.9025 -4.5234,-0.9026 l 0,-8.7323 -0.3878,-31.8624 0.3879,-1.734 z" />
    <path
       id="path84"
       style="fill:#1b1918;fill-rule:evenodd;stroke:#1b1918;stroke-width:0.48559999;stroke-linecap:butt;stroke-linejoin:miter;stroke-dasharray:none"
       d="m 319.23,290.6765 0,3e-4 0,42.3284 c -2e-4,0 -2e-4,0 -4e-4,0 -1.6007,0 -3.1285,0.3215 -4.5231,0.9024 l -3.3427,-8.07 -1e-4,-4e-4 1e-4,1e-4 7.8662,-35.1608 z" />
    <path
       id="path86"
       style="fill:#1b1918;fill-rule:evenodd;stroke:#1b1918;stroke-width:0.48559999;stroke-linecap:butt;stroke-linejoin:miter;stroke-dasharray:none"
       d="m 327.0961,325.8373 19.9357,-8.811 -19.4487,19.4486 c -1.0887,-1.0887 -2.388,-1.9666 -3.8299,-2.5672 l 3.3427,-8.0701 2e-4,-3e-4 z" />
  </g>
</svg>
