<?xml version="1.0" encoding="UTF-8" standalone="no"?>
<svg
   xmlns:dc="http://purl.org/dc/elements/1.1/"
   xmlns:cc="http://creativecommons.org/ns#"
   xmlns:rdf="http://www.w3.org/1999/02/22-rdf-syntax-ns#"
   xmlns:svg="http://www.w3.org/2000/svg"
   xmlns="http://www.w3.org/2000/svg"
   viewBox="0 0 595.27557 841.88977"
   id="svg2"
   height="100"
   width="150"
   version="1.1">
  <metadata
     id="metadata22">
    <rdf:RDF>
      <cc:Work
         rdf:about="">
        <dc:format>image/svg+xml</dc:format>
        <dc:type
           rdf:resource="http://purl.org/dc/dcmitype/StillImage" />
      </cc:Work>
    </rdf:RDF>
  </metadata>
  <defs
     id="defs20" />
  <g
     id="g4">
    <path
       id="path6"
       style="fill:#000000;fill-rule:evenodd"
       d="m 141.2054,233.337 -4e-4,-7.2105 0,-1.1109 1.1109,0 321.6753,0 1.1108,0 0,1.1109 0,179.8162 2e-4,0 0,1.1109 0,163.8414 0,0.1315 -0.0348,0.1376 -0.3651,1.4437 -0.0131,0.0433 -0.389,1.3246 -0.0129,0.0435 -0.4358,1.2861 -0.0175,0.0434 -0.4844,1.2481 -0.0173,0.0477 -0.5359,1.2084 -0.026,0.052 -0.5885,1.1688 -0.0261,0.0479 -0.6438,1.1282 -0.0302,0.0519 -0.7005,1.0874 -0.0348,0.0522 -0.7598,1.0446 -0.039,0.0521 -0.8199,1.0021 -0.0435,0.0477 -0.8824,0.9581 -0.0477,0.0477 -0.9459,0.9136 -0.0477,0.0435 -1.0112,0.8681 -0.0477,0.039 -1.0777,0.8227 -0.0477,0.039 -1.1454,0.776 -0.0565,0.0304 -1.2146,0.7297 -0.052,0.0304 -1.2859,0.6822 -0.0477,0.0216 -1.3578,0.6351 -0.0478,0.0217 -1.4318,0.5875 -0.0477,0.0218 -1.5066,0.5404 -0.0433,0.0131 -1.5843,0.4926 -0.0435,0.0129 -1.6628,0.4453 -0.0435,0.009 -1.7439,0.3974 -0.0347,0.009 -1.8261,0.3499 -0.039,0.004 -1.911,0.3017 -0.0304,0.004 -1.9971,0.2536 -0.0304,0.004 -2.0858,0.2055 -0.0304,0.009 -2.1757,0.1573 -0.0259,0 -2.2686,0.1085 -0.0261,0 -2.3625,0.06 -0.0216,0 -2.459,0.0107 -0.0175,0 -2.5695,-0.0385 -0.0564,0 -2.6317,-0.1738 0,-3e-4 -2.6301,-0.1632 0,-4e-4 -2.6524,-0.1547 0,-3e-4 -2.6715,-0.146 -2.6933,-0.1377 0,-2e-4 -2.7031,-0.1291 0,-2e-4 -2.7145,-0.1207 0,-2e-4 -2.7237,-0.1119 0,-2e-4 -2.7301,-0.1037 0,-2e-4 -2.7337,-0.0952 -2.7355,-0.0869 -0.004,0 -2.7293,-0.0784 -0.004,0 -2.7256,-0.0702 -0.004,0 -2.7232,-0.0616 -2.7138,-0.0535 -0.004,0 -2.6975,-0.0449 -0.004,0 -2.6836,-0.037 -0.004,0 -2.6662,-0.0285 -0.004,0 -2.651,-0.0203 -2.6284,-0.012 -0.004,0 -2.6038,-0.004 -2.576,0.004 -0.004,0 -2.5416,0.0124 -0.004,0 -2.5133,0.0208 -2.4779,0.0285 -0.005,0 -2.4355,0.0365 -0.004,0 -2.3949,0.0447 -0.004,0 -2.3517,0.0531 -0.004,0 -2.3061,0.0606 -0.005,0 -2.2573,0.0687 -0.004,0 -2.2018,0.0765 0,3e-4 -2.1737,0.0853 -0.0348,0 -1.6095,0.0183 0,5e-4 -1.6175,0.0854 -2e-4,-0.004 -1.5068,0.1437 0,3e-4 -1.5812,0.2211 -1.4695,0.272 2e-4,10e-4 -1.5341,0.3578 -1.4772,0.4182 -1.3897,0.467 -1.4299,0.5595 -1.4006,0.6316 -1.3286,0.6827 -1.2884,0.7503 -1.3156,0.8618 -1.2365,0.9092 -1.1452,0.9414 2e-4,10e-5 -1.1818,1.0854 -1.1042,1.131 -1.0512,1.2014 -0.9856,1.2584 0.003,0.002 -0.9898,1.4151 -0.001,-10e-4 -0.888,1.4237 -0.8342,1.5094 -0.8094,1.6594 -5e-4,-2e-4 -0.7051,1.6507 0.001,5e-4 -0.6766,1.8231 -1.127,3.8525 -0.002,-4e-4 -0.4445,2.0076 0.002,5e-4 c -0.9344,5.2721 -1.7811,9.1167 -3.0065,14.4105 -1.2299,-5.2962 -1.9486,-9.1361 -2.8827,-14.4105 l 0.002,-5e-4 -0.4445,-2.0076 -0.001,4e-4 -1.1271,-3.8525 -0.6765,-1.8231 0.001,-5e-4 -0.7052,-1.6507 -5e-4,2e-4 -0.8094,-1.6594 -0.8342,-1.5094 -0.888,-1.4237 -0.001,10e-4 -0.9898,-1.4151 0.003,-0.002 -0.9856,-1.2584 -1.0512,-1.2014 -1.1042,-1.131 -1.1818,-1.0854 2e-4,-10e-5 -1.1452,-0.9414 -1.2365,-0.9092 -1.3152,-0.8618 -1.2887,-0.7503 -1.3286,-0.6827 -1.4005,-0.6316 -1.4299,-0.5595 -1.3897,-0.467 -1.4772,-0.4182 -1.5341,-0.3578 2e-4,-10e-4 -1.4696,-0.272 -1.5811,-0.2211 0,-3e-4 -1.5067,-0.1437 -1e-4,0.004 -1.6176,-0.0854 0,-5e-4 -1.6094,-0.0183 -0.0348,0 -2.1739,-0.0853 0,-3e-4 -2.2018,-0.0765 -0.004,0 -2.2574,-0.0687 -0.004,0 -2.3061,-0.0606 -0.004,0 -2.3516,-0.0531 -0.004,0 -2.395,-0.0447 -0.004,0 -2.4356,-0.0365 -0.004,0 -2.4779,-0.0285 -2.5133,-0.0208 -0.004,0 -2.5415,-0.0124 -0.004,0 -2.576,-0.004 -2.6038,0.004 -0.005,0 -2.6284,0.012 -2.6509,0.0203 -0.004,0 -2.6662,0.0285 -0.004,0 -2.6835,0.037 -0.004,0 -2.6976,0.0449 -0.004,0 -2.7137,0.0535 -2.7232,0.0616 -0.004,0 -2.7255,0.0702 -0.004,0 -2.7294,0.0784 -0.004,0 -2.7355,0.0869 -2.7337,0.0952 0,2e-4 -2.7302,0.1037 0,2e-4 -2.7236,0.1119 0,2e-4 -2.7146,0.1207 0,2e-4 -2.703,0.1291 0,2e-4 -2.6933,0.1377 -2.6716,0.146 0,3e-4 -2.6523,0.1547 0,4e-4 -2.6302,0.1632 0,3e-4 -2.6325,0.1738 -0.0563,0 -3.1611,0.0402 -0.0217,0 -2.9995,-0.0348 -0.0304,0 -2.8535,-0.1099 -0.0348,0 -2.7117,-0.1839 -0.0347,-0.009 -2.5728,-0.2584 -0.039,-0.004 -2.4384,-0.332 -0.0435,-0.004 -2.3072,-0.4054 -0.0433,-0.009 -2.1802,-0.4783 -0.0521,-0.0131 -2.0557,-0.5518 -0.0521,-0.0173 -1.9359,-0.6244 -0.0563,-0.0173 -1.8183,-0.6972 -0.0607,-0.0259 -1.7049,-0.7697 -0.0608,-0.0304 -1.5937,-0.8422 -0.0651,-0.0348 -1.4857,-0.9139 -0.0608,-0.0433 -1.3801,-0.9852 -0.065,-0.0479 -1.2777,-1.0558 -0.0566,-0.0519 -1.1773,-1.1255 -0.0607,-0.0566 -1.0799,-1.1936 -0.0477,-0.0651 -0.9854,-1.2601 -0.0477,-0.0608 -0.8943,-1.3253 -0.039,-0.065 -0.8059,-1.3892 -0.0347,-0.0608 -0.7217,-1.4509 -0.0261,-0.0652 -0.6411,-1.5117 -0.026,-0.0564 -0.5647,-1.5711 -0.0173,-0.0563 -0.4918,-1.6303 -0.0131,-0.0477 -0.4235,-1.6874 -0.009,-0.0477 -0.3588,-1.7449 -0.009,-0.0434 -0.2985,-1.8011 -0.004,-0.0348 -0.2417,-1.8575 -0.004,-0.0346 -0.189,-1.913 -0.009,-0.0304 -0.1399,-1.968 0,-0.026 -0.0954,-2.0326 0,-0.0521 0,-152.3759 0,-1.1109 6e-4,0 -3e-4,-0.7851 -6e-4,-2.1086 -7e-4,-2.6652 -9e-4,-3.1927 -0.001,-3.6898 -0.001,-4.1578 -10e-4,-4.5951 -0.001,-5.0031 -0.001,-5.381 -0.001,-5.7293 -0.001,-6.0474 -0.002,-6.336 -0.001,-6.5946 -0.002,-6.8234 -0.001,-7.022 -0.001,-7.1911 -0.001,-7.3301 -0.002,-7.4397 -0.001,-7.5189 -0.001,-7.5688 -0.001,-7.5885 -0.001,-7.5786 -0.001,-7.5383 -0.001,-7.4688 -7e-4,-7.3688 -0.001,-7.24 -5e-4,-7.0799 -6e-4,-6.8912 -1e-4,-6.6719 z" />
    <g
       id="g8">
      <path
         id="path10"
         style="fill:#009ee0;fill-rule:evenodd"
         d="m 143.1031,226.9137 320.1009,0 0,180.927 -320.0675,0 c 0,0.8045 -0.0334,-113.8484 -0.0334,-180.927 z" />
      <path
         id="path12"
         style="fill:#ffdc00;fill-rule:evenodd"
         d="m 143.1355,407.8408 c 0,50.5233 0,101.047 0,151.5702 0.7776,21.688 8.5533,33.7258 42.7673,32.8966 27.7304,-1.8848 60.1077,-2.2899 82.9059,-1.3439 17.7835,-0.1585 33.9851,11.1952 35.0401,38.3367 1.055,-27.1415 17.2567,-38.4952 35.0402,-38.3367 22.7981,-0.946 55.1754,-0.5409 82.9058,1.3439 27.6542,0.6702 38.0342,-7.0674 41.4093,-21.5105 l 0,-162.9563 -320.0686,0 z" />
    </g>
    <path
       id="path14"
       style="fill:#f5f6f6;fill-rule:evenodd"
       d="m 234.1016,380.5027 70.1383,-59.3904 70.343,61.3493 28.6352,-24.4911 58.7396,49.7774 c -105.0182,0.0731 -210.5924,-0.1107 -315.6106,-0.0376 l 58.9386,-51.8179 28.8159,24.6103 z" />
    <path
       id="path16"
       style="fill:#009ee0;fill-rule:evenodd"
       d="m 234.1016,436.3702 70.1383,61.5891 70.343,-63.8227 28.6352,25.398 58.7083,-51.6377 c -105.0182,0.073 -210.5611,-0.1079 -315.5793,-0.0348 l 58.9386,54.1115 28.8159,-25.6034 z" />
  </g>
</svg>
