<?xml version="1.0" encoding="UTF-8" standalone="no"?>
<svg
   xmlns:dc="http://purl.org/dc/elements/1.1/"
   xmlns:cc="http://creativecommons.org/ns#"
   xmlns:rdf="http://www.w3.org/1999/02/22-rdf-syntax-ns#"
   xmlns:svg="http://www.w3.org/2000/svg"
   xmlns="http://www.w3.org/2000/svg"
   viewBox="0 0 595.27557 841.88977"
   id="svg2"
   height="100"
   width="150"
   version="1.1">
  <metadata
     id="metadata26">
    <rdf:RDF>
      <cc:Work
         rdf:about="">
        <dc:format>image/svg+xml</dc:format>
        <dc:type
           rdf:resource="http://purl.org/dc/dcmitype/StillImage" />
      </cc:Work>
    </rdf:RDF>
  </metadata>
  <defs
     id="defs24" />
  <g
     id="g4">
    <path
       id="path6"
       style="fill:#1b1918;fill-rule:evenodd"
       d="m 458.9297,240.5594 0,302.3504 c 0,41.918 -24.8283,43.0878 -53.6116,45.4275 l -70.3103,0 c -17.3578,0 -25.2678,22.2838 -29.003,28.9127 -4.1747,-6.6289 -12.0846,-28.9127 -29.4424,-28.9127 l -70.3103,0 c -28.5636,-2.3397 -53.6116,-3.5095 -53.6116,-45.4275 l 0,-302.3504 306.2892,0 z" />
    <path
       id="path8"
       style="fill:none"
       d="m 258.0348,322.3159 c 30.0349,-15.908 67.1149,-6.1214 76.6798,-5.6336 9.5649,0.4879 15.2468,-5.4795 17.4769,-12.4332 2.2301,-6.9536 -4.1418,-13.174 -9.8582,-12.4629 -5.7165,0.711 -3.8449,3.5274 -4.5751,5.0923 -1.2835,0.009 -5.4895,0.2182 -5.9742,-1.4819 -2.0362,0.3313 -4.205,-1.7935 -4.6524,-4.0595 -2.234,0.2191 -3.0863,-3.4689 0.305,-3.7372 5.9559,-6.1231 8.6364,-10.0625 9.0762,-12.5083 1.9332,-1.4458 3.9378,-2.6758 6.1016,-3.4322 -2.5562,-4.6051 1.2792,-9.9986 4.6584,-12.2461 4.3451,-2.8899 8.98,-2.5842 10.138,-8.8045 1.7094,0.7456 2.0399,2.5253 0.9916,5.3389 4.1093,-0.6941 7.4142,-2.4228 9.9151,-5.1863 3.0684,8.9773 -22.395,8.3863 -21.0506,18.915 0.3051,-0.0508 0.6102,-0.1016 0.9152,-0.1526 -0.0318,-3.8074 4.6496,-7.0263 11.9745,-9.9151 4.3582,0.3317 7.9262,-1.2334 11.1354,-3.661 0.3997,1.6006 -0.465,3.4313 -2.5932,5.4915 7.2529,1.7562 10.5481,0.1009 11.1355,-3.8898 2.6787,3.3209 0.4071,6.1919 -3.2058,7.2123 -5.6989,1.6096 -14.4526,-2.8051 -19.0651,3.7706 3.8135,-2.4388 8.0045,-3.3696 12.5083,-3.0508 -1.0669,4.2847 -4.0306,7.6205 -7.8558,10.5253 25.5866,13.1593 24.017,49.4872 4.3474,71.2364 5.7701,12.1969 11.1005,20.8739 15.7879,24.4065 6.3647,15.6859 13.1444,31.3719 20.593,47.0587 -0.5339,0.3051 -1.0678,0.6102 -1.6017,0.9153 -6.0127,-1.261 -11.1228,-3.244 -15.3303,-5.9491 2.7543,-7.2509 0.4089,-12.0191 -2.9746,-8.6185 -1.5236,-16.5008 -10.949,-22.843 -19.2528,-30.5185 -19.6662,-18.1785 -47.5459,-23.2861 -66.8222,-21.9873 -28.6785,1.9323 -68.7165,20.7482 -82.1008,65.4717 -1.2797,0.6585 -1.6645,-0.4328 -1.7543,-2.822 -0.8741,1.3979 -1.7819,3.7357 -2.5169,1.3729 -0.3488,-5.457 -1.4502,-10.7458 -2.9745,-15.9405 4.1294,-1.796 5.4186,-4.2425 3.2796,-7.4745 11.2277,-10.2911 16.8298,-19.6441 17.771,-28.22 6.7027,-1.0655 12.5101,-2.7279 17.0082,-5.2626 10.1183,-7.0379 13.6603,-24.5812 0.9915,-36.686 -5.8669,-6.2531 0.008,-14.4598 4.9576,-8.5423 2.0395,-1.0247 2.8604,0.5393 3.1271,3.2796 0.4323,-0.254 0.8645,-0.5084 1.2966,-0.7627 1.3575,1.7845 1.7418,3.5683 1.9871,5.352 z" />
    <path
       id="path10"
       style="fill:#e79d0d;fill-rule:evenodd"
       d="m 233.0915,366.1339 c -1.038,0.1121 -2.076,0.2243 -3.1142,0.3366 -1.7534,10.4649 -8.0378,19.3303 -17.4228,27.1022 1.6553,2.3564 1.2909,4.4884 -1.0942,6.3967 5.0031,-1.1138 5.855,-3.2918 2.1042,-6.6492 9.2833,-6.93 15.21,-15.4872 17.0861,-26.008 0.8137,-0.3928 1.6274,-0.7857 2.4409,-1.1783 z m -22.0521,42.3365 0.8417,5.2184 0.4209,-0.6733 -1.2626,-4.5451 z m 152.08,-55.2136 c 0.7509,-0.6882 1.5019,-1.3767 2.2529,-2.0651 4.5128,9.1454 10.1295,16.4513 16.1458,23.0923 2.2841,5.8825 4.5683,11.765 6.8526,17.6477 -2.4407,-5.4134 -4.8813,-10.8265 -7.3219,-16.2397 -6.2653,-6.5172 -12.4181,-13.4075 -17.9294,-22.4352 z" />
    <path
       id="path12"
       style="fill:#eceded;fill-rule:evenodd"
       d="m 457.3501,484.3257 0,0.7446 -300.8518,0 c 16.1916,-7.8055 29.6493,-17.8321 41.2103,-29.3972 12.159,-12.1635 22.2172,-26.0237 31.1557,-40.7872 15.7072,-5.7065 29.9185,-12.7861 42.5588,-21.3053 10.4195,-7.1011 19.5647,-15.3412 28.0307,-24.2811 1.8106,-1.9117 3.3735,-3.7302 4.8353,-5.9193 2.0356,1.9388 4.8073,4.8279 7.0049,6.7405 16.3699,14.2458 35.4131,27.1788 55.2587,40.5252 31.2065,20.9863 64.1685,43.1572 90.7974,73.6798 z" />
    <path
       id="path14"
       style="fill:#e30016;fill-rule:evenodd"
       d="m 154.2201,484.9058 0,-242.7668 149.1971,0 0,71.1919 c -14.0834,-0.4508 -30.5869,1.1486 -45.3824,8.985 -0.2453,-1.7837 -0.6296,-3.5675 -1.9871,-5.352 -0.4321,0.2543 -0.8643,0.5087 -1.2966,0.7627 -0.2667,-2.7403 -1.0876,-4.3043 -3.1271,-3.2796 -4.9494,-5.9175 -10.8245,2.2892 -4.9576,8.5423 12.6688,12.1048 9.1268,29.6481 -0.9915,36.686 -4.4981,2.5347 -10.3055,4.1971 -17.0082,5.2626 -0.9412,8.5759 -6.5433,17.9289 -17.771,28.22 2.139,3.232 0.8498,5.6785 -3.2796,7.4745 1.5243,5.1947 2.6257,10.4835 2.9745,15.9405 0.735,2.3628 1.6428,0.025 2.5169,-1.3729 0.0898,2.3892 0.4746,3.4805 1.7543,2.822 13.3843,-44.7235 53.4223,-63.5394 82.1008,-65.4717 2.0598,-0.1388 4.2188,-0.2031 6.4546,-0.1875 l 0,10.8956 c -9.2969,11.2372 -20.1956,21.0118 -32.6241,29.388 -12.6166,8.5032 -26.8085,15.5643 -42.5003,21.25 l -0.188,0.0684 -0.1029,0.1697 c -8.9232,14.7594 -18.9597,28.6092 -31.0912,40.7452 -11.8993,11.9036 -25.8206,22.164 -42.6906,30.0261 z m 134.8508,39.4845 c -1.0181,1.0338 -0.7097,3.4415 0.4917,4.4156 11.0271,-7.5627 22.0568,-15.1234 33.0877,-22.6814 0.3521,-0.2911 0.5078,-0.5763 0.6763,-1.0048 0.2146,-0.8171 0.237,-1.5538 0.0321,-2.4061 -0.1237,-0.334 -0.2645,-0.7334 -0.6109,-0.9038 -11.2286,7.5219 -22.4521,15.0528 -33.6769,22.5805 z m 33.8184,5.0298 c 1.0181,1.1093 0.7097,3.4942 -0.4917,4.379 -6.0802,-4.6216 -12.1604,-9.242 -18.2417,-13.8622 1.0423,-0.7144 2.0844,-1.4291 3.1267,-2.1435 5.2021,3.8756 10.4043,7.7514 15.6067,11.6267 z m -23.4781,-13.0882 c -3.3668,-2.5578 -6.7344,-5.1153 -10.1013,-7.6724 -0.3521,-0.3173 -0.5078,-0.614 -0.6763,-1.0552 -0.2146,-0.8331 -0.2369,-1.5714 -0.0321,-2.4086 0.1237,-0.3247 0.2645,-0.7135 0.6109,-0.8581 4.4367,3.3017 8.8733,6.6053 13.3089,9.9088 -1.0369,0.6952 -2.0733,1.3902 -3.1101,2.0855 z m -16.6856,-7.0153 0,0 c 1.1799,0 2.145,1.1091 2.145,2.4639 l 0,8.6429 c 0,1.3548 -0.9651,2.4639 -2.145,2.4639 l 0,0 c -1.18,0 -2.1451,-1.1091 -2.1451,-2.4639 l 0,-8.6429 c 0,-1.3548 0.9651,-2.4639 2.1451,-2.4639 z" />
    <path
       id="path16"
       style="fill:#008bd0;fill-rule:evenodd"
       d="m 270.338,586.7577 -64.0217,0 -2.6017,-0.2121 -2.6381,-0.2177 -2.605,-0.2261 -2.5674,-0.241 -2.5255,-0.2649 -2.4799,-0.295 -2.4298,-0.333 -2.3752,-0.378 -2.3159,-0.4308 -2.2538,-0.4898 -2.1866,-0.5563 -2.1159,-0.6291 -2.0406,-0.709 -1.9623,-0.7947 -1.8805,-0.8878 -1.7962,-0.9863 -1.7093,-1.0933 -1.6213,-1.2063 -1.5313,-1.328 -1.4399,-1.4572 -1.3467,-1.5972 -1.2519,-1.7458 -1.1535,-1.9054 -1.0529,-2.0742 -0.9469,-2.2541 -0.8369,-2.4424 -0.7221,-2.6404 -0.602,-2.8463 -0.4768,-3.0612 -0.3466,-3.2828 -0.2117,-3.513 -0.072,-3.7638 0,-56.2457 303.13,0 0,22.6577 -106.3042,0 c -0.5177,-0.5308 -1.2388,-0.8611 -2.0343,-0.8611 l 0,0 c -0.7954,0 -1.5175,0.3303 -2.0351,0.8611 l -24.4582,0 c 0,-0.6526 0,-1.3059 0,-1.9585 0.2361,-0.1615 0.4721,-0.3231 0.7081,-0.4849 1.7732,-1.1492 1.5963,-5.8705 -0.7081,-6.0238 0,-1.4356 0,-2.87 0,-4.3056 -11.1778,-3.5057 -22.3555,-3.7318 -33.5327,0 0,2.3052 0,4.6096 0,6.9146 -1.8386,0.5587 -1.8982,4.6083 -0.3148,5.8582 l -3.7499,0 c -0.5228,-0.6348 -1.3137,-1.0407 -2.1953,-1.0407 l 0,0 c -0.8816,0 -1.6737,0.4059 -2.1965,1.0407 l -7.0873,0 0,13.8193 7.2987,0 c 0.5136,0.5012 1.2149,0.8119 1.9851,0.8119 l 0,0 c 0.7701,0 1.4708,-0.3107 1.9844,-0.8119 l 4.2756,0 c 0,0.0652 0,0.1302 0,0.1957 -0.174,0.1168 -0.3482,0.2337 -0.5222,0.3504 -1.7406,1.3968 -0.7074,4.8098 0.5222,5.7988 0,3.2629 0,6.5261 0,9.7888 5.1329,3.7726 10.2653,7.5448 15.3982,11.3177 l -8.3606,0 0,7.9768 -34.3002,0 0,19.4634 8.615,0 0,8.7401 z m 181.78,-17.9815 -1.1473,1.9052 -1.2449,1.7457 -1.3399,1.5967 -1.4333,1.457 -1.5248,1.3275 -1.6152,1.2059 -1.7034,1.0928 -1.7912,0.9861 -1.8761,0.8875 -1.9589,0.7945 -2.0383,0.7088 -2.1146,0.6291 -2.1866,0.5563 -2.2549,0.4898 -2.319,0.4308 -2.3802,0.378 -2.4359,0.333 -2.4883,0.295 -2.5354,0.2649 -2.5796,0.241 -2.6196,0.2261 -2.6548,0.2177 -2.6216,0.2121 -64.0824,0 0,-8.7401 9.8912,0 0,-19.4634 -35.0978,0 0,-7.9768 -7.7053,0 c 4.7526,-4.1813 9.5058,-8.3624 14.2584,-12.5435 0,-1.1048 0,-2.21 0,-3.3148 1.3905,-0.2651 2.9324,-4.259 0.9785,-5.9721 -0.3261,-0.2428 -0.6524,-0.4861 -0.9785,-0.7289 0,-1.6307 0,-3.2613 0,-4.8921 l 24.3388,0 c 0.5229,0.6059 1.2964,0.9915 2.1545,0.9915 l 0,0 c 0.8582,0 1.6304,-0.3856 2.1532,-0.9915 l 106.1853,0 0,19.7689 -0.0713,3.7643 -0.2098,3.5132 -0.3441,3.2835 -0.473,3.0616 -0.598,2.8468 -0.7171,2.6408 -0.8315,2.4427 -0.9408,2.2543 -1.0465,2.0741 z M 304.9958,242.139 l 152.3543,0 0,240.4817 c -26.5729,-30.1336 -59.2326,-52.1023 -90.1715,-72.909 -22.6965,-15.2635 -44.4637,-29.9031 -62.1828,-46.6713 l 0,-10.653 c 18.4509,0.4391 41.7149,6.3677 58.789,22.1502 8.3038,7.6755 17.7292,14.0177 19.2528,30.5185 3.3835,-3.4006 5.7289,1.3676 2.9746,8.6185 4.2075,2.7051 9.3176,4.6881 15.3303,5.9491 0.5339,-0.3051 1.0678,-0.6102 1.6017,-0.9153 -7.4486,-15.6868 -14.2283,-31.3728 -20.593,-47.0587 -4.6874,-3.5326 -10.0178,-12.2096 -15.7879,-24.4065 19.6696,-21.7492 21.2392,-58.0771 -4.3474,-71.2364 3.8252,-2.9048 6.7889,-6.2406 7.8558,-10.5253 -4.5038,-0.3188 -8.6948,0.612 -12.5083,3.0508 4.6125,-6.5757 13.3662,-2.161 19.0651,-3.7706 3.6129,-1.0204 5.8845,-3.8914 3.2058,-7.2123 -0.5874,3.9907 -3.8826,5.646 -11.1355,3.8898 2.1282,-2.0602 2.9929,-3.8909 2.5932,-5.4915 -3.2092,2.4276 -6.7772,3.9927 -11.1354,3.661 -7.3249,2.8888 -12.0063,6.1077 -11.9745,9.9151 -0.305,0.051 -0.6101,0.1018 -0.9152,0.1526 -1.3444,-10.5287 24.119,-9.9377 21.0506,-18.915 -2.5009,2.7635 -5.8058,4.4922 -9.9151,5.1863 1.0483,-2.8136 0.7178,-4.5933 -0.9916,-5.3389 -1.158,6.2203 -5.7929,5.9146 -10.138,8.8045 -3.3792,2.2475 -7.2146,7.641 -4.6584,12.2461 -2.1638,0.7564 -4.1684,1.9864 -6.1016,3.4322 -0.4398,2.4458 -3.1203,6.3852 -9.0762,12.5083 -3.3913,0.2683 -2.539,3.9563 -0.305,3.7372 0.4474,2.266 2.6162,4.3908 4.6524,4.0595 0.4847,1.7001 4.6907,1.4907 5.9742,1.4819 0.7302,-1.5649 -1.1414,-4.3813 4.5751,-5.0923 5.7164,-0.7111 12.0883,5.5093 9.8582,12.4629 -2.2301,6.9537 -7.912,12.9211 -17.4769,12.4332 -4.676,-0.2385 -15.9288,-2.6981 -29.7188,-3.2925 l 0,-71.2508 z" />
    <path
       id="path18"
       style="fill:#eb8526;fill-rule:evenodd"
       d="m 361.4121,276.3647 c -1.5489,0.7313 -3.0977,1.4627 -4.6466,2.1942 2.3556,6.6353 -0.7528,11.1384 -8.3897,13.8753 6.4868,4.4711 6.8523,12.8078 -0.9259,20.4581 -2.43,2.3903 -7.4801,4.7675 -12.1653,4.457 -8.3214,-0.5512 -24.2783,-3.7049 -35.2466,-3.4046 -15.9547,0.4371 -26.9638,1.6919 -42.2068,9.2089 -0.533,-1.8818 -1.0384,-3.8169 -2.0006,-4.8403 -0.6115,0.2532 -0.8491,0.6939 -1.1616,1.0971 -0.9408,-4.7802 -1.9517,-5.9849 -3.0333,-3.614 -1.5919,-3.4344 -5.5835,-3.6894 -6.1954,-0.839 -0.612,2.8505 -1.032,5.3927 4.1303,10.4549 7.8624,8.6129 8.2523,23.2875 -0.7745,32.1391 -1.0754,0.9464 -2.1511,1.893 -3.2268,2.8396 -2.8797,3.5049 -7.2716,6.1457 -13.4881,7.7444 -1.3904,8.7864 -6.2929,17.3226 -16.3277,25.4919 4.0207,3.1279 0.4157,6.9685 -4.453,8.1961 0.8821,3.6786 1.7642,7.3571 2.646,11.0357 -1.0391,3.2367 1.1215,4.1989 1.807,0.2581 15.8611,-43.3503 55.0073,-60.7289 84.771,-61.4189 8.4881,-0.1968 19.3248,0.9854 30.1207,3.982 7.9585,2.2089 16.4721,5.9288 24.1914,10.9836 4.0773,2.6697 7.7985,5.8485 11.3941,9.0769 4.413,3.9624 8.8981,8.0571 11.9507,12.6703 3.0526,4.6134 4.6741,9.747 5.2376,15.4129 4.4672,-2.3452 5.8924,3.5369 3.3559,9.745 6.0064,3.0269 10.9089,4.8973 14.198,4.9048 -8.2907,-13.2866 -15.5131,-27.6408 -22.136,-42.594 -8.1359,-6.8928 -13.9791,-14.9316 -18.7801,-23.4913 28.9678,-24.7578 25.248,-65.6732 1.3553,-76.0238 z m -119.2998,85.8627 c -4.3345,1.5793 -8.5783,2.7062 -12.6906,3.1727 -1.5672,9.3367 -6.0545,17.5886 -17.7001,27.886 2.0746,3.4369 0.3211,5.8026 -3.1727,7.6812 0.8629,4.6475 1.7256,9.2952 2.5882,13.943 0.1117,1.4748 0.557,1.5024 1.3359,0.0835 0.3062,-0.7237 0.6124,-1.4474 0.9184,-2.1708 -0.9462,-3.8128 -1.8923,-7.6257 -2.8387,-11.4383 5.6368,-1.8368 8.2812,-4.2305 4.3415,-7.8481 8.8713,-7.2536 14.8691,-15.7354 16.6148,-25.8823 5.3881,-1.4121 8.3371,-3.3466 10.6033,-5.4269 z m 119.2344,-8.9539 c 1.4877,-1.3584 2.9754,-2.7168 4.4633,-4.0752 6.4011,12.1827 11.5703,19.5741 15.7189,22.9961 6.138,14.5254 12.5731,28.9024 19.212,43.1785 -0.2265,0.1615 -0.4529,0.3233 -0.6792,0.4851 -7.769,-12.6645 -14.5699,-25.8669 -20.0852,-39.7824 -7.4068,-6.8031 -13.4762,-14.4976 -18.6298,-22.8021 z m -13.781,-61.4806 c -2.8378,-0.9748 -5.8923,-1.0073 -9.1633,-0.0974 -0.7945,1.5272 -1.4444,3.0544 -1.9496,4.5816 -1.3937,-0.1331 -2.697,-0.3568 -3.8018,-0.7799 0.6174,-0.9748 1.2348,-1.9496 1.8521,-2.9244 -0.9748,0.7149 -1.9496,1.4297 -2.9244,2.1446 -2.025,-0.6303 -3.0346,-2.1525 -3.8993,-3.8018 -2.9849,-1.2997 -1.6544,-1.9625 0.2925,-2.5345 3.1844,-4.5934 8.1566,-7.3386 9.5532,-12.965 3.4646,-2.343 7.2657,-4.0171 11.3078,-5.4911 0.7133,-3.5616 4.6776,-6.779 11.8928,-9.3261 3.7568,-0.1519 6.656,-1.078 8.9683,-2.5346 0.0983,0.6795 -0.9958,2.1571 -2.632,3.9968 6.2859,1.7158 11.014,1.5042 12.965,-2.1446 -0.2297,3.9927 -4.7114,5.0088 -9.1572,4.5392 -5.5632,-0.5874 -10.8344,-2.1069 -16.2855,6.8661 5.0598,-4.0757 9.801,-4.9553 14.4273,-4.6791 -3.0364,5.7031 -7.574,9.4244 -13.355,11.5028 2.6972,5.6856 0.9146,10.4272 -8.0909,13.6474 z m 5.8588,-17.5936 c 0.2347,0.2356 0.4693,0.4712 0.7042,0.7068 2.2843,-2.5912 5.1555,-4.7295 9.319,-5.8712 -1.087,3.6171 -4.0942,5.646 -7.6392,7.2303 0.1625,0.308 0.3249,0.616 0.4876,0.9242 5.3317,-2.4034 8.1402,-5.5512 8.5603,-9.4051 -4.2695,0.6932 -8.1749,2.5329 -11.4319,6.415 z m -15.9831,8.318 c -0.5696,-3.9597 1.9406,-5.6268 5.8513,-6.2521 -1.5795,0.8311 -2.9996,1.8097 -4.0935,3.0871 0.3055,-0.1986 0.6697,-0.3145 1.0596,-0.3145 1.0741,0 1.9503,0.8762 1.9503,1.9505 0,1.0741 -0.8762,1.9503 -1.9503,1.9503 -1.0743,0 -1.9505,-0.8762 -1.9505,-1.9503 0,-0.1796 0.0239,-0.3531 0.0697,-0.5183 -0.3836,0.6171 -0.6999,1.2954 -0.9366,2.0473 z m 2.8174,-2.9377 c 0.7756,0 1.4086,0.6329 1.4086,1.4087 0,0.7758 -0.633,1.4085 -1.4086,1.4085 -0.776,0 -1.4087,-0.6327 -1.4087,-1.4085 0,-0.7758 0.6327,-1.4087 1.4087,-1.4087 z m 3.2065,-8.605 c 0.9667,-0.4976 1.9334,-0.9952 2.9001,-1.4927 -1.4216,-9.6243 17.9265,-10.9748 20.6844,-15.9504 -2.4707,1.5669 -5.0354,3.1049 -10.4915,3.753 1.4938,-2.3538 1.5645,-3.4622 1.2368,-4.2222 -0.7121,3.2587 -4.2646,4.3919 -8.3633,6.4753 -3.9144,1.99 -7.5675,6.0017 -5.9665,11.437 z m -46.4849,287.5796 18.0276,0 0,-7.0195 -18.0276,0 0,7.0195 z m -7.3178,-61.5275 c 10.5683,-3.4143 21.5921,-3.2173 32.1788,0.009 l 0,4.2564 c -6.1759,4.141 -12.3515,8.2821 -18.5274,12.4228 -4.5505,-3.3892 -9.101,-6.7779 -13.6514,-10.1671 l 0,-6.5207 z m 32.1788,10.785 0,19.7023 c -4.5918,-3.4199 -9.1829,-6.8401 -13.7747,-10.2601 4.5916,-3.1474 9.1831,-6.2948 13.7747,-9.4422 z m 0,26.6984 0,3.2174 c -5.1309,4.5071 -10.2584,9.0193 -15.3831,13.5337 -5.6003,-4.1123 -11.1948,-8.2332 -16.7957,-12.3443 l 0,-9.1741 c 0.1157,-0.004 0.2294,-0.0368 0.338,-0.1036 4.4562,-3.0546 8.9121,-6.1099 13.3678,-9.1648 6.1578,4.6789 12.3154,9.3571 18.473,14.0357 z m -32.1788,-11.6427 0,-12.8068 c 2.9849,2.2678 5.9693,4.5356 8.9543,6.8034 -2.985,2.0013 -5.9694,4.0021 -8.9543,6.0034 z m -15.0497,-12.3896 5.3383,0 c -0.0467,0.204 -0.0711,0.4161 -0.0711,0.6336 l 0,9.981 c 0,0.3006 0.0469,0.5899 0.1343,0.8625 l -5.4015,0 0,-11.4771 z m 10.8859,0 3.4868,0 c 0,3.8259 0,7.6512 0,11.4771 l -3.5497,0 c 0.0873,-0.2726 0.1351,-0.5619 0.1351,-0.8625 l 0,-9.981 c 0,-0.2175 -0.0255,-0.4296 -0.0722,-0.6336 z m 37.0195,0 23.7666,0 c -0.0774,0.2579 -0.1187,0.531 -0.1187,0.8132 l 0,9.9811 c 0,0.2353 0.0284,0.4637 0.083,0.6828 l -23.7309,0 c 0,-3.8257 0,-7.6514 0,-11.4771 z m 29.219,0 105.6589,0 0,11.4771 -105.6233,0 c 0.0546,-0.2191 0.0842,-0.4475 0.0842,-0.6828 l 0,-9.9811 c 0,-0.2822 -0.0424,-0.5553 -0.1198,-0.8132 z m -89.2166,49.1932 87.7447,0 0,17.2298 -87.7447,0 0,-17.2298 z m 77.7034,27.1499 0,-8.8033 -68.9384,0 0,8.8033 5.2767,0 c 17.3578,0 25.2677,20.6663 29.4425,27.2953 3.7352,-6.629 11.645,-27.2953 29.0028,-27.2953 l 5.2164,0 z" />
    <path
       id="path20"
       style="fill:#ffd900;fill-rule:evenodd"
       d="m 350.6194,292.3144 c 5.5355,-2.8969 9.2206,-7.1705 7.4404,-13.3382 1.0263,-0.3421 2.0525,-0.6842 3.0788,-1.0263 23.4527,10.4533 25.2206,49.5391 -2.0525,74.1475 5.9588,10.2674 12.474,18.1246 19.2424,24.8869 6.4471,13.4529 13.0251,26.8406 20.0122,40.0243 -3.1644,-1.1973 -6.3287,-2.3946 -9.493,-3.5919 1.2055,-8.4807 -0.4195,-12.2436 -4.8747,-11.2889 -3.1221,-26.3123 -44.6035,-53.4454 -85.2368,-51.452 -37.3649,1.833 -73.1273,27.919 -83.8401,60.9449 -0.7697,-2.8222 -1.6268,-5.9064 -2.3965,-8.7286 4.3813,-2.5014 7.3195,-5.098 4.7055,-9.231 10.5037,-9.3038 14.4411,-17.1667 15.394,-24.3737 24.9381,-8.3559 31.4601,-32.0514 16.4202,-46.1819 -6.0445,-6.8632 -0.7024,-12.4677 2.0525,-4.6182 0.7357,-0.1717 1.2795,-0.8216 1.796,-1.5394 -0.014,2.051 0.5034,3.881 1.796,5.3879 0.3111,-0.4278 0.5677,-0.8555 0.7697,-1.2828 0.3497,1.4459 0.8629,2.7288 1.5394,3.8485 42.0522,-19.3763 67.4292,-3.0856 82.9479,-6.6367 15.5188,-3.5511 17.9233,-19.9568 10.6986,-25.9504 z m -23.6954,-2.5817 c 0.4682,-0.1915 0.9364,-0.3831 1.4049,-0.5747 2.7033,-4.4275 7.6417,-6.7476 9.8343,-13.2827 3.6797,-2.0327 7.2822,-3.7567 10.7923,-5.1088 1.4471,0.4687 3.1288,0.4687 4.9171,0.2554 -0.3619,0.7239 -0.7239,1.4476 -1.0856,2.1713 5.1512,-4.257 10.2171,-6.2154 15.1986,-5.8751 -3.1097,4.9664 -7.2577,8.7643 -13.0912,10.6645 2.5555,5.2475 1.5978,9.9095 -7.0884,13.2828 -3.1291,-0.9796 -6.4288,-0.9369 -9.8982,0.1277 -0.5962,1.4473 -1.1921,2.8949 -1.7881,4.3424 -0.7663,-0.1915 -1.5326,-0.3831 -2.2989,-0.5747 0.947,-1.2772 1.7343,-2.5548 2.1712,-3.8316 -0.9049,0.3509 -2.2886,1.0746 -4.7256,2.6183 -1.3571,-0.6492 -2.3684,-1.7141 -2.8737,-3.3846 -0.4896,-0.2769 -0.9793,-0.5535 -1.4687,-0.8302 z m 26.5005,-15.5334 c 0.2347,0.2356 0.4693,0.4712 0.7042,0.7068 2.2843,-2.5912 5.1555,-4.7295 9.319,-5.8712 -1.087,3.6171 -4.0942,5.646 -7.6392,7.2303 0.1625,0.308 0.3249,0.616 0.4876,0.9242 5.3317,-2.4034 8.1402,-5.5512 8.5603,-9.4051 -4.2695,0.6932 -8.1749,2.5329 -11.4319,6.415 z m -15.9831,8.318 c -0.5696,-3.9597 1.9406,-5.6268 5.8513,-6.2521 -1.5795,0.8311 -2.9996,1.8097 -4.0935,3.0871 0.3055,-0.1986 0.6697,-0.3145 1.0596,-0.3145 1.0741,0 1.9503,0.8762 1.9503,1.9505 0,1.0741 -0.8762,1.9503 -1.9503,1.9503 -1.0743,0 -1.9505,-0.8762 -1.9505,-1.9503 0,-0.1796 0.0239,-0.3531 0.0697,-0.5183 -0.3836,0.6171 -0.6999,1.2954 -0.9366,2.0473 z m 12.1064,-12.4925 c 0.4233,-1.606 1.4381,-3.0312 2.9346,-4.3106 1.9492,0.0992 3.2444,0.7074 3.6255,2.0265 -0.6826,0.7463 -1.3171,1.5891 -1.9013,2.5359 -2.0255,0.2832 -3.6413,0.2482 -4.6588,-0.2518 z m 3.6082,-4.8527 c 0.9982,-0.7572 2.171,-1.4613 3.4917,-2.1204 1.6172,0.5068 2.4424,1.2334 2.4752,2.1802 -0.8695,0.5371 -1.6893,1.1766 -2.4545,1.9278 -0.6974,-1.5663 -1.9162,-2.1376 -3.5124,-1.9876 z m 4.253,-2.4875 c 0.9721,-0.4538 2.016,-0.8859 3.1231,-1.2991 1.2591,0.5054 1.9033,1.2946 2.1015,2.2897 -0.9679,0.2859 -1.8933,0.66 -2.7724,1.1312 -0.0977,-0.8275 -0.8324,-1.5487 -2.4522,-2.1218 z m 3.8991,-1.5029 c 2.5322,-0.2545 4.7542,-0.6647 6.665,-1.23 -0.7694,0.7555 -1.5389,1.511 -2.3084,2.2664 3.8925,1.3327 6.5074,1.4853 8.9399,1.469 -3.7052,1.1256 -7.8877,-0.8809 -11.2539,-0.1967 -0.2846,-0.9679 -0.9241,-1.7583 -2.0426,-2.3087 z m -17.4684,9.1369 c 0.6576,-0.3078 1.3151,-0.6156 1.9727,-0.9234 -0.0885,-0.4484 -0.1325,-0.8839 -0.133,-1.3085 l -1.8891,0.8644 c -0.005,0.4328 0.0115,0.8887 0.0494,1.3675 z m 1.8761,-2.9032 c 0.0999,-0.9009 0.4055,-1.7495 0.9089,-2.5549 l -1.9284,-0.1306 c -0.4789,0.9725 -0.7927,2.1315 -0.8803,3.5371 l 1.8998,-0.8516 z m 1.3036,-3.1246 c 0.6101,-0.8018 1.4247,-1.5604 2.4356,-2.2841 l -1.1009,-0.9802 c -1.3144,0.7798 -2.5009,1.7445 -3.3342,3.1133 l 1.9995,0.151 z m 2.9431,-2.6334 c 0.6639,-0.4402 1.4029,-0.8674 2.2139,-1.2844 l -0.9064,-0.8072 c -0.7898,0.3579 -1.5895,0.7255 -2.3574,1.1434 l 1.0499,0.9482 z m 2.7898,-1.573 c 0.7767,-0.3791 1.6141,-0.7496 2.5112,-1.1132 l -0.9881,-0.88 c -0.7422,0.4342 -1.5592,0.8178 -2.4007,1.2005 l 0.8776,0.7927 z m 3.1334,-1.36 c 1.4629,-0.5707 3.0731,-1.1251 4.8264,-1.6687 -1.6369,0.2798 -3.2737,0.5596 -4.9106,0.8394 0.0699,-0.3637 0.1399,-0.7275 0.2099,-1.0912 -0.3559,0.3506 -0.7591,0.6645 -1.1965,0.9533 l 1.0708,0.9672 z m -35.8495,239.6657 0,4.1123 c -5.5741,3.7374 -11.1481,7.4749 -16.7222,11.2121 -3.9491,-2.9413 -7.8971,-5.8827 -11.8462,-8.8238 l 0,-6.5299 c 9.332,-2.7076 19.1075,-2.5887 28.5684,0.0293 z m 0,10.6593 0,17.1195 c -3.9898,-2.9716 -7.9798,-5.9434 -11.9695,-8.915 3.9895,-2.7349 7.9797,-5.4698 11.9695,-8.2045 z m 0,24.0886 0,3.7719 c -4.562,4.0092 -9.1222,8.022 -13.6806,12.0352 -4.9612,-3.6493 -9.9244,-7.2965 -14.8878,-10.943 l 0,-9.3691 c 3.9671,-2.7197 7.9337,-5.4388 11.9006,-8.1586 5.556,4.2215 11.112,8.4423 16.6678,12.6636 z m -28.5684,-11.4807 0,-10.2261 c 2.3833,1.8106 4.7657,3.6219 7.1491,5.4328 -2.3834,1.598 -4.7658,3.1952 -7.1491,4.7933 z m 7.2675,35.7802 14.5178,0 0,-4.148 -14.5178,0 0,4.148 z m -23.0577,-45.2317 4.2025,0 0,8.1424 -4.2025,0 0,-8.1424 z m 9.8934,0 2.1889,0 0,8.1424 -2.1889,0 0,-8.1424 z m 169.162,8.8072 0,-0.4635 -1.5793,0 0.1455,-0.2322 c -3.9071,-2.4483 -13.0767,-2.2346 -23.379,-1.9945 -10.385,0.2421 -21.9363,0.5111 -30.1428,-1.8682 l -0.002,-0.002 -0.005,-0.001 -0.1363,-0.039 -0.1415,0.0323 c -3.6025,0.8162 -7.3266,0.9809 -11.1523,0.5973 -3.8341,-0.3845 -7.7785,-1.323 -11.8109,-2.711 l -0.1153,-0.0397 -0.1117,0.009 c -3.3703,0.2644 -6.6238,0.31 -9.6071,-0.144 -2.9545,-0.4495 -5.6557,-1.388 -7.9605,-3.0896 l -0.6698,0.9035 c 2.4709,1.8242 5.3399,2.8263 8.4629,3.3013 3.0603,0.4657 6.3539,0.4274 9.7508,0.1654 4.0642,1.3907 8.0544,2.3335 11.9514,2.7245 3.8943,0.3906 7.6902,0.2284 11.3699,-0.588 8.3751,2.3894 19.9395,2.1204 30.3421,1.8781 8.8886,-0.207 16.9193,-0.3936 21.1975,1.0984 l -63.6194,0 c -0.998,-0.8071 -2.745,-1.2634 -5.0437,-1.459 -2.3251,-0.1979 -5.2582,-0.1413 -8.5703,0.0744 -3.73,-0.377 -7.4686,-0.9181 -11.216,-1.6601 -3.6093,-0.7146 -7.2204,-1.6159 -10.8333,-2.7378 l 0,-3.476 c 0,-0.2825 -0.0413,-0.5551 -0.1189,-0.8132 l 37.8934,0 -0.0907,0.1187 c 2.1879,1.6806 5.1077,2.6703 8.6425,3.0779 3.457,0.3985 7.5153,0.2405 12.0611,-0.3696 6.1404,1.2516 12.8858,2.0924 20.3736,2.4273 7.4697,0.3342 15.6814,0.1692 24.7718,-0.5878 0.0413,0.2692 0.0704,0.5413 0.0876,0.8168 0.0983,1.5909 -0.1889,3.2857 -0.7445,5.0519 z m -102.8759,-5.0656 c 3.5375,1.0851 7.0762,1.9627 10.6171,2.6636 3.7853,0.7493 7.581,1.2968 11.3839,1.6795 l 0.0625,0.006 0.0278,-0.002 c 3.2668,-0.2135 6.1549,-0.2706 8.4358,-0.0763 0.8687,0.0738 1.6429,0.183 2.3077,0.3308 l -29.8302,0 0.0403,-0.1439 -3.0449,-0.8537 0,-3.6045 z m -5.6909,2.0087 -7.2493,-2.0324 -0.5134,-1.5401 -0.085,-0.2548 -0.2498,-0.0956 c -2.4978,-0.9568 -4.9405,-1.6098 -7.3348,-2.0061 -2.2015,-0.3644 -4.3535,-0.5106 -6.465,-0.4775 l 0,-1.0718 22.0173,0 c -0.0776,0.2581 -0.12,0.5307 -0.12,0.8132 l 0,6.6651 z m 0,2.5934 -8.177,0 -4.7993,-1.2704 -0.3938,-2.2308 -0.0546,-0.3087 -0.2913,-0.1164 c -1.0574,-0.4231 -2.3182,-0.7392 -3.7804,-0.9482 -1.3058,-0.1864 -2.7726,-0.2884 -4.4009,-0.3069 l 0,-2.6895 c 2.0625,-0.0339 4.1552,0.1069 6.2844,0.4592 2.2342,0.3698 4.5192,0.9734 6.8644,1.8537 l 0.5232,1.5696 0.0948,0.2848 0.2886,0.081 7.8419,2.1988 0,1.4238 z m -12.5758,0 -9.3215,0 0,-4.0531 c 1.581,0.018 2.9947,0.116 4.2421,0.2938 1.2417,0.1773 2.3183,0.4328 3.2297,0.7661 l 0.401,2.2716 0.0625,0.3547 0.3495,0.0925 1.0367,0.2744 z m 57.7909,-10.0717 62.0371,0 -0.2225,0.2069 c 0.9653,1.0351 1.5933,2.1554 1.9456,3.3444 -8.9945,0.7433 -17.1071,0.9046 -24.4751,0.5747 -7.4853,-0.3346 -14.2014,-1.1731 -20.2915,-2.4199 l -0.0946,-0.0194 -0.0927,0.0127 c -4.4909,0.6081 -8.4883,0.7685 -11.8765,0.3779 -2.7353,-0.3152 -5.0659,-0.989 -6.9298,-2.0773 z m 63.1261,0 2.8888,0 0,11.4771 -1.789,0 c 0.7266,-2.1119 1.1168,-4.1457 0.9985,-6.0597 -0.1207,-1.9505 -0.7618,-3.7704 -2.0983,-5.4174 z m -105.4958,-0.9816 0,0 c 1.18,0 2.1451,1.1091 2.1451,2.4639 l 0,8.6429 c 0,1.3548 -0.9651,2.4639 -2.1451,2.4639 l 0,0 c -1.1799,0 -2.145,-1.1091 -2.145,-2.4639 l 0,-8.6429 c 0,-1.3548 0.9651,-2.4639 2.145,-2.4639 z m -84.5764,51.6106 83.9157,0 0,14.3582 -83.9157,0 0,-14.3582 z m 74.1841,25.7141 0,-0.041 -0.4778,0.041 0.4778,0 z m -0.8004,0 c -0.1129,-1.2171 -0.5021,-2.3549 -1.092,-3.4333 -0.5124,-0.9371 -1.1799,-1.8381 -1.9516,-2.7132 -0.8191,1.0371 -1.5306,2.1031 -2.0832,3.2083 -0.5163,1.0328 -0.8947,2.1017 -1.0935,3.2167 1.0946,-0.1803 2.2289,-0.2785 3.4091,-0.2785 l 2.8112,0 z m -7.3951,0.505 c 0.1934,-1.3855 0.6336,-2.6945 1.2591,-3.9455 0.6271,-1.2537 1.4384,-2.4499 2.3712,-3.6079 l -4.2538,0 c -0.4707,1.3388 -0.8008,2.6927 -0.9664,4.0646 -0.156,1.291 -0.1657,2.5966 -0.0104,3.9198 0.5228,-0.1633 1.056,-0.3082 1.6003,-0.431 z m -2.6877,0.8056 c -0.1979,-1.4985 -0.197,-2.9729 -0.0215,-4.4266 0.1603,-1.3266 0.4653,-2.6365 0.8966,-3.9324 l -1.0644,0 c -0.5615,1.4904 -0.9512,2.9993 -1.136,4.5306 -0.1731,1.4327 -0.1663,2.8836 0.0467,4.3562 0.4186,-0.1889 0.8449,-0.3651 1.2786,-0.5278 z m -2.3382,1.0396 c -0.2807,-1.696 -0.3042,-3.3615 -0.1063,-5.0002 0.1796,-1.4859 0.5407,-2.9509 1.0572,-4.3984 l -4.1854,0 c 1.1713,1.7896 1.7526,3.5817 1.9697,5.3768 0.1947,1.6098 0.093,3.2117 -0.1363,4.8104 0.4572,-0.2782 0.9238,-0.542 1.4011,-0.7886 z m -2.6704,1.6154 c 0.3175,-1.8415 0.5071,-3.6792 0.2864,-5.505 -0.2216,-1.8329 -0.8652,-3.6688 -2.2259,-5.509 l -3.1322,0 c 1.2038,1.2736 2.1522,2.7624 2.8037,4.5013 0.7909,2.1107 1.1402,4.5816 0.9748,7.4711 0.4213,-0.3324 0.8525,-0.6519 1.2932,-0.9584 z m -2.5004,1.9648 c 0.3166,-3.1989 0.0103,-5.8667 -0.821,-8.0853 -0.7317,-1.9528 -1.8767,-3.5653 -3.3662,-4.8935 l -5.8085,0 c 0.2453,0.5118 0.5011,1.0163 0.9791,1.3435 0.201,0.1376 0.5698,0.1941 0.987,0.2579 1.1091,0.1693 2.486,0.38 3.5585,2.1507 l 0.002,0.007 5e-4,9e-4 4e-4,-3e-4 c 0.2052,0.3394 0.4087,0.7208 0.607,1.1344 0.1961,0.4093 0.39,0.8543 0.5784,1.3261 0.9024,2.2593 1.6931,5.1539 2.1602,7.7995 0.366,-0.3554 0.7399,-0.7032 1.1226,-1.0405 z m -1.6976,1.6134 -0.4565,0.0742 c -0.4402,-2.685 -1.2472,-5.7033 -2.1775,-8.0323 -0.1783,-0.4465 -0.362,-0.8681 -0.5477,-1.2557 -0.1837,-0.383 -0.3694,-0.7318 -0.5542,-1.0373 l -0.002,-0.003 -0.001,7e-4 c -0.8009,-1.3221 -1.8865,-1.4884 -2.7607,-1.6218 -0.5517,-0.0844 -1.0391,-0.1589 -1.4541,-0.443 -0.7525,-0.5147 -1.0736,-1.1858 -1.3945,-1.8566 -0.0672,-0.1404 -0.1347,-0.2807 -0.2058,-0.417 l -0.7428,0 c -0.186,0.2105 -0.3884,0.3967 -0.5912,0.5828 -0.4516,0.415 -0.9031,0.8302 -0.9372,1.4431 l -0.001,0.0243 -5e-4,0 c -0.007,0.1632 -0.003,0.3272 0.0118,0.4875 0.0153,0.1669 0.0447,0.3569 0.0862,0.5634 0.199,0.9911 0.6571,2.0593 1.2165,2.5846 0.1385,0.1302 0.4797,0.0979 0.8631,0.0618 1.1082,-0.1044 2.439,-0.2303 3.4563,1.9761 l -0.001,4e-4 c 0.0306,0.0657 0.023,0.0497 0.03,0.0648 0.1906,0.4188 0.3867,0.8979 0.5826,1.4245 0.1992,0.5366 0.3942,1.1078 0.5788,1.7003 0.6905,2.2177 1.3162,4.9339 1.6315,7.613 1.0339,-1.3672 2.1552,-2.6956 3.3712,-3.9344 z m -4.3691,5.3008 c -0.2353,-2.9872 -0.9294,-6.1411 -1.7091,-8.6445 -0.1875,-0.6018 -0.3748,-1.1531 -0.5566,-1.643 -0.1858,-0.4994 -0.3717,-0.9534 -0.552,-1.3496 -0.0122,-0.0269 -0.0138,-0.0309 -0.0266,-0.0585 l -0.002,-0.002 c -0.6839,-1.4837 -1.5811,-1.3988 -2.328,-1.3284 -0.6519,0.0616 -1.2312,0.1164 -1.74,-0.3615 -0.7314,-0.6869 -1.3129,-1.9973 -1.5514,-3.184 -0.044,-0.2193 -0.0778,-0.4486 -0.0993,-0.6821 -0.0218,-0.2385 -0.0291,-0.4565 -0.0203,-0.6463 l 0,-0.005 0.001,-0.0244 c 0.0508,-0.915 0.5149,-1.4653 1.0389,-1.964 l -5.3741,0 c -1.5424,3.2112 -3.7154,9.5107 -4.2967,14.7461 -0.1211,1.0928 -0.1715,2.1419 -0.1302,3.1083 0,7e-4 0,0.001 0,0.002 0.0197,0.4522 0.0603,0.8827 0.1226,1.288 4.2686,5.7561 7.0886,12.0556 9.0682,15.1992 1.6947,-3.0077 4.249,-8.9053 8.1555,-14.4507 z m -18.486,-2.3784 c -0.017,-0.9037 0.0383,-1.8772 0.1507,-2.8917 0.5664,-5.1029 2.6119,-11.1993 4.1739,-14.6229 l -2.9989,0 c -1.4216,2.9228 -2.7295,7.9082 -2.7737,12.4072 -0.009,0.934 0.0349,1.8364 0.1419,2.6814 0.0472,0.3728 0.1076,0.7377 0.1807,1.0931 0.3848,0.4373 0.7603,0.882 1.1254,1.3329 z m -2.4777,-2.7922 c -0.0747,-0.7598 -0.1063,-1.5381 -0.0986,-2.3242 0.0433,-4.4158 1.2691,-9.3 2.6598,-12.3982 l -2.4766,0 c -1.2902,3.4053 -1.8681,7.8567 -1.5229,11.7433 0.056,0.6325 0.1343,1.2366 0.2338,1.8052 0.4113,0.3809 0.8126,0.7729 1.2045,1.1739 z m -2.5083,-2.3159 c -0.0217,-0.1886 -0.0416,-0.3773 -0.0583,-0.5661 -0.3452,-3.8862 0.2054,-8.332 1.4535,-11.8404 l -3.698,0 c 0.8372,2.2087 1.3981,4.3975 1.5906,6.5599 0.1516,1.7028 0.0767,3.3931 -0.2692,5.0699 0.3331,0.2514 0.6598,0.5109 0.9814,0.7767 z m -1.9925,-1.5008 c 0.2387,-1.4008 0.2793,-2.8177 0.1521,-4.2488 -0.1955,-2.196 -0.7862,-4.4176 -1.6681,-6.6569 l -5.2635,0 c 0.0433,0.0399 0.0873,0.0792 0.1306,0.1189 0.8356,0.7659 1.6719,1.5322 2.2446,2.8651 0.003,0.007 0.006,0.0138 0.0169,0.0406 l -0.001,5e-4 c 0.5424,1.2853 0.7575,2.9158 0.9718,4.5459 0.0655,0.4983 0.1318,0.9963 0.2079,1.486 1.1226,0.5316 2.1915,1.1537 3.209,1.8487 z m -4.4228,-2.3772 c -0.0372,-0.2697 -0.0736,-0.5405 -0.1092,-0.8121 -0.2051,-1.5582 -0.4105,-3.1165 -0.8954,-4.2619 l -0.004,-0.007 c -0.003,-0.007 -0.003,-0.006 -0.008,-0.0189 -0.4753,-1.1062 -1.2235,-1.7917 -1.9711,-2.477 -0.3281,-0.3006 -0.6571,-0.6011 -0.9805,-0.952 l -7.4138,0 0,4.1414 c 0.6529,-1.1299 1.3849,-1.9481 2.1483,-2.454 0.7965,-0.5278 1.6285,-0.728 2.4483,-0.6025 0.8071,0.1234 1.5836,0.5617 2.2818,1.3108 1.0296,1.1048 1.9054,2.9206 2.4584,5.4351 0.7002,0.199 1.3822,0.4319 2.0458,0.6977 z m -3.2726,-1.0058 c -0.5032,-2.0164 -1.2264,-3.4705 -2.0557,-4.3602 -0.5181,-0.556 -1.0707,-0.8776 -1.6252,-0.9624 -0.5415,-0.0828 -1.1052,0.0589 -1.6594,0.426 -0.9608,0.6368 -1.8853,1.9196 -2.6385,3.8584 l -0.1312,-0.0507 0,0.6146 3.6719,0 c 1.554,0 3.0318,0.1672 4.4381,0.4743 z m 57.6188,-2.2835 0,-5.2392 -3.1409,0 c 0.8812,0.9811 1.6466,2.0001 2.236,3.0776 0.3816,0.6977 0.6882,1.4171 0.9049,2.1616 z m -39.8375,14.1824 c -0.3685,-2.2119 -0.3525,-4.3294 0.0488,-6.3514 0.4021,-2.0268 1.1896,-3.9566 2.3625,-5.7878 l 0.2318,-0.3617 0.4095,0.1282 c 2.1706,0.6781 2.3513,2.5435 2.5081,4.1689 0.0781,0.8087 0.1492,1.5416 0.473,1.8016 0.2715,0.218 0.7176,-0.0663 1.1702,-0.355 0.9719,-0.6191 1.963,-1.2501 3.0294,0.1767 l 0,0.002 0.009,0.0115 c 0.206,0.2771 0.4114,0.595 0.6097,0.9446 0.1954,0.3445 0.3863,0.7239 0.568,1.1307 0.9242,2.069 1.6039,4.8479 1.4423,7.4163 l -1.1282,-0.0704 c 0.15,-2.3836 -0.482,-4.9646 -1.3408,-6.8874 -0.1657,-0.3707 -0.3403,-0.7178 -0.5197,-1.0341 -0.1763,-0.3107 -0.3563,-0.5899 -0.5348,-0.83 l -0.007,-0.0101 -0.001,9e-4 c -0.4382,-0.5865 -0.9832,-0.2394 -1.5175,0.1008 -0.7956,0.5073 -1.5796,1.0064 -2.484,0.2801 -0.6918,-0.5554 -0.7846,-1.5141 -0.8868,-2.5729 -0.111,-1.1513 -0.2371,-2.4562 -1.3286,-3.0361 -0.9595,1.5906 -1.6125,3.2577 -1.958,4.999 -0.3753,1.8917 -0.3899,3.8756 -0.0442,5.9502 l -1.1107,0.1851 z" />
  </g>
</svg>
